src/test/resources/verilog_samples/multi_cycle_riscv_cpu_rebuild/test.vcd
$date
	Thu Mar 06 17:38:45 2025
$end
$version
	Icarus Verilog
$end
$timescale
	1s
$end
$scope module top_testbench $end
$scope module dut $end
$scope module rvmulti $end
$scope module dp $end
$var wire 32 ! PC [31:0] $end
$upscope $end
$upscope $end
$upscope $end
$upscope $end
$scope module top_testbench $end
$var reg 1 " clk $end
$upscope $end
$scope module top_testbench $end
$var reg 1 # reset $end
$upscope $end
$scope module top_testbench $end
$scope module dut $end
$var wire 1 " clk $end
$var wire 1 # reset $end
$scope module rvmulti $end
$var wire 1 " clk $end
$var wire 1 # reset $end
$var wire 7 $ op [6:0] $end
$var wire 31 % funct7b5 [30:0] $end
$var wire 7 & funct7 [6:0] $end
$var wire 3 ' funct3 [2:0] $end
$var wire 1 ( Zero $end
$var wire 2 ) ResultSrc [1:0] $end
$var wire 1 * RegWrite $end
$var wire 32 + ReadData [31:0] $end
$var wire 1 , PCWrite $end
$var wire 32 - PC [31:0] $end
$var wire 1 . MemWrite $end
$var wire 2 / ImmSrc [1:0] $end
$var wire 1 0 IRWrite $end
$var wire 1 1 AdrSrc $end
$var wire 2 2 ALUSrcB [1:0] $end
$var wire 2 3 ALUSrcA [1:0] $end
$var wire 3 4 ALUControl [2:0] $end
$scope module ctr $end
$var wire 1 " clk $end
$var wire 1 # reset $end
$var wire 7 5 op [6:0] $end
$var wire 31 6 funct7b5 [30:0] $end
$var wire 7 7 funct7 [6:0] $end
$var wire 3 8 funct3 [2:0] $end
$var wire 1 ( Zero $end
$var wire 32 9 ReadData [31:0] $end
$var wire 32 : PC [31:0] $end
$var parameter 4 ; ALUWriteBackState $end
$var parameter 4 < BEQState $end
$var parameter 4 = DecodeState $end
$var parameter 4 > ErrorState $end
$var parameter 4 ? ExecuteIState $end
$var parameter 4 @ ExecuteRState $end
$var parameter 4 A FetchState_1 $end
$var parameter 4 B FetchState_2 $end
$var parameter 4 C JALState $end
$var parameter 4 D MemAddrState $end
$var parameter 4 E MemReadState $end
$var parameter 4 F MemWBState $end
$var parameter 4 G MemWriteState $end
$var parameter 4 H ResetState $end
$var reg 3 I ALUControl [2:0] $end
$var reg 2 J ALUSrcA [1:0] $end
$var reg 2 K ALUSrcB [1:0] $end
$var reg 1 1 AdrSrc $end
$var reg 1 0 IRWrite $end
$var reg 2 L ImmSrc [1:0] $end
$var reg 1 . MemWrite $end
$var reg 1 , PCWrite $end
$var reg 1 * RegWrite $end
$var reg 2 M ResultSrc [1:0] $end
$var reg 4 N current_state [3:0] $end
$var reg 4 O next_state [3:0] $end
$upscope $end
$scope module dp $end
$var wire 3 P ALUControl [2:0] $end
$var wire 2 Q ALUSrcA [1:0] $end
$var wire 2 R ALUSrcB [1:0] $end
$var wire 1 1 AdrSrc $end
$var wire 1 0 IRWrite $end
$var wire 2 S ImmSrc [1:0] $end
$var wire 1 . MemWrite $end
$var wire 1 , PCWrite $end
$var wire 1 * RegWrite $end
$var wire 2 T ResultSrc [1:0] $end
$var wire 1 " clk $end
$var wire 1 # reset $end
$var wire 7 U op [6:0] $end
$var wire 31 V funct7b5 [30:0] $end
$var wire 7 W funct7 [6:0] $end
$var wire 3 X funct3 [2:0] $end
$var wire 32 Y data [31:0] $end
$var wire 32 Z adr [31:0] $end
$var wire 1 ( Zero $end
$var wire 32 [ WriteData [31:0] $end
$var wire 32 \ SrcB [31:0] $end
$var wire 32 ] SrcA [31:0] $end
$var wire 32 ^ Result [31:0] $end
$var wire 32 _ ReadData [31:0] $end
$var wire 32 ` RD2 [31:0] $end
$var wire 32 a RD1 [31:0] $end
$var wire 32 b OldPC [31:0] $end
$var wire 32 c Instr [31:0] $end
$var wire 32 d ImmExt [31:0] $end
$var wire 32 e ALUResult [31:0] $end
$var wire 32 f ALUOut [31:0] $end
$var wire 32 g A [31:0] $end
$scope module DataFF $end
$var wire 1 " clk $end
$var wire 1 # reset $end
$var wire 32 h d [31:0] $end
$var parameter 32 i WIDTH $end
$var reg 32 j q [31:0] $end
$upscope $end
$scope module Data_RD1 $end
$var wire 1 " clk $end
$var wire 1 # reset $end
$var wire 32 k d [31:0] $end
$var parameter 32 l WIDTH $end
$var reg 32 m q [31:0] $end
$upscope $end
$scope module Data_RD2 $end
$var wire 1 " clk $end
$var wire 1 # reset $end
$var wire 32 n d [31:0] $end
$var parameter 32 o WIDTH $end
$var reg 32 p q [31:0] $end
$upscope $end
$scope module InstrFF $end
$var wire 1 " clk $end
$var wire 1 0 en $end
$var wire 3 q id [2:0] $end
$var wire 1 # reset $end
$var wire 32 r d [31:0] $end
$var parameter 32 s WIDTH $end
$var reg 32 t q [31:0] $end
$upscope $end
$scope module OldPCFF $end
$var wire 1 " clk $end
$var wire 1 0 en $end
$var wire 3 u id [2:0] $end
$var wire 1 # reset $end
$var wire 32 v d [31:0] $end
$var parameter 32 w WIDTH $end
$var reg 32 x q [31:0] $end
$upscope $end
$scope module addrmux $end
$var wire 1 1 s $end
$var wire 32 y y [31:0] $end
$var wire 32 z d1 [31:0] $end
$var wire 32 { d0 [31:0] $end
$var parameter 32 | WIDTH $end
$upscope $end
$scope module alu $end
$var wire 3 } ALUControl [2:0] $end
$var wire 32 ~ b_in [31:0] $end
$var wire 32 !" a_in [31:0] $end
$var parameter 32 "" WIDTH $end
$var reg 32 #" ALUResult [31:0] $end
$var reg 1 ( Z $end
$upscope $end
$scope module aluResult $end
$var wire 1 " clk $end
$var wire 32 $" d [31:0] $end
$var wire 1 # reset $end
$var parameter 32 %" WIDTH $end
$var reg 32 &" q [31:0] $end
$upscope $end
$scope module ext $end
$var wire 2 '" immsrc [1:0] $end
$var wire 25 (" instr [31:7] $end
$var reg 32 )" immext [31:0] $end
$upscope $end
$scope module imem $end
$var wire 32 *" rd [31:0] $end
$var wire 32 +" a [31:0] $end
$upscope $end
$scope module pcreg $end
$var wire 1 " clk $end
$var wire 1 , en $end
$var wire 3 ," id [2:0] $end
$var wire 1 # reset $end
$var wire 32 -" d [31:0] $end
$var parameter 32 ." WIDTH $end
$var reg 32 /" q [31:0] $end
$upscope $end
$scope module resultmux $end
$var wire 32 0" d0 [31:0] $end
$var wire 32 1" d1 [31:0] $end
$var wire 32 2" d2 [31:0] $end
$var wire 2 3" s [1:0] $end
$var wire 32 4" y [31:0] $end
$var parameter 32 5" WIDTH $end
$upscope $end
$scope module rf $end
$var wire 5 6" a1 [4:0] $end
$var wire 5 7" a2 [4:0] $end
$var wire 5 8" a3 [4:0] $end
$var wire 1 " clk $end
$var wire 32 9" wd3 [31:0] $end
$var wire 1 * we3 $end
$var wire 32 :" rd2 [31:0] $end
$var wire 32 ;" rd1 [31:0] $end
$upscope $end
$scope module srcamux $end
$var wire 32 <" d0 [31:0] $end
$var wire 32 =" d1 [31:0] $end
$var wire 32 >" d2 [31:0] $end
$var wire 2 ?" s [1:0] $end
$var wire 32 @" y [31:0] $end
$var parameter 32 A" WIDTH $end
$upscope $end
$scope module srcbmux $end
$var wire 32 B" d0 [31:0] $end
$var wire 32 C" d1 [31:0] $end
$var wire 32 D" d2 [31:0] $end
$var wire 2 E" s [1:0] $end
$var wire 32 F" y [31:0] $end
$var parameter 32 G" WIDTH $end
$upscope $end
$upscope $end
$upscope $end
$upscope $end
$upscope $end
$enddefinitions $end
$comment Show the parameter values. $end
$dumpall
b100000 G"
b100000 A"
b100000 5"
b100000 ."
b100000 %"
b100000 ""
b100000 |
b100000 w
b100000 s
b100000 o
b100000 l
b100000 i
b0 H
b111 G
b110 F
b101 E
b100 D
b1011 C
b10 B
b1 A
b1000 @
b1010 ?
b1111 >
b11 =
b1100 <
b1001 ;
$end
#0
$dumpvars
b0 F"
b0 E"
b100 D"
b0 C"
b0 B"
b0 @"
b0 ?"
b0 >"
b0 ="
b0 <"
b0 ;"
b0 :"
b0 9"
b0 8"
b0 7"
b0 6"
b0 4"
b0 3"
b0 2"
b0 1"
b0 0"
b0 /"
b0 -"
b0 ,"
b0 +"
b10100000000000100010011 *"
b0 )"
b0 ("
b0 '"
b0 &"
b0 $"
b0 #"
b0 !"
b0 ~
b0 }
b0 {
b0 z
b0 y
b0 x
b0 v
b1 u
b0 t
b10100000000000100010011 r
b10 q
b0 p
b0 n
b0 m
b0 k
b0 j
b10100000000000100010011 h
b0 g
b0 f
b0 e
b0 d
b0 c
b0 b
b0 a
b0 `
b10100000000000100010011 _
b0 ^
b0 ]
b0 \
b0 [
b0 Z
b0 Y
b0 X
b0 W
b0 V
b0 U
b0 T
b0 S
b0 R
b0 Q
b0 P
b11 O
b1 N
b0 M
b0 L
b0 K
b0 J
b0 I
b0 :
b10100000000000100010011 9
b0 8
b0 7
b0 6
b0 5
b0 4
b0 3
b0 2
01
00
b0 /
0.
b0 -
0,
b10100000000000100010011 +
0*
b0 )
1(
b0 '
b0 &
b0 %
b0 $
1#
1"
b0 !
$end
#1
0"
#2
b10100000000000100010011 Y
b10100000000000100010011 j
b10100000000000100010011 1"
b1 O
b11 N
1"
0#
#3
0"
#4
bx d
bx )"
bx C"
b11 O
b10 )
b10 M
b10 T
b10 3"
b0 2
b0 K
b0 R
b0 E"
bx /
bx L
bx S
bx '"
10
1,
b1 N
1"
#5
0"
#6
b1010000000000010 ("
b10 8"
b101 7"
b10100000000000100010011 %
b10100000000000100010011 6
b10100000000000100010011 V
b10011 $
b10011 5
b10011 U
b10100000000000100010011 c
b10100000000000100010011 t
b1 O
b11 N
1"
#7
0"
#8
b11 O
b0 2
b0 K
b0 R
b0 E"
b1 N
1"
#9
0"
#10
b1010 O
b11 N
1"
#11
0"
#12
b1111 O
b1010 N
1"
#13
0"
#14
b1111 N
1"
