src/test/resources/verilog_samples/multi_cycle_riscv_cpu_rebuild/test2.vcd
$date
	Fri Mar 07 21:06:52 2025
$end
$version
	Icarus Verilog
$end
$timescale
	1s
$end
$scope module top_testbench $end
$scope module dut $end
$scope module rvmulti $end
$scope module dp $end
$var wire 32 ! PC [31:0] $end
$upscope $end
$upscope $end
$upscope $end
$upscope $end
$scope module top_testbench $end
$var reg 1 " clk $end
$upscope $end
$scope module top_testbench $end
$var reg 1 # reset $end
$upscope $end
$scope module top_testbench $end
$scope module dut $end
$var wire 1 " clk $end
$var wire 1 # reset $end
$scope module rvmulti $end
$var wire 1 " clk $end
$var wire 1 # reset $end
$var wire 7 $ op [6:0] $end
$var wire 7 % oldOp [6:0] $end
$var wire 31 & funct7b5 [30:0] $end
$var wire 7 ' funct7 [6:0] $end
$var wire 3 ( funct3 [2:0] $end
$var wire 1 ) Zero $end
$var wire 2 * ResultSrc [1:0] $end
$var wire 1 + RegWrite $end
$var wire 32 , ReadData [31:0] $end
$var wire 32 - ReadDData [31:0] $end
$var wire 1 . PCWrite $end
$var wire 32 / PC [31:0] $end
$var wire 1 0 MemWrite $end
$var wire 2 1 ImmSrc [1:0] $end
$var wire 1 2 IRWrite $end
$var wire 1 3 AdrSrc $end
$var wire 2 4 ALUSrcB [1:0] $end
$var wire 2 5 ALUSrcA [1:0] $end
$var wire 3 6 ALUControl [2:0] $end
$scope module ctr $end
$var wire 1 " clk $end
$var wire 1 # reset $end
$var wire 7 7 op [6:0] $end
$var wire 7 8 oldOp [6:0] $end
$var wire 31 9 funct7b5 [30:0] $end
$var wire 7 : funct7 [6:0] $end
$var wire 3 ; funct3 [2:0] $end
$var wire 1 ) Zero $end
$var wire 32 < ReadData [31:0] $end
$var wire 32 = ReadDData [31:0] $end
$var wire 32 > PC [31:0] $end
$var parameter 4 ? ALUWriteBackState $end
$var parameter 4 @ BEQState $end
$var parameter 4 A BRANCH_TAKEN_CHECK $end
$var parameter 4 B DecodeState $end
$var parameter 4 C ErrorState $end
$var parameter 4 D ExecuteIState $end
$var parameter 4 E ExecuteRState $end
$var parameter 4 F FetchState_1 $end
$var parameter 4 G FetchState_2 $end
$var parameter 4 H JALState $end
$var parameter 4 I MemAddrState $end
$var parameter 4 J MemReadState $end
$var parameter 4 K MemWBState $end
$var parameter 4 L MemWriteState $end
$var parameter 4 M ResetState $end
$var reg 3 N ALUControl [2:0] $end
$var reg 2 O ALUSrcA [1:0] $end
$var reg 2 P ALUSrcB [1:0] $end
$var reg 1 3 AdrSrc $end
$var reg 1 2 IRWrite $end
$var reg 2 Q ImmSrc [1:0] $end
$var reg 1 0 MemWrite $end
$var reg 1 . PCWrite $end
$var reg 1 + RegWrite $end
$var reg 2 R ResultSrc [1:0] $end
$var reg 4 S current_state [3:0] $end
$var reg 4 T next_state [3:0] $end
$scope function decode $end
$var reg 3 U funct3 [2:0] $end
$var reg 7 V funct7 [6:0] $end
$var reg 7 W opcode [6:0] $end
$upscope $end
$scope function sum $end
$var reg 8 X a [7:0] $end
$var reg 8 Y b [7:0] $end
$upscope $end
$upscope $end
$scope module dp $end
$var wire 3 Z ALUControl [2:0] $end
$var wire 2 [ ALUSrcA [1:0] $end
$var wire 2 \ ALUSrcB [1:0] $end
$var wire 1 3 AdrSrc $end
$var wire 1 2 IRWrite $end
$var wire 2 ] ImmSrc [1:0] $end
$var wire 1 0 MemWrite $end
$var wire 1 . PCWrite $end
$var wire 1 + RegWrite $end
$var wire 2 ^ ResultSrc [1:0] $end
$var wire 1 " clk $end
$var wire 1 # reset $end
$var wire 7 _ op [6:0] $end
$var wire 7 ` oldOp [6:0] $end
$var wire 31 a funct7b5 [30:0] $end
$var wire 7 b funct7 [6:0] $end
$var wire 3 c funct3 [2:0] $end
$var wire 32 d data [31:0] $end
$var wire 32 e adr [31:0] $end
$var wire 1 ) Zero $end
$var wire 32 f WriteData [31:0] $end
$var wire 32 g SrcB [31:0] $end
$var wire 32 h SrcA [31:0] $end
$var wire 32 i Result [31:0] $end
$var wire 32 j ReadData [31:0] $end
$var wire 32 k ReadDData [31:0] $end
$var wire 32 l RD2 [31:0] $end
$var wire 32 m RD1 [31:0] $end
$var wire 32 n OldPC [31:0] $end
$var wire 32 o Instr [31:0] $end
$var wire 32 p ImmExt [31:0] $end
$var wire 32 q ALUResult [31:0] $end
$var wire 32 r ALUOut [31:0] $end
$var wire 32 s A [31:0] $end
$scope module DataFF $end
$var wire 1 " clk $end
$var wire 1 # reset $end
$var wire 32 t d [31:0] $end
$var parameter 32 u WIDTH $end
$var reg 32 v q [31:0] $end
$upscope $end
$scope module Data_RD1 $end
$var wire 1 " clk $end
$var wire 1 # reset $end
$var wire 32 w d [31:0] $end
$var parameter 32 x WIDTH $end
$var reg 32 y q [31:0] $end
$upscope $end
$scope module Data_RD2 $end
$var wire 1 " clk $end
$var wire 1 # reset $end
$var wire 32 z d [31:0] $end
$var parameter 32 { WIDTH $end
$var reg 32 | q [31:0] $end
$upscope $end
$scope module InstrFF $end
$var wire 1 " clk $end
$var wire 1 2 en $end
$var wire 3 } id [2:0] $end
$var wire 1 # reset $end
$var wire 32 ~ d [31:0] $end
$var parameter 32 !" WIDTH $end
$var reg 32 "" q [31:0] $end
$upscope $end
$scope module OldPCFF $end
$var wire 1 " clk $end
$var wire 1 2 en $end
$var wire 3 #" id [2:0] $end
$var wire 1 # reset $end
$var wire 32 $" d [31:0] $end
$var parameter 32 %" WIDTH $end
$var reg 32 &" q [31:0] $end
$upscope $end
$scope module addrmux $end
$var wire 1 3 s $end
$var wire 32 '" y [31:0] $end
$var wire 32 (" d1 [31:0] $end
$var wire 32 )" d0 [31:0] $end
$var parameter 32 *" WIDTH $end
$upscope $end
$scope module alu $end
$var wire 3 +" ALUControl [2:0] $end
$var wire 32 ," b_in [31:0] $end
$var wire 32 -" a_in [31:0] $end
$var parameter 32 ." WIDTH $end
$var reg 32 /" ALUResult [31:0] $end
$var reg 1 ) Z $end
$upscope $end
$scope module aluResult $end
$var wire 1 " clk $end
$var wire 32 0" d [31:0] $end
$var wire 1 # reset $end
$var parameter 32 1" WIDTH $end
$var reg 32 2" q [31:0] $end
$upscope $end
$scope module dmem $end
$var wire 1 " clk $end
$var wire 32 3" rd [31:0] $end
$var wire 32 4" wd [31:0] $end
$var wire 1 0 we $end
$var wire 32 5" a [31:0] $end
$upscope $end
$scope module ext $end
$var wire 2 6" immsrc [1:0] $end
$var wire 25 7" instr [31:7] $end
$var reg 32 8" immext [31:0] $end
$upscope $end
$scope module imem $end
$var wire 32 9" rd [31:0] $end
$var wire 32 :" a [31:0] $end
$upscope $end
$scope module pcreg $end
$var wire 1 " clk $end
$var wire 1 . en $end
$var wire 3 ;" id [2:0] $end
$var wire 1 # reset $end
$var wire 32 <" d [31:0] $end
$var parameter 32 =" WIDTH $end
$var reg 32 >" q [31:0] $end
$upscope $end
$scope module resultmux $end
$var wire 32 ?" d0 [31:0] $end
$var wire 32 @" d1 [31:0] $end
$var wire 32 A" d2 [31:0] $end
$var wire 2 B" s [1:0] $end
$var parameter 32 C" WIDTH $end
$var reg 32 D" y [31:0] $end
$upscope $end
$scope module rf $end
$var wire 5 E" a1 [4:0] $end
$var wire 5 F" a2 [4:0] $end
$var wire 5 G" a3 [4:0] $end
$var wire 1 " clk $end
$var wire 32 H" wd3 [31:0] $end
$var wire 1 + we3 $end
$var wire 32 I" rd2 [31:0] $end
$var wire 32 J" rd1 [31:0] $end
$upscope $end
$scope module srcamux $end
$var wire 32 K" d0 [31:0] $end
$var wire 32 L" d1 [31:0] $end
$var wire 32 M" d2 [31:0] $end
$var wire 2 N" s [1:0] $end
$var parameter 32 O" WIDTH $end
$var reg 32 P" y [31:0] $end
$upscope $end
$scope module srcbmux $end
$var wire 32 Q" d0 [31:0] $end
$var wire 32 R" d1 [31:0] $end
$var wire 32 S" d2 [31:0] $end
$var wire 2 T" s [1:0] $end
$var parameter 32 U" WIDTH $end
$var reg 32 V" y [31:0] $end
$upscope $end
$upscope $end
$upscope $end
$upscope $end
$upscope $end
$enddefinitions $end
$comment Show the parameter values. $end
$dumpall
b100000 U"
b100000 O"
b100000 C"
b100000 ="
b100000 1"
b100000 ."
b100000 *"
b100000 %"
b100000 !"
b100000 {
b100000 x
b100000 u
b0 M
b111 L
b110 K
b101 J
b100 I
b1011 H
b10 G
b1 F
b1000 E
b1010 D
b1111 C
b11 B
b1101 A
b1100 @
b1001 ?
$end
#0
$dumpvars
b100 V"
b10 T"
b100 S"
bx R"
b0 Q"
b0 P"
b0 N"
b0 M"
b0 L"
b0 K"
b0 J"
b0 I"
b100 H"
b0 G"
b0 F"
b0 E"
b100 D"
b10 B"
b100 A"
b0 @"
b0 ?"
b0 >"
b100 <"
b0 ;"
b0 :"
b10100000000000100010011 9"
bx 8"
b0 7"
bx 6"
b100 5"
b0 4"
bx 3"
b0 2"
b100 0"
b100 /"
b0 -"
b100 ,"
b0 +"
b0 )"
b100 ("
b0 '"
b0 &"
b0 $"
b1 #"
b0 ""
b10100000000000100010011 ~
b10 }
b0 |
b0 z
b0 y
b0 w
b0 v
b10100000000000100010011 t
b0 s
b0 r
b100 q
bx p
b0 o
b0 n
b0 m
b0 l
bx k
b10100000000000100010011 j
b100 i
b0 h
b100 g
b0 f
b0 e
b0 d
b0 c
b0 b
b10100000000000100010011 a
b0 `
b10011 _
b10 ^
bx ]
b10 \
b0 [
b0 Z
bx Y
bx X
bx W
bx V
bx U
b11 T
b1 S
b10 R
bx Q
b10 P
b0 O
b0 N
b0 >
bx =
b10100000000000100010011 <
b0 ;
b0 :
b10100000000000100010011 9
b0 8
b10011 7
b0 6
b0 5
b10 4
03
12
bx 1
00
b0 /
1.
bx -
b10100000000000100010011 ,
0+
b10 *
0)
b0 (
b0 '
b10100000000000100010011 &
b0 %
b10011 $
1#
1"
b0 !
$end
#1
0"
#2
b110000000000000110010011 &
b110000000000000110010011 9
b110000000000000110010011 a
b100 e
b100 '"
b100 h
b100 -"
b100 P"
b1010000000000010 7"
b10 G"
b101 F"
b10011 %
b10011 8
b10011 `
b110000000000000110010011 ,
b110000000000000110010011 <
b110000000000000110010011 j
b110000000000000110010011 t
b110000000000000110010011 ~
b110000000000000110010011 9"
b100 !
b100 /
b100 >
b100 $"
b100 )"
b100 :"
b100 >"
b100 K"
b10100000000000100010011 o
b10100000000000100010011 ""
b10100000000000100010011 d
b10100000000000100010011 v
b10100000000000100010011 @"
b100 r
b100 2"
b100 ?"
0)
b100 q
b100 /"
b100 0"
b100 A"
b101 p
b101 8"
b101 R"
b100 i
b100 ("
b100 5"
b100 <"
b100 D"
b100 H"
b0 g
b0 ,"
b0 V"
b1010 T
02
b0 1
b0 Q
b0 ]
b0 6"
b0 *
b0 R
b0 ^
b0 B"
b10011 W
b0 U
b0 V
b0 4
b0 P
b0 \
b0 T"
0.
b11 S
1"
0#
#3
0"
#4
b110000000000000110010011 d
b110000000000000110010011 v
b110000000000000110010011 @"
b101 q
b101 /"
b101 0"
b101 A"
b101 g
b101 ,"
b101 V"
b0 h
b0 -"
b0 P"
b1001 T
b1 4
b1 P
b1 \
b1 T"
b10 5
b10 O
b10 [
b10 N"
b1010 S
1"
#5
0"
#6
b101 i
b101 ("
b101 5"
b101 <"
b101 D"
b101 H"
b101 r
b101 2"
b101 ?"
b100 q
b100 /"
b100 0"
b100 A"
b0 g
b0 ,"
b0 V"
b100 h
b100 -"
b100 P"
b1 T
1+
b0 4
b0 P
b0 \
b0 T"
b0 5
b0 O
b0 [
b0 N"
b1001 S
1"
#7
0"
#8
b100 r
b100 2"
b100 ?"
b1000 q
b1000 /"
b1000 0"
b1000 A"
b1000 i
b1000 ("
b1000 5"
b1000 <"
b1000 D"
b1000 H"
b100 g
b100 ,"
b100 V"
bx p
bx 8"
bx R"
b11 T
b10 *
b10 R
b10 ^
b10 B"
b10 4
b10 P
b10 \
b10 T"
bx 1
bx Q
bx ]
bx 6"
0+
12
1.
b1 S
1"
#9
0"
#10
b1111111 '
b1111111 :
b1111111 b
b1111111011100011000001110010011 &
b1111111011100011000001110010011 9
b1111111011100011000001110010011 a
b1000 e
b1000 '"
b1000 h
b1000 -"
b1000 P"
b11000000000000011 7"
b11 G"
b1100 F"
b11111111011100011000001110010011 ,
b11111111011100011000001110010011 <
b11111111011100011000001110010011 j
b11111111011100011000001110010011 t
b11111111011100011000001110010011 ~
b11111111011100011000001110010011 9"
b1000 !
b1000 /
b1000 >
b1000 $"
b1000 )"
b1000 :"
b1000 >"
b1000 K"
b100 n
b100 &"
b100 L"
b110000000000000110010011 o
b110000000000000110010011 ""
b1000 r
b1000 2"
b1000 ?"
b1000 q
b1000 /"
b1000 0"
b1000 A"
b1100 p
b1100 8"
b1100 R"
b1000 i
b1000 ("
b1000 5"
b1000 <"
b1000 D"
b1000 H"
b0 g
b0 ,"
b0 V"
b1010 T
02
b0 1
b0 Q
b0 ]
b0 6"
b0 *
b0 R
b0 ^
b0 B"
b0 4
b0 P
b0 \
b0 T"
0.
b11 S
1"
#11
0"
#12
b11111111011100011000001110010011 d
b11111111011100011000001110010011 v
b11111111011100011000001110010011 @"
b1100 q
b1100 /"
b1100 0"
b1100 A"
b1100 g
b1100 ,"
b1100 V"
b0 h
b0 -"
b0 P"
b1001 T
b1 4
b1 P
b1 \
b1 T"
b10 5
b10 O
b10 [
b10 N"
b1010 S
1"
#13
0"
#14
b1100 i
b1100 ("
b1100 5"
b1100 <"
b1100 D"
b1100 H"
b1100 r
b1100 2"
b1100 ?"
b1000 q
b1000 /"
b1000 0"
b1000 A"
b0 g
b0 ,"
b0 V"
b1000 h
b1000 -"
b1000 P"
b1 T
1+
b0 4
b0 P
b0 \
b0 T"
b0 5
b0 O
b0 [
b0 N"
b1001 S
1"
#15
0"
#16
b1000 r
b1000 2"
b1000 ?"
b1100 q
b1100 /"
b1100 0"
b1100 A"
b1100 i
b1100 ("
b1100 5"
b1100 <"
b1100 D"
b1100 H"
b100 g
b100 ,"
b100 V"
bx p
bx 8"
bx R"
b11 T
b10 *
b10 R
b10 ^
b10 B"
b10 4
b10 P
b10 \
b10 T"
bx 1
bx Q
bx ]
bx 6"
0+
12
1.
b1 S
1"
#17
0"
#18
b1100 m
b1100 w
b1100 J"
b0 '
b0 :
b0 b
b1000111110001000110011 &
b1000111110001000110011 9
b1000111110001000110011 a
b110 (
b110 ;
b110 c
b110011 $
b110011 7
b110011 _
b1100 e
b1100 '"
b1100 h
b1100 -"
b1100 P"
b1111111101110001100000111 7"
b111 G"
b10111 F"
b11 E"
b1000111110001000110011 ,
b1000111110001000110011 <
b1000111110001000110011 j
b1000111110001000110011 t
b1000111110001000110011 ~
b1000111110001000110011 9"
b1100 !
b1100 /
b1100 >
b1100 $"
b1100 )"
b1100 :"
b1100 >"
b1100 K"
b1000 n
b1000 &"
b1000 L"
b11111111011100011000001110010011 o
b11111111011100011000001110010011 ""
b1100 r
b1100 2"
b1100 ?"
b1100 q
b1100 /"
b1100 0"
b1100 A"
b11111111111111111111111111110111 p
b11111111111111111111111111110111 8"
b11111111111111111111111111110111 R"
b1100 i
b1100 ("
b1100 5"
b1100 <"
b1100 D"
b1100 H"
b0 g
b0 ,"
b0 V"
b1010 T
02
b0 1
b0 Q
b0 ]
b0 6"
b0 *
b0 R
b0 ^
b0 B"
b1111111 V
b0 4
b0 P
b0 \
b0 T"
0.
b11 S
1"
#19
0"
#20
b1100 s
b1100 y
b1100 M"
b1000111110001000110011 d
b1000111110001000110011 v
b1000111110001000110011 @"
b11 q
b11 /"
b11 0"
b11 A"
b11111111111111111111111111110111 g
b11111111111111111111111111110111 ,"
b11111111111111111111111111110111 V"
b1100 h
b1100 -"
b1100 P"
b1001 T
b1 4
b1 P
b1 \
b1 T"
b10 5
b10 O
b10 [
b10 N"
b1010 S
1"
#21
0"
#22
b11 i
b11 ("
b11 5"
b11 <"
b11 D"
b11 H"
b11 r
b11 2"
b11 ?"
b1100 q
b1100 /"
b1100 0"
b1100 A"
b0 g
b0 ,"
b0 V"
b1 T
1+
b0 4
b0 P
b0 \
b0 T"
b0 5
b0 O
b0 [
b0 N"
b1001 S
1"
#23
0"
#24
b1100 r
b1100 2"
b1100 ?"
b10000 q
b10000 /"
b10000 0"
b10000 A"
b10000 i
b10000 ("
b10000 5"
b10000 <"
b10000 D"
b10000 H"
b100 g
b100 ,"
b100 V"
bx p
bx 8"
bx R"
b11 T
b10 *
b10 R
b10 ^
b10 B"
b10 4
b10 P
b10 \
b10 T"
bx 1
bx Q
bx ]
bx 6"
0+
12
1.
b1 S
1"
#25
0"
#26
b101 l
b101 z
b101 I"
b11 m
b11 w
b11 J"
b10000011111001010110011 &
b10000011111001010110011 9
b10000011111001010110011 a
b111 (
b111 ;
b111 c
b10000 e
b10000 '"
b10000 h
b10000 -"
b10000 P"
b100011111000100 7"
b100 G"
b10 F"
b111 E"
b110011 %
b110011 8
b110011 `
b10000011111001010110011 ,
b10000011111001010110011 <
b10000011111001010110011 j
b10000011111001010110011 t
b10000011111001010110011 ~
b10000011111001010110011 9"
b10000 !
b10000 /
b10000 >
b10000 $"
b10000 )"
b10000 :"
b10000 >"
b10000 K"
b1100 n
b1100 &"
b1100 L"
b1000111110001000110011 o
b1000111110001000110011 ""
b10000 r
b10000 2"
b10000 ?"
b10 p
b10 8"
b10 R"
b10000 i
b10000 ("
b10000 5"
b10000 <"
b10000 D"
b10000 H"
b10000 q
b10000 /"
b10000 0"
b10000 A"
b0 g
b0 ,"
b0 V"
b1000 T
02
b0 1
b0 Q
b0 ]
b0 6"
b0 *
b0 R
b0 ^
b0 B"
b110 6
b110 N
b110 Z
b110 +"
b110011 W
b110 U
b0 V
b0 4
b0 P
b0 \
b0 T"
0.
b11 S
1"
#27
0"
#28
b101 g
b101 ,"
b101 V"
b101 f
b101 |
b101 4"
b101 Q"
b11 s
b11 y
b11 M"
b10000011111001010110011 d
b10000011111001010110011 v
b10000011111001010110011 @"
b111 q
b111 /"
b111 0"
b111 A"
b11 h
b11 -"
b11 P"
b1001 T
b10 5
b10 O
b10 [
b10 N"
b1000 S
1"
#29
0"
#30
b111 i
b111 ("
b111 5"
b111 <"
b111 D"
b111 H"
b111 r
b111 2"
b111 ?"
b10101 q
b10101 /"
b10101 0"
b10101 A"
b10000 h
b10000 -"
b10000 P"
b1 T
1+
b0 6
b0 N
b0 Z
b0 +"
b0 5
b0 O
b0 [
b0 N"
b1001 S
1"
#31
0"
#32
b10101 r
b10101 2"
b10101 ?"
b10100 q
b10100 /"
b10100 0"
b10100 A"
b10100 i
b10100 ("
b10100 5"
b10100 <"
b10100 D"
b10100 H"
b100 g
b100 ,"
b100 V"
bx p
bx 8"
bx R"
b11 T
b10 *
b10 R
b10 ^
b10 B"
b10 4
b10 P
b10 \
b10 T"
bx 1
bx Q
bx ]
bx 6"
0+
12
1.
b1 S
1"
#33
0"
#34
b111 l
b111 z
b111 I"
b1100 m
b1100 w
b1100 J"
b10000101000001010110011 &
b10000101000001010110011 9
b10000101000001010110011 a
b0 (
b0 ;
b0 c
b10100 e
b10100 '"
b10100 h
b10100 -"
b10100 P"
b1000001111100101 7"
b101 G"
b100 F"
b11 E"
b10000101000001010110011 ,
b10000101000001010110011 <
b10000101000001010110011 j
b10000101000001010110011 t
b10000101000001010110011 ~
b10000101000001010110011 9"
b10100 !
b10100 /
b10100 >
b10100 $"
b10100 )"
b10100 :"
b10100 >"
b10100 K"
b10000 n
b10000 &"
b10000 L"
b10000011111001010110011 o
b10000011111001010110011 ""
b10100 r
b10100 2"
b10100 ?"
b100 p
b100 8"
b100 R"
b10100 i
b10100 ("
b10100 5"
b10100 <"
b10100 D"
b10100 H"
0)
b100 q
b100 /"
b100 0"
b100 A"
b101 g
b101 ,"
b101 V"
b1000 T
02
b0 1
b0 Q
b0 ]
b0 6"
b0 *
b0 R
b0 ^
b0 B"
b10 6
b10 N
b10 Z
b10 +"
b111 U
b0 4
b0 P
b0 \
b0 T"
0.
b11 S
1"
#35
0"
#36
b111 g
b111 ,"
b111 V"
b100 i
b100 ("
b100 5"
b100 <"
b100 D"
b100 H"
b100 r
b100 2"
b100 ?"
b111 f
b111 |
b111 4"
b111 Q"
b1100 s
b1100 y
b1100 M"
b10000101000001010110011 d
b10000101000001010110011 v
b10000101000001010110011 @"
b100 q
b100 /"
b100 0"
b100 A"
b1100 h
b1100 -"
b1100 P"
b1001 T
b10 5
b10 O
b10 [
b10 N"
b1000 S
1"
#37
0"
#38
b11011 q
b11011 /"
b11011 0"
b11011 A"
b10100 h
b10100 -"
b10100 P"
b1 T
1+
b0 6
b0 N
b0 Z
b0 +"
b0 5
b0 O
b0 [
b0 N"
b1001 S
1"
#39
0"
#40
b11011 r
b11011 2"
b11011 ?"
b11000 q
b11000 /"
b11000 0"
b11000 A"
b11000 i
b11000 ("
b11000 5"
b11000 <"
b11000 D"
b11000 H"
b100 g
b100 ,"
b100 V"
bx p
bx 8"
bx R"
b11 T
b10 *
b10 R
b10 ^
b10 B"
b10 4
b10 P
b10 \
b10 T"
bx 1
bx Q
bx ]
bx 6"
0+
12
1.
b1 S
1"
#41
0"
#42
b100 m
b100 w
b100 J"
b1 '
b1 :
b1 b
b10011100101000100001100011 &
b10011100101000100001100011 9
b10011100101000100001100011 a
b1100011 $
b1100011 7
b1100011 _
b11000 e
b11000 '"
b11000 h
b11000 -"
b11000 P"
b1000010100000101 7"
b101 E"
b10011100101000100001100011 ,
b10011100101000100001100011 <
b10011100101000100001100011 j
b10011100101000100001100011 t
b10011100101000100001100011 ~
b10011100101000100001100011 9"
b11000 !
b11000 /
b11000 >
b11000 $"
b11000 )"
b11000 :"
b11000 >"
b11000 K"
b10100 n
b10100 &"
b10100 L"
b10000101000001010110011 o
b10000101000001010110011 ""
b11000 r
b11000 2"
b11000 ?"
b11111 q
b11111 /"
b11111 0"
b11111 A"
b100 p
b100 8"
b100 R"
b11000 i
b11000 ("
b11000 5"
b11000 <"
b11000 D"
b11000 H"
b111 g
b111 ,"
b111 V"
b1000 T
02
b0 1
b0 Q
b0 ]
b0 6"
b0 *
b0 R
b0 ^
b0 B"
b0 U
b0 4
b0 P
b0 \
b0 T"
0.
b11 S
1"
#43
0"
#44
b11111 i
b11111 ("
b11111 5"
b11111 <"
b11111 D"
b11111 H"
b11111 r
b11111 2"
b11111 ?"
b100 s
b100 y
b100 M"
b10011100101000100001100011 d
b10011100101000100001100011 v
b10011100101000100001100011 @"
b1011 q
b1011 /"
b1011 0"
b1011 A"
b100 h
b100 -"
b100 P"
b1001 T
b10 5
b10 O
b10 [
b10 N"
b1000 S
1"
#45
0"
#46
b1011 i
b1011 ("
b1011 5"
b1011 <"
b1011 D"
b1011 H"
b1011 r
b1011 2"
b1011 ?"
b11111 q
b11111 /"
b11111 0"
b11111 A"
b11000 h
b11000 -"
b11000 P"
b1 T
1+
b0 5
b0 O
b0 [
b0 N"
b1001 S
1"
#47
0"
#48
b1011 m
b1011 w
b1011 J"
b11111 r
b11111 2"
b11111 ?"
b11100 q
b11100 /"
b11100 0"
b11100 A"
b11100 i
b11100 ("
b11100 5"
b11100 <"
b11100 D"
b11100 H"
b100 g
b100 ,"
b100 V"
bx p
bx 8"
bx R"
b11 T
b10 *
b10 R
b10 ^
b10 B"
b10 4
b10 P
b10 \
b10 T"
bx 1
bx Q
bx ]
bx 6"
0+
12
1.
b1 S
1"
#49
0"
#50
b11 l
b11 z
b11 I"
b0 '
b0 :
b0 b
b10000011010001000110011 &
b10000011010001000110011 9
b10000011010001000110011 a
b10 (
b10 ;
b10 c
b110011 $
b110011 7
b110011 _
b11100 e
b11100 '"
b1001110010100010000 7"
b10000 G"
b111 F"
b1100011 %
b1100011 8
b1100011 `
b11100 h
b11100 -"
b11100 P"
b10000011010001000110011 ,
b10000011010001000110011 <
b10000011010001000110011 j
b10000011010001000110011 t
b10000011010001000110011 ~
b10000011010001000110011 9"
b11100 !
b11100 /
b11100 >
b11100 $"
b11100 )"
b11100 :"
b11100 >"
b11100 K"
b11000 n
b11000 &"
b11000 L"
b10011100101000100001100011 o
b10011100101000100001100011 ""
b1011 s
b1011 y
b1011 M"
b11100 r
b11100 2"
b11100 ?"
b100111 p
b100111 8"
b100111 R"
b11100 i
b11100 ("
b11100 5"
b11100 <"
b11100 D"
b11100 H"
b111 g
b111 ,"
b111 V"
b1100 T
02
b0 1
b0 Q
b0 ]
b0 6"
b0 *
b0 R
b0 ^
b0 B"
bx 6
bx N
bx Z
bx +"
b1100011 W
b1 V
b0 4
b0 P
b0 \
b0 T"
0.
b11 S
1"
#51
0"
#52
b11 g
b11 ,"
b11 V"
b11 f
b11 |
b11 4"
b11 Q"
b10000011010001000110011 d
b10000011010001000110011 v
b10000011010001000110011 @"
b1000 q
b1000 /"
b1000 0"
b1000 A"
b1011 h
b1011 -"
b1011 P"
b1101 T
b1 6
b1 N
b1 Z
b1 +"
b10 5
b10 O
b10 [
b10 N"
b1100 S
1"
#53
0"
#54
b1000 i
b1000 ("
b1000 5"
b1000 <"
b1000 D"
b1000 H"
b1000 r
b1000 2"
b1000 ?"
b1 T
b1101 S
1"
#55
0"
#56
b100000 i
b100000 ("
b100000 5"
b100000 <"
b100000 D"
b100000 H"
b100000 q
b100000 /"
b100000 0"
b100000 A"
b100 g
b100 ,"
b100 V"
bx p
bx 8"
bx R"
b11100 h
b11100 -"
b11100 P"
b11 T
b10 *
b10 R
b10 ^
b10 B"
b0 6
b0 N
b0 Z
b0 +"
b10 4
b10 P
b10 \
b10 T"
bx 1
bx Q
bx ]
bx 6"
b0 5
b0 O
b0 [
b0 N"
12
1.
b1 S
1"
#57
0"
#58
b111 l
b111 z
b111 I"
b1100 m
b1100 w
b1100 J"
b100000010001100011 &
b100000010001100011 9
b100000010001100011 a
b0 (
b0 ;
b0 c
b1100011 $
b1100011 7
b1100011 _
b100000 e
b100000 '"
b100000 h
b100000 -"
b100000 P"
b1000001101000100 7"
b100 G"
b100 F"
b11 E"
b110011 %
b110011 8
b110011 `
b100000010001100011 ,
b100000010001100011 <
b100000010001100011 j
b100000010001100011 t
b100000010001100011 ~
b100000010001100011 9"
b100000 !
b100000 /
b100000 >
b100000 $"
b100000 )"
b100000 :"
b100000 >"
b100000 K"
b11100 n
b11100 &"
b11100 L"
b10000011010001000110011 o
b10000011010001000110011 ""
b100000 r
b100000 2"
b100000 ?"
b100 p
b100 8"
b100 R"
b100000 i
b100000 ("
b100000 5"
b100000 <"
b100000 D"
b100000 H"
1)
b0 q
b0 /"
b0 0"
b0 A"
b11 g
b11 ,"
b11 V"
b1000 T
02
b0 1
b0 Q
b0 ]
b0 6"
b0 *
b0 R
b0 ^
b0 B"
b101 6
b101 N
b101 Z
b101 +"
b110011 W
b10 U
b0 V
b0 4
b0 P
b0 \
b0 T"
0.
b11 S
1"
#59
0"
#60
b111 g
b111 ,"
b111 V"
b0 i
b0 ("
b0 5"
b0 <"
b0 D"
b0 H"
b0 r
b0 2"
b0 ?"
b111 f
b111 |
b111 4"
b111 Q"
b1100 s
b1100 y
b1100 M"
b100000010001100011 d
b100000010001100011 v
b100000010001100011 @"
b1100 h
b1100 -"
b1100 P"
b1001 T
b10 5
b10 O
b10 [
b10 N"
b1000 S
1"
#61
0"
#62
0)
b100111 q
b100111 /"
b100111 0"
b100111 A"
b100000 h
b100000 -"
b100000 P"
b1 T
1+
b0 6
b0 N
b0 Z
b0 +"
b0 5
b0 O
b0 [
b0 N"
b1001 S
1"
#63
0"
#64
b0 l
b0 z
b0 I"
b100111 r
b100111 2"
b100111 ?"
b100100 q
b100100 /"
b100100 0"
b100100 A"
b100100 i
b100100 ("
b100100 5"
b100100 <"
b100100 D"
b100100 H"
b100 g
b100 ,"
b100 V"
bx p
bx 8"
bx R"
b11 T
b10 *
b10 R
b10 ^
b10 B"
b10 4
b10 P
b10 \
b10 T"
bx 1
bx Q
bx ]
bx 6"
0+
12
1.
b1 S
1"
#65
0"
#66
b0 m
b0 w
b0 J"
b1010010011 &
b1010010011 9
b1010010011 a
b10011 $
b10011 7
b10011 _
b100100 e
b100100 '"
b100100 h
b100100 -"
b100100 P"
b10000001000 7"
b1000 G"
b0 F"
b100 E"
b1100011 %
b1100011 8
b1100011 `
b1010010011 ,
b1010010011 <
b1010010011 j
b1010010011 t
b1010010011 ~
b1010010011 9"
b100100 !
b100100 /
b100100 >
b100100 $"
b100100 )"
b100100 :"
b100100 >"
b100100 K"
b100000 n
b100000 &"
b100000 L"
b100000010001100011 o
b100000010001100011 ""
b0 f
b0 |
b0 4"
b0 Q"
b100100 r
b100100 2"
b100100 ?"
b0 p
b0 8"
b0 R"
b100100 i
b100100 ("
b100100 5"
b100100 <"
b100100 D"
b100100 H"
b0 g
b0 ,"
b0 V"
b1100 T
02
b0 1
b0 Q
b0 ]
b0 6"
b0 *
b0 R
b0 ^
b0 B"
bx 6
bx N
bx Z
bx +"
b1100011 W
b0 U
b0 4
b0 P
b0 \
b0 T"
0.
b11 S
1"
#67
0"
#68
1)
b0 s
b0 y
b0 M"
b1010010011 d
b1010010011 v
b1010010011 @"
b0 q
b0 /"
b0 0"
b0 A"
b0 h
b0 -"
b0 P"
b1101 T
b1 6
b1 N
b1 Z
b1 +"
b10 5
b10 O
b10 [
b10 N"
b1100 S
1"
#69
0"
