src/test/resources/verilog_samples/multi_cycle_riscv_cpu_rebuild/test2.vcd
$date
	Sat Mar 08 18:59:47 2025
$end
$version
	Icarus Verilog
$end
$timescale
	1s
$end
$scope module top_testbench $end
$scope module dut $end
$scope module rvmulti $end
$scope module dp $end
$var wire 32 ! PC [31:0] $end
$upscope $end
$upscope $end
$upscope $end
$upscope $end
$scope module top_testbench $end
$var reg 1 " clk $end
$upscope $end
$scope module top_testbench $end
$var reg 1 # reset $end
$upscope $end
$scope module top_testbench $end
$scope module dut $end
$var wire 1 " clk $end
$var wire 1 # reset $end
$scope module rvmulti $end
$var wire 1 " clk $end
$var wire 1 # reset $end
$var wire 7 $ op [6:0] $end
$var wire 7 % oldOp [6:0] $end
$var wire 31 & funct7b5 [30:0] $end
$var wire 7 ' funct7 [6:0] $end
$var wire 3 ( funct3 [2:0] $end
$var wire 1 ) Zero $end
$var wire 2 * ResultSrc [1:0] $end
$var wire 1 + RegWrite $end
$var wire 32 , ReadData [31:0] $end
$var wire 1 - PCWrite $end
$var wire 32 . PC [31:0] $end
$var wire 1 / MemWrite $end
$var wire 2 0 ImmSrc [1:0] $end
$var wire 1 1 IRWrite $end
$var wire 1 2 AdrSrc $end
$var wire 2 3 ALUSrcB [1:0] $end
$var wire 2 4 ALUSrcA [1:0] $end
$var wire 3 5 ALUControl [2:0] $end
$scope module ctr $end
$var wire 1 " clk $end
$var wire 1 # reset $end
$var wire 7 6 op [6:0] $end
$var wire 7 7 oldOp [6:0] $end
$var wire 31 8 funct7b5 [30:0] $end
$var wire 7 9 funct7 [6:0] $end
$var wire 3 : funct3 [2:0] $end
$var wire 1 ) Zero $end
$var wire 32 ; ReadData [31:0] $end
$var wire 32 < PC [31:0] $end
$var parameter 4 = ALUWriteBackState $end
$var parameter 4 > BEQState $end
$var parameter 4 ? BRANCH_TAKEN_CHECK $end
$var parameter 4 @ DecodeState $end
$var parameter 4 A ErrorState $end
$var parameter 4 B ExecuteIState $end
$var parameter 4 C ExecuteRState $end
$var parameter 4 D FetchState_1 $end
$var parameter 4 E FetchState_2 $end
$var parameter 4 F JALState $end
$var parameter 4 G MemAddrState $end
$var parameter 4 H MemReadState $end
$var parameter 4 I MemWBState $end
$var parameter 4 J MemWriteState $end
$var parameter 4 K ResetState $end
$var reg 3 L ALUControl [2:0] $end
$var reg 2 M ALUSrcA [1:0] $end
$var reg 2 N ALUSrcB [1:0] $end
$var reg 1 2 AdrSrc $end
$var reg 1 1 IRWrite $end
$var reg 2 O ImmSrc [1:0] $end
$var reg 1 / MemWrite $end
$var reg 1 - PCWrite $end
$var reg 1 + RegWrite $end
$var reg 2 P ResultSrc [1:0] $end
$var reg 4 Q current_state [3:0] $end
$var reg 4 R next_state [3:0] $end
$scope function decodeAluOp $end
$var reg 3 S funct3 [2:0] $end
$var reg 7 T funct7 [6:0] $end
$var reg 7 U opcode [6:0] $end
$upscope $end
$scope function decodeImmSrc $end
$var reg 3 V funct3 [2:0] $end
$var reg 7 W funct7 [6:0] $end
$var reg 7 X opcode [6:0] $end
$upscope $end
$scope function sum $end
$var reg 8 Y a [7:0] $end
$var reg 8 Z b [7:0] $end
$upscope $end
$upscope $end
$scope module dp $end
$var wire 3 [ ALUControl [2:0] $end
$var wire 2 \ ALUSrcA [1:0] $end
$var wire 2 ] ALUSrcB [1:0] $end
$var wire 1 2 AdrSrc $end
$var wire 1 1 IRWrite $end
$var wire 2 ^ ImmSrc [1:0] $end
$var wire 1 / MemWrite $end
$var wire 1 - PCWrite $end
$var wire 1 + RegWrite $end
$var wire 2 _ ResultSrc [1:0] $end
$var wire 1 " clk $end
$var wire 1 # reset $end
$var wire 7 ` op [6:0] $end
$var wire 7 a oldOp [6:0] $end
$var wire 31 b funct7b5 [30:0] $end
$var wire 7 c funct7 [6:0] $end
$var wire 3 d funct3 [2:0] $end
$var wire 32 e data [31:0] $end
$var wire 32 f adr [31:0] $end
$var wire 1 ) Zero $end
$var wire 32 g WriteData [31:0] $end
$var wire 32 h SrcB [31:0] $end
$var wire 32 i SrcA [31:0] $end
$var wire 32 j Result [31:0] $end
$var wire 32 k ReadData [31:0] $end
$var wire 32 l RD2 [31:0] $end
$var wire 32 m RD1 [31:0] $end
$var wire 32 n OldPC [31:0] $end
$var wire 32 o Instr [31:0] $end
$var wire 32 p ImmExt [31:0] $end
$var wire 32 q ALUResult [31:0] $end
$var wire 32 r ALUOut [31:0] $end
$var wire 32 s A [31:0] $end
$scope module DataFF $end
$var wire 1 " clk $end
$var wire 3 t id [2:0] $end
$var wire 1 # reset $end
$var wire 32 u d [31:0] $end
$var parameter 32 v WIDTH $end
$var reg 32 w q [31:0] $end
$upscope $end
$scope module Data_RD1 $end
$var wire 1 " clk $end
$var wire 3 x id [2:0] $end
$var wire 1 # reset $end
$var wire 32 y d [31:0] $end
$var parameter 32 z WIDTH $end
$var reg 32 { q [31:0] $end
$upscope $end
$scope module Data_RD2 $end
$var wire 1 " clk $end
$var wire 3 | id [2:0] $end
$var wire 1 # reset $end
$var wire 32 } d [31:0] $end
$var parameter 32 ~ WIDTH $end
$var reg 32 !" q [31:0] $end
$upscope $end
$scope module InstrFF $end
$var wire 1 " clk $end
$var wire 1 1 en $end
$var wire 3 "" id [2:0] $end
$var wire 1 # reset $end
$var wire 32 #" d [31:0] $end
$var parameter 32 $" WIDTH $end
$var reg 32 %" q [31:0] $end
$upscope $end
$scope module OldPCFF $end
$var wire 1 " clk $end
$var wire 1 1 en $end
$var wire 3 &" id [2:0] $end
$var wire 1 # reset $end
$var wire 32 '" d [31:0] $end
$var parameter 32 (" WIDTH $end
$var reg 32 )" q [31:0] $end
$upscope $end
$scope module addrmux $end
$var wire 1 2 s $end
$var wire 32 *" y [31:0] $end
$var wire 32 +" d1 [31:0] $end
$var wire 32 ," d0 [31:0] $end
$var parameter 32 -" WIDTH $end
$upscope $end
$scope module alu $end
$var wire 3 ." ALUControl [2:0] $end
$var wire 32 /" b_in [31:0] $end
$var wire 32 0" a_in [31:0] $end
$var parameter 32 1" WIDTH $end
$var reg 32 2" ALUResult [31:0] $end
$var reg 1 ) Z $end
$upscope $end
$scope module aluResult $end
$var wire 1 " clk $end
$var wire 32 3" d [31:0] $end
$var wire 3 4" id [2:0] $end
$var wire 1 # reset $end
$var parameter 32 5" WIDTH $end
$var reg 32 6" q [31:0] $end
$upscope $end
$scope module ext $end
$var wire 2 7" immsrc [1:0] $end
$var wire 25 8" instr [31:7] $end
$var reg 32 9" immext [31:0] $end
$upscope $end
$scope module pcreg $end
$var wire 1 " clk $end
$var wire 1 - en $end
$var wire 3 :" id [2:0] $end
$var wire 1 # reset $end
$var wire 32 ;" d [31:0] $end
$var parameter 32 <" WIDTH $end
$var reg 32 =" q [31:0] $end
$upscope $end
$scope module ram $end
$var wire 32 >" a [31:0] $end
$var wire 1 " clk $end
$var wire 32 ?" rd [31:0] $end
$var wire 32 @" wd [31:0] $end
$var wire 1 / we $end
$upscope $end
$scope module resultmux $end
$var wire 32 A" d0 [31:0] $end
$var wire 32 B" d1 [31:0] $end
$var wire 32 C" d2 [31:0] $end
$var wire 2 D" s [1:0] $end
$var parameter 32 E" WIDTH $end
$var reg 32 F" y [31:0] $end
$upscope $end
$scope module rf $end
$var wire 5 G" a1 [4:0] $end
$var wire 5 H" a2 [4:0] $end
$var wire 5 I" a3 [4:0] $end
$var wire 1 " clk $end
$var wire 32 J" wd3 [31:0] $end
$var wire 1 + we3 $end
$var wire 32 K" rd2 [31:0] $end
$var wire 32 L" rd1 [31:0] $end
$upscope $end
$scope module srcamux $end
$var wire 32 M" d0 [31:0] $end
$var wire 32 N" d1 [31:0] $end
$var wire 32 O" d2 [31:0] $end
$var wire 2 P" s [1:0] $end
$var parameter 32 Q" WIDTH $end
$var reg 32 R" y [31:0] $end
$upscope $end
$scope module srcbmux $end
$var wire 32 S" d0 [31:0] $end
$var wire 32 T" d1 [31:0] $end
$var wire 32 U" d2 [31:0] $end
$var wire 2 V" s [1:0] $end
$var parameter 32 W" WIDTH $end
$var reg 32 X" y [31:0] $end
$upscope $end
$upscope $end
$upscope $end
$upscope $end
$upscope $end
$enddefinitions $end
$comment Show the parameter values. $end
$dumpall
b100000 W"
b100000 Q"
b100000 E"
b100000 <"
b100000 5"
b100000 1"
b100000 -"
b100000 ("
b100000 $"
b100000 ~
b100000 z
b100000 v
b0 K
b111 J
b110 I
b101 H
b100 G
b1011 F
b10 E
b1 D
b1000 C
b1010 B
b1111 A
b11 @
b1101 ?
b1100 >
b1001 =
$end
#0
$dumpvars
b100 X"
b10 V"
b100 U"
bx T"
b0 S"
b0 R"
b0 P"
b0 O"
b0 N"
b0 M"
b0 L"
b0 K"
b100 J"
b0 I"
b0 H"
b0 G"
b100 F"
b10 D"
b100 C"
b0 B"
b0 A"
b0 @"
b10100000000000100010011 ?"
b0 >"
b0 ="
b100 ;"
b0 :"
bx 9"
b0 8"
bx 7"
b0 6"
b11 4"
b100 3"
b100 2"
b0 0"
b100 /"
b0 ."
b0 ,"
b100 +"
b0 *"
b0 )"
b0 '"
b1 &"
b0 %"
b10100000000000100010011 #"
b10 ""
b0 !"
b0 }
b10 |
b0 {
b0 y
b1 x
b0 w
b10100000000000100010011 u
b0 t
b0 s
b0 r
b100 q
bx p
b0 o
b0 n
b0 m
b0 l
b10100000000000100010011 k
b100 j
b0 i
b100 h
b0 g
b0 f
b0 e
b0 d
b0 c
b10100000000000100010011 b
b0 a
b10011 `
b10 _
bx ^
b10 ]
b0 \
b0 [
bx Z
bx Y
bx X
bx W
bx V
bx U
bx T
bx S
b11 R
b1 Q
b10 P
bx O
b10 N
b0 M
b0 L
b0 <
b10100000000000100010011 ;
b0 :
b0 9
b10100000000000100010011 8
b0 7
b10011 6
b0 5
b0 4
b10 3
02
11
bx 0
0/
b0 .
1-
b10100000000000100010011 ,
0+
b10 *
0)
b0 (
b0 '
b10100000000000100010011 &
b0 %
b10011 $
1#
1"
b0 !
$end
#1
0"
#2
b10100000000000100010011 e
b10100000000000100010011 w
b10100000000000100010011 B"
b100 r
b100 6"
b100 A"
bx '
bx 9
bx c
bx (
bx :
bx d
bx $
bx 6
bx `
b101 j
b101 +"
b101 ;"
b101 F"
b101 J"
b101 h
b101 /"
b101 X"
bx &
bx 8
bx b
b101 q
b101 2"
b101 3"
b101 C"
b101 p
b101 9"
b101 T"
b1010 R
01
b0 0
b0 O
b0 ^
b0 7"
b10011 X
b0 V
b0 W
x2
bx *
bx P
bx _
bx D"
b10011 U
b0 S
b0 T
b1 3
b1 N
b1 ]
b1 V"
b1 4
b1 M
b1 \
b1 P"
0-
bx ,
bx ;
bx k
bx u
bx #"
bx ?"
b10x f
b10x *"
b10x >"
b0 i
b0 0"
b0 R"
b1010000000000010 8"
b10 I"
b101 H"
b10011 %
b10011 7
b10011 a
b11 Q
b100 !
b100 .
b100 <
b100 '"
b100 ,"
b100 ="
b100 M"
b10100000000000100010011 o
b10100000000000100010011 %"
1"
0#
#3
0"
#4
b101 r
b101 6"
b101 A"
bx e
bx w
bx B"
b0 '
b0 9
b0 c
b110000000000000110010011 &
b110000000000000110010011 8
b110000000000000110010011 b
b0 (
b0 :
b0 d
b10011 $
b10011 6
b10011 `
b110000000000000110010011 ,
b110000000000000110010011 ;
b110000000000000110010011 k
b110000000000000110010011 u
b110000000000000110010011 #"
b110000000000000110010011 ?"
b100 f
b100 *"
b100 >"
b101 j
b101 +"
b101 ;"
b101 F"
b101 J"
b1001 R
02
b0 *
b0 P
b0 _
b0 D"
b10 4
b10 M
b10 \
b10 P"
b1010 Q
1"
#5
0"
#6
b110000000000000110010011 e
b110000000000000110010011 w
b110000000000000110010011 B"
b100 q
b100 2"
b100 3"
b100 C"
b0 h
b0 /"
b0 X"
b100 i
b100 0"
b100 R"
b1 R
1+
b0 3
b0 N
b0 ]
b0 V"
b0 4
b0 M
b0 \
b0 P"
b1001 Q
1"
#7
0"
#8
b100 r
b100 6"
b100 A"
b1000 q
b1000 2"
b1000 3"
b1000 C"
b1000 j
b1000 +"
b1000 ;"
b1000 F"
b1000 J"
bx p
bx 9"
bx T"
b100 h
b100 /"
b100 X"
b11 R
b10 *
b10 P
b10 _
b10 D"
bx 0
bx O
bx ^
bx 7"
b10 3
b10 N
b10 ]
b10 V"
0+
11
1-
b1 Q
1"
#9
0"
#10
b1000 r
b1000 6"
b1000 A"
bx (
bx :
bx d
bx $
bx 6
bx `
b10000 j
b10000 +"
b10000 ;"
b10000 F"
b10000 J"
b1100 h
b1100 /"
b1100 X"
bx '
bx 9
bx c
bx &
bx 8
bx b
b10000 q
b10000 2"
b10000 3"
b10000 C"
b1100 p
b1100 9"
b1100 T"
b1010 R
01
b0 0
b0 O
b0 ^
b0 7"
x2
bx *
bx P
bx _
bx D"
b1 3
b1 N
b1 ]
b1 V"
b1 4
b1 M
b1 \
b1 P"
0-
bx ,
bx ;
bx k
bx u
bx #"
bx ?"
b0xx000 f
b0xx000 *"
b0xx000 >"
b100 i
b100 0"
b100 R"
b11000000000000011 8"
b11 I"
b1100 H"
b11 Q
b1000 !
b1000 .
b1000 <
b1000 '"
b1000 ,"
b1000 ="
b1000 M"
b100 n
b100 )"
b100 N"
b110000000000000110010011 o
b110000000000000110010011 %"
1"
#11
0"
#12
b10000 r
b10000 6"
b10000 A"
bx e
bx w
bx B"
b1111111 '
b1111111 9
b1111111 c
b1111111011100011000001110010011 &
b1111111011100011000001110010011 8
b1111111011100011000001110010011 b
b0 (
b0 :
b0 d
b10011 $
b10011 6
b10011 `
b1100 q
b1100 2"
b1100 3"
b1100 C"
b11111111011100011000001110010011 ,
b11111111011100011000001110010011 ;
b11111111011100011000001110010011 k
b11111111011100011000001110010011 u
b11111111011100011000001110010011 #"
b11111111011100011000001110010011 ?"
b1000 f
b1000 *"
b1000 >"
b10000 j
b10000 +"
b10000 ;"
b10000 F"
b10000 J"
b0 i
b0 0"
b0 R"
b1001 R
02
b0 *
b0 P
b0 _
b0 D"
b10 4
b10 M
b10 \
b10 P"
b1010 Q
1"
#13
0"
#14
b1100 j
b1100 +"
b1100 ;"
b1100 F"
b1100 J"
b11111111011100011000001110010011 e
b11111111011100011000001110010011 w
b11111111011100011000001110010011 B"
b1100 r
b1100 6"
b1100 A"
b1000 q
b1000 2"
b1000 3"
b1000 C"
b0 h
b0 /"
b0 X"
b1000 i
b1000 0"
b1000 R"
b1 R
1+
b0 3
b0 N
b0 ]
b0 V"
b0 4
b0 M
b0 \
b0 P"
b1001 Q
1"
#15
0"
#16
b1000 r
b1000 6"
b1000 A"
b1100 q
b1100 2"
b1100 3"
b1100 C"
b1100 j
b1100 +"
b1100 ;"
b1100 F"
b1100 J"
bx p
bx 9"
bx T"
b100 h
b100 /"
b100 X"
b11 R
b10 *
b10 P
b10 _
b10 D"
bx 0
bx O
bx ^
bx 7"
b10 3
b10 N
b10 ]
b10 V"
0+
11
1-
b1 Q
1"
#17
0"
#18
b1100 r
b1100 6"
b1100 A"
b11111111111111111111111111111111 j
b11111111111111111111111111111111 +"
b11111111111111111111111111111111 ;"
b11111111111111111111111111111111 F"
b11111111111111111111111111111111 J"
b11111111111111111111111111110111 h
b11111111111111111111111111110111 /"
b11111111111111111111111111110111 X"
bx '
bx 9
bx c
bx &
bx 8
bx b
bx (
bx :
bx d
bx $
bx 6
bx `
b11111111111111111111111111111111 q
b11111111111111111111111111111111 2"
b11111111111111111111111111111111 3"
b11111111111111111111111111111111 C"
b11111111111111111111111111110111 p
b11111111111111111111111111110111 9"
b11111111111111111111111111110111 T"
b1100 m
b1100 y
b1100 L"
b1010 R
01
b0 0
b0 O
b0 ^
b0 7"
b1111111 W
x2
bx *
bx P
bx _
bx D"
b1111111 T
b1 3
b1 N
b1 ]
b1 V"
b1 4
b1 M
b1 \
b1 P"
0-
bx ,
bx ;
bx k
bx u
bx #"
bx ?"
bx11xx f
bx11xx *"
bx11xx >"
b1000 i
b1000 0"
b1000 R"
b1111111101110001100000111 8"
b111 I"
b10111 H"
b11 G"
b11 Q
b1100 !
b1100 .
b1100 <
b1100 '"
b1100 ,"
b1100 ="
b1100 M"
b1000 n
b1000 )"
b1000 N"
b11111111011100011000001110010011 o
b11111111011100011000001110010011 %"
1"
#19
0"
#20
b11111111111111111111111111111111 r
b11111111111111111111111111111111 6"
b11111111111111111111111111111111 A"
b1100 s
b1100 {
b1100 O"
bx e
bx w
bx B"
b0 '
b0 9
b0 c
b1000111110001000110011 &
b1000111110001000110011 8
b1000111110001000110011 b
b110 (
b110 :
b110 d
b110011 $
b110011 6
b110011 `
b11 q
b11 2"
b11 3"
b11 C"
b1000111110001000110011 ,
b1000111110001000110011 ;
b1000111110001000110011 k
b1000111110001000110011 u
b1000111110001000110011 #"
b1000111110001000110011 ?"
b1100 f
b1100 *"
b1100 >"
b11111111111111111111111111111111 j
b11111111111111111111111111111111 +"
b11111111111111111111111111111111 ;"
b11111111111111111111111111111111 F"
b11111111111111111111111111111111 J"
b1100 i
b1100 0"
b1100 R"
b1001 R
02
b0 *
b0 P
b0 _
b0 D"
b10 4
b10 M
b10 \
b10 P"
b1010 Q
1"
#21
0"
#22
b11 j
b11 +"
b11 ;"
b11 F"
b11 J"
b1000111110001000110011 e
b1000111110001000110011 w
b1000111110001000110011 B"
b11 r
b11 6"
b11 A"
b1100 q
b1100 2"
b1100 3"
b1100 C"
b0 h
b0 /"
b0 X"
b1 R
1+
b0 3
b0 N
b0 ]
b0 V"
b0 4
b0 M
b0 \
b0 P"
b1001 Q
1"
#23
0"
#24
b1100 r
b1100 6"
b1100 A"
b10000 q
b10000 2"
b10000 3"
b10000 C"
b10000 j
b10000 +"
b10000 ;"
b10000 F"
b10000 J"
bx p
bx 9"
bx T"
b100 h
b100 /"
b100 X"
b11 R
b10 *
b10 P
b10 _
b10 D"
bx 0
bx O
bx ^
bx 7"
b10 3
b10 N
b10 ]
b10 V"
0+
11
1-
b1 Q
1"
#25
0"
#26
b10000 r
b10000 6"
b10000 A"
bx '
bx 9
bx c
bx $
bx 6
bx `
bx11xx j
bx11xx +"
bx11xx ;"
bx11xx F"
bx11xx J"
bx h
bx /"
bx X"
bx &
bx 8
bx b
bx (
bx :
bx d
bx11xx q
bx11xx 2"
bx11xx 3"
bx11xx C"
b101 l
b101 }
b101 K"
b11 m
b11 y
b11 L"
b1000 R
01
b110011 X
b110 V
b0 W
x2
bx *
bx P
bx _
bx D"
b110 5
b110 L
b110 [
b110 ."
b110011 U
b110 S
b0 T
b1 3
b1 N
b1 ]
b1 V"
b1 4
b1 M
b1 \
b1 P"
0-
bx ,
bx ;
bx k
bx u
bx #"
bx ?"
bx f
bx *"
bx >"
b1100 i
b1100 0"
b1100 R"
b100011111000100 8"
b100 I"
b10 H"
b111 G"
b110011 %
b110011 7
b110011 a
b11 Q
b10000 !
b10000 .
b10000 <
b10000 '"
b10000 ,"
b10000 ="
b10000 M"
b1100 n
b1100 )"
b1100 N"
b1000111110001000110011 o
b1000111110001000110011 %"
1"
#27
0"
#28
b11 i
b11 0"
b11 R"
bx11xx r
bx11xx 6"
bx11xx A"
b101 g
b101 !"
b101 @"
b101 S"
b11 s
b11 {
b11 O"
bx e
bx w
bx B"
b0 '
b0 9
b0 c
b10000011111001010110011 &
b10000011111001010110011 8
b10000011111001010110011 b
b111 (
b111 :
b111 d
b110011 $
b110011 6
b110011 `
b111 q
b111 2"
b111 3"
b111 C"
b10 p
b10 9"
b10 T"
b10000011111001010110011 ,
b10000011111001010110011 ;
b10000011111001010110011 k
b10000011111001010110011 u
b10000011111001010110011 #"
b10000011111001010110011 ?"
b10000 f
b10000 *"
b10000 >"
bx11xx j
bx11xx +"
bx11xx ;"
bx11xx F"
bx11xx J"
b101 h
b101 /"
b101 X"
b1001 R
b0 0
b0 O
b0 ^
b0 7"
02
b0 *
b0 P
b0 _
b0 D"
b0 3
b0 N
b0 ]
b0 V"
b10 4
b10 M
b10 \
b10 P"
b1000 Q
1"
#29
0"
#30
b111 j
b111 +"
b111 ;"
b111 F"
b111 J"
b10000011111001010110011 e
b10000011111001010110011 w
b10000011111001010110011 B"
b111 r
b111 6"
b111 A"
b10101 q
b10101 2"
b10101 3"
b10101 C"
b10000 i
b10000 0"
b10000 R"
b1 R
1+
b0 5
b0 L
b0 [
b0 ."
b0 4
b0 M
b0 \
b0 P"
b1001 Q
1"
#31
0"
#32
b10101 r
b10101 6"
b10101 A"
b10100 q
b10100 2"
b10100 3"
b10100 C"
b10100 j
b10100 +"
b10100 ;"
b10100 F"
b10100 J"
bx p
bx 9"
bx T"
b100 h
b100 /"
b100 X"
b11 R
b10 *
b10 P
b10 _
b10 D"
bx 0
bx O
bx ^
bx 7"
b10 3
b10 N
b10 ]
b10 V"
0+
11
1-
b1 Q
1"
#33
0"
#34
b10100 r
b10100 6"
b10100 A"
bx '
bx 9
bx c
bx $
bx 6
bx `
x)
b0x0000 j
b0x0000 +"
b0x0000 ;"
b0x0000 F"
b0x0000 J"
bx h
bx /"
bx X"
bx &
bx 8
bx b
bx (
bx :
bx d
b0x0000 q
b0x0000 2"
b0x0000 3"
b0x0000 C"
b111 l
b111 }
b111 K"
b1100 m
b1100 y
b1100 L"
b1000 R
01
b111 V
x2
bx *
bx P
bx _
bx D"
b10 5
b10 L
b10 [
b10 ."
b111 S
b1 3
b1 N
b1 ]
b1 V"
b1 4
b1 M
b1 \
b1 P"
0-
bx ,
bx ;
bx k
bx u
bx #"
bx ?"
b0x0x00 f
b0x0x00 *"
b0x0x00 >"
b10000 i
b10000 0"
b10000 R"
b1000001111100101 8"
b101 I"
b100 H"
b11 G"
b11 Q
b10100 !
b10100 .
b10100 <
b10100 '"
b10100 ,"
b10100 ="
b10100 M"
b10000 n
b10000 )"
b10000 N"
b10000011111001010110011 o
b10000011111001010110011 %"
1"
#35
0"
#36
b0x0000 r
b0x0000 6"
b0x0000 A"
b111 g
b111 !"
b111 @"
b111 S"
b1100 s
b1100 {
b1100 O"
bx e
bx w
bx B"
b0 '
b0 9
b0 c
b10000101000001010110011 &
b10000101000001010110011 8
b10000101000001010110011 b
b0 (
b0 :
b0 d
b110011 $
b110011 6
b110011 `
0)
b100 q
b100 2"
b100 3"
b100 C"
b100 p
b100 9"
b100 T"
b10000101000001010110011 ,
b10000101000001010110011 ;
b10000101000001010110011 k
b10000101000001010110011 u
b10000101000001010110011 #"
b10000101000001010110011 ?"
b10100 f
b10100 *"
b10100 >"
b0x0000 j
b0x0000 +"
b0x0000 ;"
b0x0000 F"
b0x0000 J"
b111 h
b111 /"
b111 X"
b1100 i
b1100 0"
b1100 R"
b1001 R
b0 0
b0 O
b0 ^
b0 7"
02
b0 *
b0 P
b0 _
b0 D"
b0 3
b0 N
b0 ]
b0 V"
b10 4
b10 M
b10 \
b10 P"
b1000 Q
1"
#37
0"
#38
b100 j
b100 +"
b100 ;"
b100 F"
b100 J"
b10000101000001010110011 e
b10000101000001010110011 w
b10000101000001010110011 B"
b100 r
b100 6"
b100 A"
b11011 q
b11011 2"
b11011 3"
b11011 C"
b10100 i
b10100 0"
b10100 R"
b1 R
1+
b0 5
b0 L
b0 [
b0 ."
b0 4
b0 M
b0 \
b0 P"
b1001 Q
1"
#39
0"
#40
b11011 r
b11011 6"
b11011 A"
b11000 q
b11000 2"
b11000 3"
b11000 C"
b11000 j
b11000 +"
b11000 ;"
b11000 F"
b11000 J"
bx p
bx 9"
bx T"
b100 h
b100 /"
b100 X"
b11 R
b10 *
b10 P
b10 _
b10 D"
bx 0
bx O
bx ^
bx 7"
b10 3
b10 N
b10 ]
b10 V"
0+
11
1-
b1 Q
1"
#41
0"
#42
b11000 r
b11000 6"
b11000 A"
bx (
bx :
bx d
x)
bx j
bx +"
bx ;"
bx F"
bx J"
bx h
bx /"
bx X"
bx '
bx 9
bx c
bx &
bx 8
bx b
bx $
bx 6
bx `
bx q
bx 2"
bx 3"
bx C"
b100 m
b100 y
b100 L"
b1000 R
01
b0 V
x2
bx *
bx P
bx _
bx D"
b0 S
b1 3
b1 N
b1 ]
b1 V"
b1 4
b1 M
b1 \
b1 P"
0-
bx ,
bx ;
bx k
bx u
bx #"
bx ?"
bx f
bx *"
bx >"
b10100 i
b10100 0"
b10100 R"
b1000010100000101 8"
b101 G"
b11 Q
b11000 !
b11000 .
b11000 <
b11000 '"
b11000 ,"
b11000 ="
b11000 M"
b10100 n
b10100 )"
b10100 N"
b10000101000001010110011 o
b10000101000001010110011 %"
1"
#43
0"
#44
bx r
bx 6"
bx A"
b100 s
b100 {
b100 O"
bx e
bx w
bx B"
b1 '
b1 9
b1 c
b10011100101000100001100011 &
b10011100101000100001100011 8
b10011100101000100001100011 b
b0 (
b0 :
b0 d
b1100011 $
b1100011 6
b1100011 `
0)
b1011 q
b1011 2"
b1011 3"
b1011 C"
b100 p
b100 9"
b100 T"
b10011100101000100001100011 ,
b10011100101000100001100011 ;
b10011100101000100001100011 k
b10011100101000100001100011 u
b10011100101000100001100011 #"
b10011100101000100001100011 ?"
b11000 f
b11000 *"
b11000 >"
bx j
bx +"
bx ;"
bx F"
bx J"
b111 h
b111 /"
b111 X"
b100 i
b100 0"
b100 R"
b1001 R
b0 0
b0 O
b0 ^
b0 7"
02
b0 *
b0 P
b0 _
b0 D"
b0 3
b0 N
b0 ]
b0 V"
b10 4
b10 M
b10 \
b10 P"
b1000 Q
1"
#45
0"
#46
b1011 j
b1011 +"
b1011 ;"
b1011 F"
b1011 J"
b10011100101000100001100011 e
b10011100101000100001100011 w
b10011100101000100001100011 B"
b1011 r
b1011 6"
b1011 A"
b11111 q
b11111 2"
b11111 3"
b11111 C"
b11000 i
b11000 0"
b11000 R"
b1 R
1+
b0 4
b0 M
b0 \
b0 P"
b1001 Q
1"
#47
0"
#48
b1011 m
b1011 y
b1011 L"
b11111 r
b11111 6"
b11111 A"
b11100 q
b11100 2"
b11100 3"
b11100 C"
b11100 j
b11100 +"
b11100 ;"
b11100 F"
b11100 J"
bx p
bx 9"
bx T"
b100 h
b100 /"
b100 X"
b11 R
b10 *
b10 P
b10 _
b10 D"
bx 0
bx O
bx ^
bx 7"
b10 3
b10 N
b10 ]
b10 V"
0+
11
1-
b1 Q
1"
#49
0"
#50
b1011 s
b1011 {
b1011 O"
b11100 r
b11100 6"
b11100 A"
bx h
bx /"
bx X"
b0 '
b0 9
b0 c
b10000011010001000110011 &
b10000011010001000110011 8
b10000011010001000110011 b
b10 (
b10 :
b10 d
b110011 $
b110011 6
b110011 `
b11 l
b11 }
b11 K"
b1100 R
01
b1100011 X
b1 W
x2
bx *
bx P
bx _
bx D"
bx 5
bx L
bx [
bx ."
b1100011 U
b1 T
b1 3
b1 N
b1 ]
b1 V"
b1 4
b1 M
b1 \
b1 P"
0-
b10000011010001000110011 ,
b10000011010001000110011 ;
b10000011010001000110011 k
b10000011010001000110011 u
b10000011010001000110011 #"
b10000011010001000110011 ?"
b11100 f
b11100 *"
b11100 >"
b11000 i
b11000 0"
b11000 R"
b1001110010100010000 8"
b10000 I"
b111 H"
b1100011 %
b1100011 7
b1100011 a
b11 Q
b11100 !
b11100 .
b11100 <
b11100 '"
b11100 ,"
b11100 ="
b11100 M"
b11000 n
b11000 )"
b11000 N"
b10011100101000100001100011 o
b10011100101000100001100011 %"
1"
#51
0"
#52
b11 g
b11 !"
b11 @"
b11 S"
b10000011010001000110011 e
b10000011010001000110011 w
b10000011010001000110011 B"
b100111 p
b100111 9"
b100111 T"
b1000 q
b1000 2"
b1000 3"
b1000 C"
b11 h
b11 /"
b11 X"
b1011 i
b1011 0"
b1011 R"
b1101 R
b0 0
b0 O
b0 ^
b0 7"
02
b0 *
b0 P
b0 _
b0 D"
b1 5
b1 L
b1 [
b1 ."
b0 3
b0 N
b0 ]
b0 V"
b10 4
b10 M
b10 \
b10 P"
b1100 Q
1"
#53
0"
#54
b1000 j
b1000 +"
b1000 ;"
b1000 F"
b1000 J"
b1000 r
b1000 6"
b1000 A"
b1 R
b1101 Q
1"
#55
0"
#56
b100000 j
b100000 +"
b100000 ;"
b100000 F"
b100000 J"
b100000 q
b100000 2"
b100000 3"
b100000 C"
bx p
bx 9"
bx T"
b100 h
b100 /"
b100 X"
b11100 i
b11100 0"
b11100 R"
b11 R
b10 *
b10 P
b10 _
b10 D"
b0 5
b0 L
b0 [
b0 ."
bx 0
bx O
bx ^
bx 7"
b10 3
b10 N
b10 ]
b10 V"
b0 4
b0 M
b0 \
b0 P"
11
1-
b1 Q
1"
#57
0"
#58
b100000 r
b100000 6"
b100000 A"
bx '
bx 9
bx c
b0x j
b0x +"
b0x ;"
b0x F"
b0x J"
bx h
bx /"
bx X"
bx &
bx 8
bx b
bx (
bx :
bx d
bx $
bx 6
bx `
x)
b0x q
b0x 2"
b0x 3"
b0x C"
b111 l
b111 }
b111 K"
b1100 m
b1100 y
b1100 L"
b1000 R
01
b110011 X
b10 V
b0 W
x2
bx *
bx P
bx _
bx D"
b101 5
b101 L
b101 [
b101 ."
b110011 U
b10 S
b0 T
b1 3
b1 N
b1 ]
b1 V"
b1 4
b1 M
b1 \
b1 P"
0-
bx ,
bx ;
bx k
bx u
bx #"
bx ?"
b0x0000x f
b0x0000x *"
b0x0000x >"
b11100 i
b11100 0"
b11100 R"
b1000001101000100 8"
b100 I"
b100 H"
b11 G"
b110011 %
b110011 7
b110011 a
b11 Q
b100000 !
b100000 .
b100000 <
b100000 '"
b100000 ,"
b100000 ="
b100000 M"
b11100 n
b11100 )"
b11100 N"
b10000011010001000110011 o
b10000011010001000110011 %"
1"
#59
0"
