src/test/resources/verilog_samples/multi_cycle_riscv_cpu_rebuild/test2.vcd
$date
	Thu Mar 06 19:35:20 2025
$end
$version
	Icarus Verilog
$end
$timescale
	1s
$end
$scope module top_testbench $end
$scope module dut $end
$scope module rvmulti $end
$scope module dp $end
$var wire 32 ! PC [31:0] $end
$upscope $end
$upscope $end
$upscope $end
$upscope $end
$scope module top_testbench $end
$var reg 1 " clk $end
$upscope $end
$scope module top_testbench $end
$var reg 1 # reset $end
$upscope $end
$scope module top_testbench $end
$scope module dut $end
$var wire 1 " clk $end
$var wire 1 # reset $end
$scope module rvmulti $end
$var wire 1 " clk $end
$var wire 1 # reset $end
$var wire 7 $ op [6:0] $end
$var wire 31 % funct7b5 [30:0] $end
$var wire 7 & funct7 [6:0] $end
$var wire 3 ' funct3 [2:0] $end
$var wire 1 ( Zero $end
$var wire 2 ) ResultSrc [1:0] $end
$var wire 1 * RegWrite $end
$var wire 32 + ReadData [31:0] $end
$var wire 1 , PCWrite $end
$var wire 32 - PC [31:0] $end
$var wire 1 . MemWrite $end
$var wire 2 / ImmSrc [1:0] $end
$var wire 1 0 IRWrite $end
$var wire 1 1 AdrSrc $end
$var wire 2 2 ALUSrcB [1:0] $end
$var wire 2 3 ALUSrcA [1:0] $end
$var wire 3 4 ALUControl [2:0] $end
$scope module ctr $end
$var wire 1 " clk $end
$var wire 1 # reset $end
$var wire 7 5 op [6:0] $end
$var wire 31 6 funct7b5 [30:0] $end
$var wire 7 7 funct7 [6:0] $end
$var wire 3 8 funct3 [2:0] $end
$var wire 1 ( Zero $end
$var wire 32 9 ReadData [31:0] $end
$var wire 32 : PC [31:0] $end
$var parameter 4 ; ALUWriteBackState $end
$var parameter 4 < BEQState $end
$var parameter 4 = BRANCH_TAKEN $end
$var parameter 4 > DecodeState $end
$var parameter 4 ? ErrorState $end
$var parameter 4 @ ExecuteIState $end
$var parameter 4 A ExecuteRState $end
$var parameter 4 B FetchState_1 $end
$var parameter 4 C FetchState_2 $end
$var parameter 4 D JALState $end
$var parameter 4 E MemAddrState $end
$var parameter 4 F MemReadState $end
$var parameter 4 G MemWBState $end
$var parameter 4 H MemWriteState $end
$var parameter 4 I ResetState $end
$var reg 3 J ALUControl [2:0] $end
$var reg 2 K ALUSrcA [1:0] $end
$var reg 2 L ALUSrcB [1:0] $end
$var reg 1 1 AdrSrc $end
$var reg 1 0 IRWrite $end
$var reg 2 M ImmSrc [1:0] $end
$var reg 1 . MemWrite $end
$var reg 1 , PCWrite $end
$var reg 1 * RegWrite $end
$var reg 2 N ResultSrc [1:0] $end
$var reg 4 O current_state [3:0] $end
$var reg 4 P next_state [3:0] $end
$upscope $end
$scope module dp $end
$var wire 3 Q ALUControl [2:0] $end
$var wire 2 R ALUSrcA [1:0] $end
$var wire 2 S ALUSrcB [1:0] $end
$var wire 1 1 AdrSrc $end
$var wire 1 0 IRWrite $end
$var wire 2 T ImmSrc [1:0] $end
$var wire 1 . MemWrite $end
$var wire 1 , PCWrite $end
$var wire 1 * RegWrite $end
$var wire 2 U ResultSrc [1:0] $end
$var wire 1 " clk $end
$var wire 1 # reset $end
$var wire 7 V op [6:0] $end
$var wire 31 W funct7b5 [30:0] $end
$var wire 7 X funct7 [6:0] $end
$var wire 3 Y funct3 [2:0] $end
$var wire 32 Z data [31:0] $end
$var wire 32 [ adr [31:0] $end
$var wire 1 ( Zero $end
$var wire 32 \ WriteData [31:0] $end
$var wire 32 ] SrcB [31:0] $end
$var wire 32 ^ SrcA [31:0] $end
$var wire 32 _ Result [31:0] $end
$var wire 32 ` ReadData [31:0] $end
$var wire 32 a RD2 [31:0] $end
$var wire 32 b RD1 [31:0] $end
$var wire 32 c OldPC [31:0] $end
$var wire 32 d Instr [31:0] $end
$var wire 32 e ImmExt [31:0] $end
$var wire 32 f ALUResult [31:0] $end
$var wire 32 g ALUOut [31:0] $end
$var wire 32 h A [31:0] $end
$scope module DataFF $end
$var wire 1 " clk $end
$var wire 1 # reset $end
$var wire 32 i d [31:0] $end
$var parameter 32 j WIDTH $end
$var reg 32 k q [31:0] $end
$upscope $end
$scope module Data_RD1 $end
$var wire 1 " clk $end
$var wire 1 # reset $end
$var wire 32 l d [31:0] $end
$var parameter 32 m WIDTH $end
$var reg 32 n q [31:0] $end
$upscope $end
$scope module Data_RD2 $end
$var wire 1 " clk $end
$var wire 1 # reset $end
$var wire 32 o d [31:0] $end
$var parameter 32 p WIDTH $end
$var reg 32 q q [31:0] $end
$upscope $end
$scope module InstrFF $end
$var wire 1 " clk $end
$var wire 1 0 en $end
$var wire 3 r id [2:0] $end
$var wire 1 # reset $end
$var wire 32 s d [31:0] $end
$var parameter 32 t WIDTH $end
$var reg 32 u q [31:0] $end
$upscope $end
$scope module OldPCFF $end
$var wire 1 " clk $end
$var wire 1 0 en $end
$var wire 3 v id [2:0] $end
$var wire 1 # reset $end
$var wire 32 w d [31:0] $end
$var parameter 32 x WIDTH $end
$var reg 32 y q [31:0] $end
$upscope $end
$scope module addrmux $end
$var wire 1 1 s $end
$var wire 32 z y [31:0] $end
$var wire 32 { d1 [31:0] $end
$var wire 32 | d0 [31:0] $end
$var parameter 32 } WIDTH $end
$upscope $end
$scope module alu $end
$var wire 3 ~ ALUControl [2:0] $end
$var wire 32 !" b_in [31:0] $end
$var wire 32 "" a_in [31:0] $end
$var parameter 32 #" WIDTH $end
$var reg 32 $" ALUResult [31:0] $end
$var reg 1 ( Z $end
$upscope $end
$scope module aluResult $end
$var wire 1 " clk $end
$var wire 32 %" d [31:0] $end
$var wire 1 # reset $end
$var parameter 32 &" WIDTH $end
$var reg 32 '" q [31:0] $end
$upscope $end
$scope module ext $end
$var wire 2 (" immsrc [1:0] $end
$var wire 25 )" instr [31:7] $end
$var reg 32 *" immext [31:0] $end
$upscope $end
$scope module imem $end
$var wire 32 +" rd [31:0] $end
$var wire 32 ," a [31:0] $end
$upscope $end
$scope module pcreg $end
$var wire 1 " clk $end
$var wire 1 , en $end
$var wire 3 -" id [2:0] $end
$var wire 1 # reset $end
$var wire 32 ." d [31:0] $end
$var parameter 32 /" WIDTH $end
$var reg 32 0" q [31:0] $end
$upscope $end
$scope module resultmux $end
$var wire 32 1" d0 [31:0] $end
$var wire 32 2" d1 [31:0] $end
$var wire 32 3" d2 [31:0] $end
$var wire 2 4" s [1:0] $end
$var wire 32 5" y [31:0] $end
$var parameter 32 6" WIDTH $end
$upscope $end
$scope module rf $end
$var wire 5 7" a1 [4:0] $end
$var wire 5 8" a2 [4:0] $end
$var wire 5 9" a3 [4:0] $end
$var wire 1 " clk $end
$var wire 32 :" wd3 [31:0] $end
$var wire 1 * we3 $end
$var wire 32 ;" rd2 [31:0] $end
$var wire 32 <" rd1 [31:0] $end
$upscope $end
$scope module srcamux $end
$var wire 32 =" d0 [31:0] $end
$var wire 32 >" d1 [31:0] $end
$var wire 32 ?" d2 [31:0] $end
$var wire 2 @" s [1:0] $end
$var wire 32 A" y [31:0] $end
$var parameter 32 B" WIDTH $end
$upscope $end
$scope module srcbmux $end
$var wire 32 C" d0 [31:0] $end
$var wire 32 D" d1 [31:0] $end
$var wire 32 E" d2 [31:0] $end
$var wire 2 F" s [1:0] $end
$var wire 32 G" y [31:0] $end
$var parameter 32 H" WIDTH $end
$upscope $end
$upscope $end
$upscope $end
$upscope $end
$upscope $end
$enddefinitions $end
$comment Show the parameter values. $end
$dumpall
b100000 H"
b100000 B"
b100000 6"
b100000 /"
b100000 &"
b100000 #"
b100000 }
b100000 x
b100000 t
b100000 p
b100000 m
b100000 j
b0 I
b111 H
b110 G
b101 F
b100 E
b1011 D
b10 C
b1 B
b1000 A
b1010 @
b1111 ?
b11 >
b1101 =
b1100 <
b1001 ;
$end
#0
$dumpvars
b100 G"
b10 F"
b100 E"
bx D"
b0 C"
b0 A"
b0 @"
b0 ?"
b0 >"
b0 ="
b0 <"
b0 ;"
b100 :"
b0 9"
b0 8"
b0 7"
b100 5"
b10 4"
b100 3"
b0 2"
b0 1"
b0 0"
b100 ."
b0 -"
b0 ,"
b100000000000010010011 +"
bx *"
b0 )"
bx ("
b0 '"
b100 %"
b100 $"
b0 ""
b100 !"
b0 ~
b0 |
b100 {
b0 z
b0 y
b0 w
b1 v
b0 u
b100000000000010010011 s
b10 r
b0 q
b0 o
b0 n
b0 l
b0 k
b100000000000010010011 i
b0 h
b0 g
b100 f
bx e
b0 d
b0 c
b0 b
b0 a
b100000000000010010011 `
b100 _
b0 ^
b100 ]
b0 \
b0 [
b0 Z
b0 Y
b0 X
b100000000000010010011 W
b10011 V
b10 U
bx T
b10 S
b0 R
b0 Q
b11 P
b1 O
b10 N
bx M
b10 L
b0 K
b0 J
b0 :
b100000000000010010011 9
b0 8
b0 7
b100000000000010010011 6
b10011 5
b0 4
b0 3
b10 2
01
10
bx /
0.
b0 -
1,
b100000000000010010011 +
0*
b10 )
0(
b0 '
b0 &
b100000000000010010011 %
b10011 $
1#
1"
b0 !
$end
#1
0"
#2
b100 ^
b100 ""
b100 A"
b100000000000100010011 %
b100000000000100010011 6
b100000000000100010011 W
b100 [
b100 z
b10000000000001 )"
b1 9"
b1 8"
b100000000000100010011 +
b100000000000100010011 9
b100000000000100010011 `
b100000000000100010011 i
b100000000000100010011 s
b100000000000100010011 +"
b100 !
b100 -
b100 :
b100 w
b100 |
b100 ,"
b100 0"
b100 ="
b100000000000010010011 d
b100000000000010010011 u
b100000000000010010011 Z
b100000000000010010011 k
b100000000000010010011 2"
b100 g
b100 '"
b100 1"
0(
b100 f
b100 $"
b100 %"
b100 3"
b100 _
b100 {
b100 ."
b100 5"
b100 :"
b0 ]
b0 !"
b0 G"
b1 e
b1 *"
b1 D"
b1010 P
00
b0 /
b0 M
b0 T
b0 ("
b0 )
b0 N
b0 U
b0 4"
b0 2
b0 L
b0 S
b0 F"
0,
b11 O
1"
0#
#3
0"
#4
b100000000000100010011 Z
b100000000000100010011 k
b100000000000100010011 2"
b1 ]
b1 !"
b1 G"
0(
b1 f
b1 $"
b1 %"
b1 3"
b0 ^
b0 ""
b0 A"
b1001 P
b1 2
b1 L
b1 S
b1 F"
b10 3
b10 K
b10 R
b10 @"
b1010 O
1"
#5
0"
#6
b1 _
b1 {
b1 ."
b1 5"
b1 :"
b1 g
b1 '"
b1 1"
b0 ]
b0 !"
b0 G"
b100 f
b100 $"
b100 %"
b100 3"
b100 ^
b100 ""
b100 A"
b1 P
1*
b0 2
b0 L
b0 S
b0 F"
b0 3
b0 K
b0 R
b0 @"
b1001 O
1"
#7
0"
#8
b1 a
b1 o
b1 ;"
b100 g
b100 '"
b100 1"
b1000 f
b1000 $"
b1000 %"
b1000 3"
b1000 _
b1000 {
b1000 ."
b1000 5"
b1000 :"
b100 ]
b100 !"
b100 G"
bx e
bx *"
bx D"
b11 P
b10 )
b10 N
b10 U
b10 4"
b10 2
b10 L
b10 S
b10 F"
bx /
bx M
bx T
bx ("
0*
10
1,
b1 O
1"
#9
0"
#10
b1000 ^
b1000 ""
b1000 A"
b1111111 &
b1111111 7
b1111111 X
b1111110001000001000110011100011 %
b1111110001000001000110011100011 6
b1111110001000001000110011100011 W
b1100011 $
b1100011 5
b1100011 V
b1000 [
b1000 z
b10000000000010 )"
b10 9"
b11111110001000001000110011100011 +
b11111110001000001000110011100011 9
b11111110001000001000110011100011 `
b11111110001000001000110011100011 i
b11111110001000001000110011100011 s
b11111110001000001000110011100011 +"
b1000 !
b1000 -
b1000 :
b1000 w
b1000 |
b1000 ,"
b1000 0"
b1000 ="
b100 c
b100 y
b100 >"
b100000000000100010011 d
b100000000000100010011 u
b1 \
b1 q
b1 C"
b1000 g
b1000 '"
b1000 1"
b1001 f
b1001 $"
b1001 %"
b1001 3"
b1000 _
b1000 {
b1000 ."
b1000 5"
b1000 :"
b1 ]
b1 !"
b1 G"
b1 e
b1 *"
b1 D"
b1010 P
00
b0 /
b0 M
b0 T
b0 ("
b0 )
b0 N
b0 U
b0 4"
b0 2
b0 L
b0 S
b0 F"
0,
b11 O
1"
#11
0"
#12
b1001 _
b1001 {
b1001 ."
b1001 5"
b1001 :"
b1001 g
b1001 '"
b1001 1"
b11111110001000001000110011100011 Z
b11111110001000001000110011100011 k
b11111110001000001000110011100011 2"
b1 f
b1 $"
b1 %"
b1 3"
b0 ^
b0 ""
b0 A"
b1001 P
b1 2
b1 L
b1 S
b1 F"
b10 3
b10 K
b10 R
b10 @"
b1010 O
1"
#13
0"
#14
b1 _
b1 {
b1 ."
b1 5"
b1 :"
b1 g
b1 '"
b1 1"
b1001 f
b1001 $"
b1001 %"
b1001 3"
b1000 ^
b1000 ""
b1000 A"
b1 P
1*
b0 2
b0 L
b0 S
b0 F"
b0 3
b0 K
b0 R
b0 @"
b1001 O
1"
#15
0"
#16
b1001 g
b1001 '"
b1001 1"
b1100 f
b1100 $"
b1100 %"
b1100 3"
b1100 _
b1100 {
b1100 ."
b1100 5"
b1100 :"
b100 ]
b100 !"
b100 G"
bx e
bx *"
bx D"
b11 P
b10 )
b10 N
b10 U
b10 4"
b10 2
b10 L
b10 S
b10 F"
bx /
bx M
bx T
bx ("
0*
10
1,
b1 O
1"
#17
0"
#18
b1100 ^
b1100 ""
b1100 A"
b1 b
b1 l
b1 <"
b0 &
b0 7
b0 X
b0 %
b0 6
b0 W
b0 $
b0 5
b0 V
b1100 [
b1100 z
b1111111000100000100011001 )"
b11001 9"
b10 8"
b1 7"
b0 +
b0 9
b0 `
b0 i
b0 s
b0 +"
b1100 !
b1100 -
b1100 :
b1100 w
b1100 |
b1100 ,"
b1100 0"
b1100 ="
b1000 c
b1000 y
b1000 >"
b11111110001000001000110011100011 d
b11111110001000001000110011100011 u
b1100 g
b1100 '"
b1100 1"
b1101 f
b1101 $"
b1101 %"
b1101 3"
b1100 _
b1100 {
b1100 ."
b1100 5"
b1100 :"
b1 ]
b1 !"
b1 G"
b11111111111111111111111111100010 e
b11111111111111111111111111100010 *"
b11111111111111111111111111100010 D"
b1100 P
00
b0 /
b0 M
b0 T
b0 ("
b0 )
b0 N
b0 U
b0 4"
b0 2
b0 L
b0 S
b0 F"
0,
b11 O
1"
#19
0"
#20
b1101 _
b1101 {
b1101 ."
b1101 5"
b1101 :"
1(
b1101 g
b1101 '"
b1101 1"
b1 h
b1 n
b1 ?"
b0 Z
b0 k
b0 2"
b1 ^
b1 ""
b1 A"
b0 f
b0 $"
b0 %"
b0 3"
b1101 P
b1 4
b1 J
b1 Q
b1 ~
b10 3
b10 K
b10 R
b10 @"
b1100 O
1"
#21
0"
#22
b0 _
b0 {
b0 ."
b0 5"
b0 :"
b0 g
b0 '"
b0 1"
b11111111111111111111111111100010 ]
b11111111111111111111111111100010 !"
b11111111111111111111111111100010 G"
0(
b11111111111111111111111111100011 f
b11111111111111111111111111100011 $"
b11111111111111111111111111100011 %"
b11111111111111111111111111100011 3"
b1 P
b0 4
b0 J
b0 Q
b0 ~
b1 2
b1 L
b1 S
b1 F"
1,
b1101 O
1"
#23
0"
#24
b100000000000010010011 %
b100000000000010010011 6
b100000000000010010011 W
b10011 $
b10011 5
b10011 V
b0 [
b0 z
b11111111111111111111111111100011 g
b11111111111111111111111111100011 '"
b11111111111111111111111111100011 1"
b100000000000010010011 +
b100000000000010010011 9
b100000000000010010011 `
b100000000000010010011 i
b100000000000010010011 s
b100000000000010010011 +"
b0 !
b0 -
b0 :
b0 w
b0 |
b0 ,"
b0 0"
b0 ="
b100 f
b100 $"
b100 %"
b100 3"
b100 _
b100 {
b100 ."
b100 5"
b100 :"
b100 ]
b100 !"
b100 G"
b0 ^
b0 ""
b0 A"
bx e
bx *"
bx D"
b11 P
b10 )
b10 N
b10 U
b10 4"
b10 2
b10 L
b10 S
b10 F"
bx /
bx M
bx T
bx ("
b0 3
b0 K
b0 R
b0 @"
10
b1 O
1"
#25
0"
#26
b100 ^
b100 ""
b100 A"
b0 b
b0 l
b0 <"
b100000000000100010011 %
b100000000000100010011 6
b100000000000100010011 W
b100 [
b100 z
b10000000000001 )"
b1 9"
b1 8"
b0 7"
b100000000000100010011 +
b100000000000100010011 9
b100000000000100010011 `
b100000000000100010011 i
b100000000000100010011 s
b100000000000100010011 +"
b100 !
b100 -
b100 :
b100 w
b100 |
b100 ,"
b100 0"
b100 ="
b0 c
b0 y
b0 >"
b100000000000010010011 d
b100000000000010010011 u
b100000000000010010011 Z
b100000000000010010011 k
b100000000000010010011 2"
b100 g
b100 '"
b100 1"
b101 f
b101 $"
b101 %"
b101 3"
b100 _
b100 {
b100 ."
b100 5"
b100 :"
b1 ]
b1 !"
b1 G"
b1 e
b1 *"
b1 D"
b1010 P
00
b0 /
b0 M
b0 T
b0 ("
b0 )
b0 N
b0 U
b0 4"
b0 2
b0 L
b0 S
b0 F"
0,
b11 O
1"
#27
0"
#28
b101 _
b101 {
b101 ."
b101 5"
b101 :"
b101 g
b101 '"
b101 1"
b0 h
b0 n
b0 ?"
b100000000000100010011 Z
b100000000000100010011 k
b100000000000100010011 2"
b1 f
b1 $"
b1 %"
b1 3"
b0 ^
b0 ""
b0 A"
b1001 P
b1 2
b1 L
b1 S
b1 F"
b10 3
b10 K
b10 R
b10 @"
b1010 O
1"
#29
0"
#30
b1 _
b1 {
b1 ."
b1 5"
b1 :"
b1 g
b1 '"
b1 1"
b101 f
b101 $"
b101 %"
b101 3"
b100 ^
b100 ""
b100 A"
b1 P
1*
b0 2
b0 L
b0 S
b0 F"
b0 3
b0 K
b0 R
b0 @"
b1001 O
1"
#31
0"
#32
b101 g
b101 '"
b101 1"
b1000 f
b1000 $"
b1000 %"
b1000 3"
b1000 _
b1000 {
b1000 ."
b1000 5"
b1000 :"
b100 ]
b100 !"
b100 G"
bx e
bx *"
bx D"
b11 P
b10 )
b10 N
b10 U
b10 4"
b10 2
b10 L
b10 S
b10 F"
bx /
bx M
bx T
bx ("
0*
10
1,
b1 O
1"
#33
0"
#34
b1000 ^
b1000 ""
b1000 A"
b1111111 &
b1111111 7
b1111111 X
b1111110001000001000110011100011 %
b1111110001000001000110011100011 6
b1111110001000001000110011100011 W
b1100011 $
b1100011 5
b1100011 V
b1000 [
b1000 z
b10000000000010 )"
b10 9"
b11111110001000001000110011100011 +
b11111110001000001000110011100011 9
b11111110001000001000110011100011 `
b11111110001000001000110011100011 i
b11111110001000001000110011100011 s
b11111110001000001000110011100011 +"
b1000 !
b1000 -
b1000 :
b1000 w
b1000 |
b1000 ,"
b1000 0"
b1000 ="
b100 c
b100 y
b100 >"
b100000000000100010011 d
b100000000000100010011 u
b1000 g
b1000 '"
b1000 1"
b1001 f
b1001 $"
b1001 %"
b1001 3"
b1000 _
b1000 {
b1000 ."
b1000 5"
b1000 :"
b1 ]
b1 !"
b1 G"
b1 e
b1 *"
b1 D"
b1010 P
00
b0 /
b0 M
b0 T
b0 ("
b0 )
b0 N
b0 U
b0 4"
b0 2
b0 L
b0 S
b0 F"
0,
b11 O
1"
#35
0"
#36
b1001 _
b1001 {
b1001 ."
b1001 5"
b1001 :"
b1001 g
b1001 '"
b1001 1"
b11111110001000001000110011100011 Z
b11111110001000001000110011100011 k
b11111110001000001000110011100011 2"
b1 f
b1 $"
b1 %"
b1 3"
b0 ^
b0 ""
b0 A"
b1001 P
b1 2
b1 L
b1 S
b1 F"
b10 3
b10 K
b10 R
b10 @"
b1010 O
1"
#37
0"
#38
b1 _
b1 {
b1 ."
b1 5"
b1 :"
b1 g
b1 '"
b1 1"
b1001 f
b1001 $"
b1001 %"
b1001 3"
b1000 ^
b1000 ""
b1000 A"
b1 P
1*
b0 2
b0 L
b0 S
b0 F"
b0 3
b0 K
b0 R
b0 @"
b1001 O
1"
#39
0"
#40
b1001 g
b1001 '"
b1001 1"
b1100 f
b1100 $"
b1100 %"
b1100 3"
b1100 _
b1100 {
b1100 ."
b1100 5"
b1100 :"
b100 ]
b100 !"
b100 G"
bx e
bx *"
bx D"
b11 P
b10 )
b10 N
b10 U
b10 4"
b10 2
b10 L
b10 S
b10 F"
bx /
bx M
bx T
bx ("
0*
10
1,
b1 O
1"
#41
0"
#42
b1100 ^
b1100 ""
b1100 A"
b1 b
b1 l
b1 <"
b0 &
b0 7
b0 X
b0 %
b0 6
b0 W
b0 $
b0 5
b0 V
b1100 [
b1100 z
b1111111000100000100011001 )"
b11001 9"
b10 8"
b1 7"
b0 +
b0 9
b0 `
b0 i
b0 s
b0 +"
b1100 !
b1100 -
b1100 :
b1100 w
b1100 |
b1100 ,"
b1100 0"
b1100 ="
b1000 c
b1000 y
b1000 >"
b11111110001000001000110011100011 d
b11111110001000001000110011100011 u
b1100 g
b1100 '"
b1100 1"
b1101 f
b1101 $"
b1101 %"
b1101 3"
b1100 _
b1100 {
b1100 ."
b1100 5"
b1100 :"
b1 ]
b1 !"
b1 G"
b11111111111111111111111111100010 e
b11111111111111111111111111100010 *"
b11111111111111111111111111100010 D"
b1100 P
00
b0 /
b0 M
b0 T
b0 ("
b0 )
b0 N
b0 U
b0 4"
b0 2
b0 L
b0 S
b0 F"
0,
b11 O
1"
#43
0"
#44
b1101 _
b1101 {
b1101 ."
b1101 5"
b1101 :"
1(
b1101 g
b1101 '"
b1101 1"
b1 h
b1 n
b1 ?"
b0 Z
b0 k
b0 2"
b1 ^
b1 ""
b1 A"
b0 f
b0 $"
b0 %"
b0 3"
b1101 P
b1 4
b1 J
b1 Q
b1 ~
b10 3
b10 K
b10 R
b10 @"
b1100 O
1"
#45
0"
#46
b0 _
b0 {
b0 ."
b0 5"
b0 :"
b0 g
b0 '"
b0 1"
b11111111111111111111111111100010 ]
b11111111111111111111111111100010 !"
b11111111111111111111111111100010 G"
0(
b11111111111111111111111111100011 f
b11111111111111111111111111100011 $"
b11111111111111111111111111100011 %"
b11111111111111111111111111100011 3"
b1 P
b0 4
b0 J
b0 Q
b0 ~
b1 2
b1 L
b1 S
b1 F"
1,
b1101 O
1"
#47
0"
#48
b100000000000010010011 %
b100000000000010010011 6
b100000000000010010011 W
b10011 $
b10011 5
b10011 V
b0 [
b0 z
b11111111111111111111111111100011 g
b11111111111111111111111111100011 '"
b11111111111111111111111111100011 1"
b100000000000010010011 +
b100000000000010010011 9
b100000000000010010011 `
b100000000000010010011 i
b100000000000010010011 s
b100000000000010010011 +"
b0 !
b0 -
b0 :
b0 w
b0 |
b0 ,"
b0 0"
b0 ="
b100 f
b100 $"
b100 %"
b100 3"
b100 _
b100 {
b100 ."
b100 5"
b100 :"
b100 ]
b100 !"
b100 G"
b0 ^
b0 ""
b0 A"
bx e
bx *"
bx D"
b11 P
b10 )
b10 N
b10 U
b10 4"
b10 2
b10 L
b10 S
b10 F"
bx /
bx M
bx T
bx ("
b0 3
b0 K
b0 R
b0 @"
10
b1 O
1"
#49
0"
#50
b100 ^
b100 ""
b100 A"
b0 b
b0 l
b0 <"
b100000000000100010011 %
b100000000000100010011 6
b100000000000100010011 W
b100 [
b100 z
b10000000000001 )"
b1 9"
b1 8"
b0 7"
b100000000000100010011 +
b100000000000100010011 9
b100000000000100010011 `
b100000000000100010011 i
b100000000000100010011 s
b100000000000100010011 +"
b100 !
b100 -
b100 :
b100 w
b100 |
b100 ,"
b100 0"
b100 ="
b0 c
b0 y
b0 >"
b100000000000010010011 d
b100000000000010010011 u
b100000000000010010011 Z
b100000000000010010011 k
b100000000000010010011 2"
b100 g
b100 '"
b100 1"
b101 f
b101 $"
b101 %"
b101 3"
b100 _
b100 {
b100 ."
b100 5"
b100 :"
b1 ]
b1 !"
b1 G"
b1 e
b1 *"
b1 D"
b1010 P
00
b0 /
b0 M
b0 T
b0 ("
b0 )
b0 N
b0 U
b0 4"
b0 2
b0 L
b0 S
b0 F"
0,
b11 O
1"
#51
0"
#52
b101 _
b101 {
b101 ."
b101 5"
b101 :"
b101 g
b101 '"
b101 1"
b0 h
b0 n
b0 ?"
b100000000000100010011 Z
b100000000000100010011 k
b100000000000100010011 2"
b1 f
b1 $"
b1 %"
b1 3"
b0 ^
b0 ""
b0 A"
b1001 P
b1 2
b1 L
b1 S
b1 F"
b10 3
b10 K
b10 R
b10 @"
b1010 O
1"
#53
0"
#54
b1 _
b1 {
b1 ."
b1 5"
b1 :"
b1 g
b1 '"
b1 1"
b101 f
b101 $"
b101 %"
b101 3"
b100 ^
b100 ""
b100 A"
b1 P
1*
b0 2
b0 L
b0 S
b0 F"
b0 3
b0 K
b0 R
b0 @"
b1001 O
1"
#55
0"
#56
b101 g
b101 '"
b101 1"
b1000 f
b1000 $"
b1000 %"
b1000 3"
b1000 _
b1000 {
b1000 ."
b1000 5"
b1000 :"
b100 ]
b100 !"
b100 G"
bx e
bx *"
bx D"
b11 P
b10 )
b10 N
b10 U
b10 4"
b10 2
b10 L
b10 S
b10 F"
bx /
bx M
bx T
bx ("
0*
10
1,
b1 O
1"
#57
0"
#58
b1000 ^
b1000 ""
b1000 A"
b1111111 &
b1111111 7
b1111111 X
b1111110001000001000110011100011 %
b1111110001000001000110011100011 6
b1111110001000001000110011100011 W
b1100011 $
b1100011 5
b1100011 V
b1000 [
b1000 z
b10000000000010 )"
b10 9"
b11111110001000001000110011100011 +
b11111110001000001000110011100011 9
b11111110001000001000110011100011 `
b11111110001000001000110011100011 i
b11111110001000001000110011100011 s
b11111110001000001000110011100011 +"
b1000 !
b1000 -
b1000 :
b1000 w
b1000 |
b1000 ,"
b1000 0"
b1000 ="
b100 c
b100 y
b100 >"
b100000000000100010011 d
b100000000000100010011 u
b1000 g
b1000 '"
b1000 1"
b1001 f
b1001 $"
b1001 %"
b1001 3"
b1000 _
b1000 {
b1000 ."
b1000 5"
b1000 :"
b1 ]
b1 !"
b1 G"
b1 e
b1 *"
b1 D"
b1010 P
00
b0 /
b0 M
b0 T
b0 ("
b0 )
b0 N
b0 U
b0 4"
b0 2
b0 L
b0 S
b0 F"
0,
b11 O
1"
#59
0"
#60
b1001 _
b1001 {
b1001 ."
b1001 5"
b1001 :"
b1001 g
b1001 '"
b1001 1"
b11111110001000001000110011100011 Z
b11111110001000001000110011100011 k
b11111110001000001000110011100011 2"
b1 f
b1 $"
b1 %"
b1 3"
b0 ^
b0 ""
b0 A"
b1001 P
b1 2
b1 L
b1 S
b1 F"
b10 3
b10 K
b10 R
b10 @"
b1010 O
1"
#61
0"
#62
b1 _
b1 {
b1 ."
b1 5"
b1 :"
b1 g
b1 '"
b1 1"
b1001 f
b1001 $"
b1001 %"
b1001 3"
b1000 ^
b1000 ""
b1000 A"
b1 P
1*
b0 2
b0 L
b0 S
b0 F"
b0 3
b0 K
b0 R
b0 @"
b1001 O
1"
#63
0"
#64
b1001 g
b1001 '"
b1001 1"
b1100 f
b1100 $"
b1100 %"
b1100 3"
b1100 _
b1100 {
b1100 ."
b1100 5"
b1100 :"
b100 ]
b100 !"
b100 G"
bx e
bx *"
bx D"
b11 P
b10 )
b10 N
b10 U
b10 4"
b10 2
b10 L
b10 S
b10 F"
bx /
bx M
bx T
bx ("
0*
10
1,
b1 O
1"
#65
0"
#66
b1100 ^
b1100 ""
b1100 A"
b1 b
b1 l
b1 <"
b0 &
b0 7
b0 X
b0 %
b0 6
b0 W
b0 $
b0 5
b0 V
b1100 [
b1100 z
b1111111000100000100011001 )"
b11001 9"
b10 8"
b1 7"
b0 +
b0 9
b0 `
b0 i
b0 s
b0 +"
b1100 !
b1100 -
b1100 :
b1100 w
b1100 |
b1100 ,"
b1100 0"
b1100 ="
b1000 c
b1000 y
b1000 >"
b11111110001000001000110011100011 d
b11111110001000001000110011100011 u
b1100 g
b1100 '"
b1100 1"
b1101 f
b1101 $"
b1101 %"
b1101 3"
b1100 _
b1100 {
b1100 ."
b1100 5"
b1100 :"
b1 ]
b1 !"
b1 G"
b11111111111111111111111111100010 e
b11111111111111111111111111100010 *"
b11111111111111111111111111100010 D"
b1100 P
00
b0 /
b0 M
b0 T
b0 ("
b0 )
b0 N
b0 U
b0 4"
b0 2
b0 L
b0 S
b0 F"
0,
b11 O
1"
#67
0"
#68
b1101 _
b1101 {
b1101 ."
b1101 5"
b1101 :"
1(
b1101 g
b1101 '"
b1101 1"
b1 h
b1 n
b1 ?"
b0 Z
b0 k
b0 2"
b1 ^
b1 ""
b1 A"
b0 f
b0 $"
b0 %"
b0 3"
b1101 P
b1 4
b1 J
b1 Q
b1 ~
b10 3
b10 K
b10 R
b10 @"
b1100 O
1"
#69
0"
#70
b0 _
b0 {
b0 ."
b0 5"
b0 :"
b0 g
b0 '"
b0 1"
b11111111111111111111111111100010 ]
b11111111111111111111111111100010 !"
b11111111111111111111111111100010 G"
0(
b11111111111111111111111111100011 f
b11111111111111111111111111100011 $"
b11111111111111111111111111100011 %"
b11111111111111111111111111100011 3"
b1 P
b0 4
b0 J
b0 Q
b0 ~
b1 2
b1 L
b1 S
b1 F"
1,
b1101 O
1"
#71
0"
#72
b100000000000010010011 %
b100000000000010010011 6
b100000000000010010011 W
b10011 $
b10011 5
b10011 V
b0 [
b0 z
b11111111111111111111111111100011 g
b11111111111111111111111111100011 '"
b11111111111111111111111111100011 1"
b100000000000010010011 +
b100000000000010010011 9
b100000000000010010011 `
b100000000000010010011 i
b100000000000010010011 s
b100000000000010010011 +"
b0 !
b0 -
b0 :
b0 w
b0 |
b0 ,"
b0 0"
b0 ="
b100 f
b100 $"
b100 %"
b100 3"
b100 _
b100 {
b100 ."
b100 5"
b100 :"
b100 ]
b100 !"
b100 G"
b0 ^
b0 ""
b0 A"
bx e
bx *"
bx D"
b11 P
b10 )
b10 N
b10 U
b10 4"
b10 2
b10 L
b10 S
b10 F"
bx /
bx M
bx T
bx ("
b0 3
b0 K
b0 R
b0 @"
10
b1 O
1"
#73
0"
