src/test/resources/verilog_samples/multi_cycle_riscv_cpu_rebuild/test2.vcd
$date
	Thu Mar 06 21:35:03 2025
$end
$version
	Icarus Verilog
$end
$timescale
	1s
$end
$scope module top_testbench $end
$scope module dut $end
$scope module rvmulti $end
$scope module dp $end
$var wire 32 ! PC [31:0] $end
$upscope $end
$upscope $end
$upscope $end
$upscope $end
$scope module top_testbench $end
$var reg 1 " clk $end
$upscope $end
$scope module top_testbench $end
$var reg 1 # reset $end
$upscope $end
$scope module top_testbench $end
$scope module dut $end
$var wire 1 " clk $end
$var wire 1 # reset $end
$scope module rvmulti $end
$var wire 1 " clk $end
$var wire 1 # reset $end
$var wire 7 $ op [6:0] $end
$var wire 31 % funct7b5 [30:0] $end
$var wire 7 & funct7 [6:0] $end
$var wire 3 ' funct3 [2:0] $end
$var wire 1 ( Zero $end
$var wire 2 ) ResultSrc [1:0] $end
$var wire 1 * RegWrite $end
$var wire 32 + ReadData [31:0] $end
$var wire 1 , PCWrite $end
$var wire 32 - PC [31:0] $end
$var wire 1 . MemWrite $end
$var wire 2 / ImmSrc [1:0] $end
$var wire 1 0 IRWrite $end
$var wire 1 1 AdrSrc $end
$var wire 2 2 ALUSrcB [1:0] $end
$var wire 2 3 ALUSrcA [1:0] $end
$var wire 3 4 ALUControl [2:0] $end
$scope module ctr $end
$var wire 1 " clk $end
$var wire 1 # reset $end
$var wire 7 5 op [6:0] $end
$var wire 31 6 funct7b5 [30:0] $end
$var wire 7 7 funct7 [6:0] $end
$var wire 3 8 funct3 [2:0] $end
$var wire 1 ( Zero $end
$var wire 32 9 ReadData [31:0] $end
$var wire 32 : PC [31:0] $end
$var parameter 4 ; ALUWriteBackState $end
$var parameter 4 < BEQState $end
$var parameter 4 = BRANCH_TAKEN_CHECK $end
$var parameter 4 > DecodeState $end
$var parameter 4 ? ErrorState $end
$var parameter 4 @ ExecuteIState $end
$var parameter 4 A ExecuteRState $end
$var parameter 4 B FetchState_1 $end
$var parameter 4 C FetchState_2 $end
$var parameter 4 D JALState $end
$var parameter 4 E MemAddrState $end
$var parameter 4 F MemReadState $end
$var parameter 4 G MemWBState $end
$var parameter 4 H MemWriteState $end
$var parameter 4 I ResetState $end
$var reg 3 J ALUControl [2:0] $end
$var reg 2 K ALUSrcA [1:0] $end
$var reg 2 L ALUSrcB [1:0] $end
$var reg 1 1 AdrSrc $end
$var reg 1 0 IRWrite $end
$var reg 2 M ImmSrc [1:0] $end
$var reg 1 . MemWrite $end
$var reg 1 , PCWrite $end
$var reg 1 * RegWrite $end
$var reg 2 N ResultSrc [1:0] $end
$var reg 4 O current_state [3:0] $end
$var reg 4 P next_state [3:0] $end
$scope function decode $end
$var reg 3 Q funct3 [2:0] $end
$var reg 7 R funct7 [6:0] $end
$var reg 7 S opcode [6:0] $end
$upscope $end
$scope function sum $end
$var reg 8 T a [7:0] $end
$var reg 8 U b [7:0] $end
$upscope $end
$upscope $end
$scope module dp $end
$var wire 3 V ALUControl [2:0] $end
$var wire 2 W ALUSrcA [1:0] $end
$var wire 2 X ALUSrcB [1:0] $end
$var wire 1 1 AdrSrc $end
$var wire 1 0 IRWrite $end
$var wire 2 Y ImmSrc [1:0] $end
$var wire 1 . MemWrite $end
$var wire 1 , PCWrite $end
$var wire 1 * RegWrite $end
$var wire 2 Z ResultSrc [1:0] $end
$var wire 1 " clk $end
$var wire 1 # reset $end
$var wire 7 [ op [6:0] $end
$var wire 31 \ funct7b5 [30:0] $end
$var wire 7 ] funct7 [6:0] $end
$var wire 3 ^ funct3 [2:0] $end
$var wire 32 _ data [31:0] $end
$var wire 32 ` adr [31:0] $end
$var wire 1 ( Zero $end
$var wire 32 a WriteData [31:0] $end
$var wire 32 b SrcB [31:0] $end
$var wire 32 c SrcA [31:0] $end
$var wire 32 d Result [31:0] $end
$var wire 32 e ReadData [31:0] $end
$var wire 32 f RD2 [31:0] $end
$var wire 32 g RD1 [31:0] $end
$var wire 32 h OldPC [31:0] $end
$var wire 32 i Instr [31:0] $end
$var wire 32 j ImmExt [31:0] $end
$var wire 32 k ALUResult [31:0] $end
$var wire 32 l ALUOut [31:0] $end
$var wire 32 m A [31:0] $end
$scope module DataFF $end
$var wire 1 " clk $end
$var wire 1 # reset $end
$var wire 32 n d [31:0] $end
$var parameter 32 o WIDTH $end
$var reg 32 p q [31:0] $end
$upscope $end
$scope module Data_RD1 $end
$var wire 1 " clk $end
$var wire 1 # reset $end
$var wire 32 q d [31:0] $end
$var parameter 32 r WIDTH $end
$var reg 32 s q [31:0] $end
$upscope $end
$scope module Data_RD2 $end
$var wire 1 " clk $end
$var wire 1 # reset $end
$var wire 32 t d [31:0] $end
$var parameter 32 u WIDTH $end
$var reg 32 v q [31:0] $end
$upscope $end
$scope module InstrFF $end
$var wire 1 " clk $end
$var wire 1 0 en $end
$var wire 3 w id [2:0] $end
$var wire 1 # reset $end
$var wire 32 x d [31:0] $end
$var parameter 32 y WIDTH $end
$var reg 32 z q [31:0] $end
$upscope $end
$scope module OldPCFF $end
$var wire 1 " clk $end
$var wire 1 0 en $end
$var wire 3 { id [2:0] $end
$var wire 1 # reset $end
$var wire 32 | d [31:0] $end
$var parameter 32 } WIDTH $end
$var reg 32 ~ q [31:0] $end
$upscope $end
$scope module addrmux $end
$var wire 1 1 s $end
$var wire 32 !" y [31:0] $end
$var wire 32 "" d1 [31:0] $end
$var wire 32 #" d0 [31:0] $end
$var parameter 32 $" WIDTH $end
$upscope $end
$scope module alu $end
$var wire 3 %" ALUControl [2:0] $end
$var wire 32 &" b_in [31:0] $end
$var wire 32 '" a_in [31:0] $end
$var parameter 32 (" WIDTH $end
$var reg 32 )" ALUResult [31:0] $end
$var reg 1 ( Z $end
$upscope $end
$scope module aluResult $end
$var wire 1 " clk $end
$var wire 32 *" d [31:0] $end
$var wire 1 # reset $end
$var parameter 32 +" WIDTH $end
$var reg 32 ," q [31:0] $end
$upscope $end
$scope module ext $end
$var wire 2 -" immsrc [1:0] $end
$var wire 25 ." instr [31:7] $end
$var reg 32 /" immext [31:0] $end
$upscope $end
$scope module imem $end
$var wire 32 0" rd [31:0] $end
$var wire 32 1" a [31:0] $end
$upscope $end
$scope module pcreg $end
$var wire 1 " clk $end
$var wire 1 , en $end
$var wire 3 2" id [2:0] $end
$var wire 1 # reset $end
$var wire 32 3" d [31:0] $end
$var parameter 32 4" WIDTH $end
$var reg 32 5" q [31:0] $end
$upscope $end
$scope module resultmux $end
$var wire 32 6" d0 [31:0] $end
$var wire 32 7" d1 [31:0] $end
$var wire 32 8" d2 [31:0] $end
$var wire 2 9" s [1:0] $end
$var wire 32 :" y [31:0] $end
$var parameter 32 ;" WIDTH $end
$upscope $end
$scope module rf $end
$var wire 5 <" a1 [4:0] $end
$var wire 5 =" a2 [4:0] $end
$var wire 5 >" a3 [4:0] $end
$var wire 1 " clk $end
$var wire 32 ?" wd3 [31:0] $end
$var wire 1 * we3 $end
$var wire 32 @" rd2 [31:0] $end
$var wire 32 A" rd1 [31:0] $end
$upscope $end
$scope module srcamux $end
$var wire 32 B" d0 [31:0] $end
$var wire 32 C" d1 [31:0] $end
$var wire 32 D" d2 [31:0] $end
$var wire 2 E" s [1:0] $end
$var wire 32 F" y [31:0] $end
$var parameter 32 G" WIDTH $end
$upscope $end
$scope module srcbmux $end
$var wire 32 H" d0 [31:0] $end
$var wire 32 I" d1 [31:0] $end
$var wire 32 J" d2 [31:0] $end
$var wire 2 K" s [1:0] $end
$var wire 32 L" y [31:0] $end
$var parameter 32 M" WIDTH $end
$upscope $end
$upscope $end
$upscope $end
$upscope $end
$upscope $end
$enddefinitions $end
$comment Show the parameter values. $end
$dumpall
b100000 M"
b100000 G"
b100000 ;"
b100000 4"
b100000 +"
b100000 ("
b100000 $"
b100000 }
b100000 y
b100000 u
b100000 r
b100000 o
b0 I
b111 H
b110 G
b101 F
b100 E
b1011 D
b10 C
b1 B
b1000 A
b1010 @
b1111 ?
b11 >
b1101 =
b1100 <
b1001 ;
$end
#0
$dumpvars
b100 L"
b10 K"
b100 J"
bx I"
b0 H"
b0 F"
b0 E"
b0 D"
b0 C"
b0 B"
b0 A"
b0 @"
b100 ?"
b0 >"
b0 ="
b0 <"
b100 :"
b10 9"
b100 8"
b0 7"
b0 6"
b0 5"
b100 3"
b0 2"
b0 1"
b10100000000000100010011 0"
bx /"
b0 ."
bx -"
b0 ,"
b100 *"
b100 )"
b0 '"
b100 &"
b0 %"
b0 #"
b100 ""
b0 !"
b0 ~
b0 |
b1 {
b0 z
b10100000000000100010011 x
b10 w
b0 v
b0 t
b0 s
b0 q
b0 p
b10100000000000100010011 n
b0 m
b0 l
b100 k
bx j
b0 i
b0 h
b0 g
b0 f
b10100000000000100010011 e
b100 d
b0 c
b100 b
b0 a
b0 `
b0 _
b0 ^
b0 ]
b10100000000000100010011 \
b10011 [
b10 Z
bx Y
b10 X
b0 W
b0 V
bx U
bx T
bx S
bx R
bx Q
b11 P
b1 O
b10 N
bx M
b10 L
b0 K
b0 J
b0 :
b10100000000000100010011 9
b0 8
b0 7
b10100000000000100010011 6
b10011 5
b0 4
b0 3
b10 2
01
10
bx /
0.
b0 -
1,
b10100000000000100010011 +
0*
b10 )
0(
b0 '
b0 &
b10100000000000100010011 %
b10011 $
1#
1"
b0 !
$end
#1
0"
#2
b100 c
b100 '"
b100 F"
b110000000000000110010011 %
b110000000000000110010011 6
b110000000000000110010011 \
b100 `
b100 !"
b1010000000000010 ."
b10 >"
b101 ="
b110000000000000110010011 +
b110000000000000110010011 9
b110000000000000110010011 e
b110000000000000110010011 n
b110000000000000110010011 x
b110000000000000110010011 0"
b100 !
b100 -
b100 :
b100 |
b100 #"
b100 1"
b100 5"
b100 B"
b10100000000000100010011 i
b10100000000000100010011 z
b10100000000000100010011 _
b10100000000000100010011 p
b10100000000000100010011 7"
b100 l
b100 ,"
b100 6"
0(
b100 k
b100 )"
b100 *"
b100 8"
b100 d
b100 ""
b100 3"
b100 :"
b100 ?"
b0 b
b0 &"
b0 L"
b101 j
b101 /"
b101 I"
b1010 P
00
b0 /
b0 M
b0 Y
b0 -"
b0 )
b0 N
b0 Z
b0 9"
b10011 S
b0 Q
b0 R
b0 2
b0 L
b0 X
b0 K"
0,
b11 O
1"
0#
#3
0"
#4
b110000000000000110010011 _
b110000000000000110010011 p
b110000000000000110010011 7"
b101 b
b101 &"
b101 L"
0(
b101 k
b101 )"
b101 *"
b101 8"
b0 c
b0 '"
b0 F"
b1001 P
b1 2
b1 L
b1 X
b1 K"
b10 3
b10 K
b10 W
b10 E"
b1010 O
1"
#5
0"
#6
b101 d
b101 ""
b101 3"
b101 :"
b101 ?"
b101 l
b101 ,"
b101 6"
b0 b
b0 &"
b0 L"
b100 k
b100 )"
b100 *"
b100 8"
b100 c
b100 '"
b100 F"
b1 P
1*
b0 2
b0 L
b0 X
b0 K"
b0 3
b0 K
b0 W
b0 E"
b1001 O
1"
#7
0"
#8
b100 l
b100 ,"
b100 6"
b1000 k
b1000 )"
b1000 *"
b1000 8"
b1000 d
b1000 ""
b1000 3"
b1000 :"
b1000 ?"
b100 b
b100 &"
b100 L"
bx j
bx /"
bx I"
b11 P
b10 )
b10 N
b10 Z
b10 9"
b10 2
b10 L
b10 X
b10 K"
bx /
bx M
bx Y
bx -"
0*
10
1,
b1 O
1"
#9
0"
#10
b1000 c
b1000 '"
b1000 F"
b1111111 &
b1111111 7
b1111111 ]
b1111111011100011000001110010011 %
b1111111011100011000001110010011 6
b1111111011100011000001110010011 \
b1000 `
b1000 !"
b11000000000000011 ."
b11 >"
b1100 ="
b11111111011100011000001110010011 +
b11111111011100011000001110010011 9
b11111111011100011000001110010011 e
b11111111011100011000001110010011 n
b11111111011100011000001110010011 x
b11111111011100011000001110010011 0"
b1000 !
b1000 -
b1000 :
b1000 |
b1000 #"
b1000 1"
b1000 5"
b1000 B"
b100 h
b100 ~
b100 C"
b110000000000000110010011 i
b110000000000000110010011 z
b1000 l
b1000 ,"
b1000 6"
b1000 k
b1000 )"
b1000 *"
b1000 8"
b1000 d
b1000 ""
b1000 3"
b1000 :"
b1000 ?"
b0 b
b0 &"
b0 L"
b1100 j
b1100 /"
b1100 I"
b1010 P
00
b0 /
b0 M
b0 Y
b0 -"
b0 )
b0 N
b0 Z
b0 9"
b0 2
b0 L
b0 X
b0 K"
0,
b11 O
1"
#11
0"
#12
b11111111011100011000001110010011 _
b11111111011100011000001110010011 p
b11111111011100011000001110010011 7"
b1100 b
b1100 &"
b1100 L"
0(
b1100 k
b1100 )"
b1100 *"
b1100 8"
b0 c
b0 '"
b0 F"
b1001 P
b1 2
b1 L
b1 X
b1 K"
b10 3
b10 K
b10 W
b10 E"
b1010 O
1"
#13
0"
#14
b1100 d
b1100 ""
b1100 3"
b1100 :"
b1100 ?"
b1100 l
b1100 ,"
b1100 6"
b0 b
b0 &"
b0 L"
b1000 k
b1000 )"
b1000 *"
b1000 8"
b1000 c
b1000 '"
b1000 F"
b1 P
1*
b0 2
b0 L
b0 X
b0 K"
b0 3
b0 K
b0 W
b0 E"
b1001 O
1"
#15
0"
#16
b1000 l
b1000 ,"
b1000 6"
b1100 k
b1100 )"
b1100 *"
b1100 8"
b1100 d
b1100 ""
b1100 3"
b1100 :"
b1100 ?"
b100 b
b100 &"
b100 L"
bx j
bx /"
bx I"
b11 P
b10 )
b10 N
b10 Z
b10 9"
b10 2
b10 L
b10 X
b10 K"
bx /
bx M
bx Y
bx -"
0*
10
1,
b1 O
1"
#17
0"
#18
b1100 c
b1100 '"
b1100 F"
b1100 g
b1100 q
b1100 A"
b0 &
b0 7
b0 ]
b1000111110001000110011 %
b1000111110001000110011 6
b1000111110001000110011 \
b110 '
b110 8
b110 ^
b110011 $
b110011 5
b110011 [
b1100 `
b1100 !"
b1111111101110001100000111 ."
b111 >"
b10111 ="
b11 <"
b1000111110001000110011 +
b1000111110001000110011 9
b1000111110001000110011 e
b1000111110001000110011 n
b1000111110001000110011 x
b1000111110001000110011 0"
b1100 !
b1100 -
b1100 :
b1100 |
b1100 #"
b1100 1"
b1100 5"
b1100 B"
b1000 h
b1000 ~
b1000 C"
b11111111011100011000001110010011 i
b11111111011100011000001110010011 z
b1100 l
b1100 ,"
b1100 6"
b1100 k
b1100 )"
b1100 *"
b1100 8"
b1100 d
b1100 ""
b1100 3"
b1100 :"
b1100 ?"
b0 b
b0 &"
b0 L"
b11111111111111111111111111110111 j
b11111111111111111111111111110111 /"
b11111111111111111111111111110111 I"
b1010 P
00
b0 /
b0 M
b0 Y
b0 -"
b0 )
b0 N
b0 Z
b0 9"
b1111111 R
b0 2
b0 L
b0 X
b0 K"
0,
b11 O
1"
#19
0"
#20
b1100 m
b1100 s
b1100 D"
b1000111110001000110011 _
b1000111110001000110011 p
b1000111110001000110011 7"
b11111111111111111111111111110111 b
b11111111111111111111111111110111 &"
b11111111111111111111111111110111 L"
0(
b11 k
b11 )"
b11 *"
b11 8"
b1100 c
b1100 '"
b1100 F"
b1001 P
b1 2
b1 L
b1 X
b1 K"
b10 3
b10 K
b10 W
b10 E"
b1010 O
1"
#21
0"
#22
b11 d
b11 ""
b11 3"
b11 :"
b11 ?"
b11 l
b11 ,"
b11 6"
b1100 k
b1100 )"
b1100 *"
b1100 8"
b0 b
b0 &"
b0 L"
b1 P
1*
b0 2
b0 L
b0 X
b0 K"
b0 3
b0 K
b0 W
b0 E"
b1001 O
1"
#23
0"
#24
b1100 l
b1100 ,"
b1100 6"
b10000 k
b10000 )"
b10000 *"
b10000 8"
b10000 d
b10000 ""
b10000 3"
b10000 :"
b10000 ?"
b100 b
b100 &"
b100 L"
bx j
bx /"
bx I"
b11 P
b10 )
b10 N
b10 Z
b10 9"
b10 2
b10 L
b10 X
b10 K"
bx /
bx M
bx Y
bx -"
0*
10
1,
b1 O
1"
#25
0"
#26
b10000 c
b10000 '"
b10000 F"
b101 f
b101 t
b101 @"
b11 g
b11 q
b11 A"
b10000011111001010110011 %
b10000011111001010110011 6
b10000011111001010110011 \
b111 '
b111 8
b111 ^
b10000 `
b10000 !"
b100011111000100 ."
b100 >"
b10 ="
b111 <"
b10000011111001010110011 +
b10000011111001010110011 9
b10000011111001010110011 e
b10000011111001010110011 n
b10000011111001010110011 x
b10000011111001010110011 0"
b10000 !
b10000 -
b10000 :
b10000 |
b10000 #"
b10000 1"
b10000 5"
b10000 B"
b1100 h
b1100 ~
b1100 C"
b1000111110001000110011 i
b1000111110001000110011 z
b10000 l
b10000 ,"
b10000 6"
b10000 d
b10000 ""
b10000 3"
b10000 :"
b10000 ?"
b0 b
b0 &"
b0 L"
b10 j
b10 /"
b10 I"
b10000 k
b10000 )"
b10000 *"
b10000 8"
b1000 P
00
b0 /
b0 M
b0 Y
b0 -"
b0 )
b0 N
b0 Z
b0 9"
b110 4
b110 J
b110 V
b110 %"
b110011 S
b110 Q
b0 R
b0 2
b0 L
b0 X
b0 K"
0,
b11 O
1"
#27
0"
#28
b101 b
b101 &"
b101 L"
b101 a
b101 v
b101 H"
b11 m
b11 s
b11 D"
b10000011111001010110011 _
b10000011111001010110011 p
b10000011111001010110011 7"
b111 k
b111 )"
b111 *"
b111 8"
b11 c
b11 '"
b11 F"
b1001 P
b10 3
b10 K
b10 W
b10 E"
b1000 O
1"
#29
0"
#30
b111 d
b111 ""
b111 3"
b111 :"
b111 ?"
b111 l
b111 ,"
b111 6"
b10000 c
b10000 '"
b10000 F"
b10101 k
b10101 )"
b10101 *"
b10101 8"
b1 P
1*
b0 4
b0 J
b0 V
b0 %"
b0 3
b0 K
b0 W
b0 E"
b1001 O
1"
#31
0"
#32
b10101 l
b10101 ,"
b10101 6"
b10100 k
b10100 )"
b10100 *"
b10100 8"
b10100 d
b10100 ""
b10100 3"
b10100 :"
b10100 ?"
b100 b
b100 &"
b100 L"
bx j
bx /"
bx I"
b11 P
b10 )
b10 N
b10 Z
b10 9"
b10 2
b10 L
b10 X
b10 K"
bx /
bx M
bx Y
bx -"
0*
10
1,
b1 O
1"
#33
0"
#34
b10100 c
b10100 '"
b10100 F"
b111 f
b111 t
b111 @"
b1100 g
b1100 q
b1100 A"
b10000101000001010110011 %
b10000101000001010110011 6
b10000101000001010110011 \
b0 '
b0 8
b0 ^
b10100 `
b10100 !"
b1000001111100101 ."
b101 >"
b100 ="
b11 <"
b10000101000001010110011 +
b10000101000001010110011 9
b10000101000001010110011 e
b10000101000001010110011 n
b10000101000001010110011 x
b10000101000001010110011 0"
b10100 !
b10100 -
b10100 :
b10100 |
b10100 #"
b10100 1"
b10100 5"
b10100 B"
b10000 h
b10000 ~
b10000 C"
b10000011111001010110011 i
b10000011111001010110011 z
b10100 l
b10100 ,"
b10100 6"
b10100 d
b10100 ""
b10100 3"
b10100 :"
b10100 ?"
b101 b
b101 &"
b101 L"
b100 j
b100 /"
b100 I"
0(
b100 k
b100 )"
b100 *"
b100 8"
b1000 P
00
b0 /
b0 M
b0 Y
b0 -"
b0 )
b0 N
b0 Z
b0 9"
b10 4
b10 J
b10 V
b10 %"
b111 Q
b0 2
b0 L
b0 X
b0 K"
0,
b11 O
1"
#35
0"
#36
b100 d
b100 ""
b100 3"
b100 :"
b100 ?"
b111 b
b111 &"
b111 L"
b100 l
b100 ,"
b100 6"
b111 a
b111 v
b111 H"
b1100 m
b1100 s
b1100 D"
b10000101000001010110011 _
b10000101000001010110011 p
b10000101000001010110011 7"
b100 k
b100 )"
b100 *"
b100 8"
b1100 c
b1100 '"
b1100 F"
b1001 P
b10 3
b10 K
b10 W
b10 E"
b1000 O
1"
#37
0"
#38
b10100 c
b10100 '"
b10100 F"
b11011 k
b11011 )"
b11011 *"
b11011 8"
b1 P
1*
b0 4
b0 J
b0 V
b0 %"
b0 3
b0 K
b0 W
b0 E"
b1001 O
1"
#39
0"
#40
b11011 l
b11011 ,"
b11011 6"
b11000 k
b11000 )"
b11000 *"
b11000 8"
b11000 d
b11000 ""
b11000 3"
b11000 :"
b11000 ?"
b100 b
b100 &"
b100 L"
bx j
bx /"
bx I"
b11 P
b10 )
b10 N
b10 Z
b10 9"
b10 2
b10 L
b10 X
b10 K"
bx /
bx M
bx Y
bx -"
0*
10
1,
b1 O
1"
#41
0"
#42
b11000 c
b11000 '"
b11000 F"
b100 g
b100 q
b100 A"
b1 &
b1 7
b1 ]
b10011100101000100001100011 %
b10011100101000100001100011 6
b10011100101000100001100011 \
b1100011 $
b1100011 5
b1100011 [
b11000 `
b11000 !"
b1000010100000101 ."
b101 <"
b10011100101000100001100011 +
b10011100101000100001100011 9
b10011100101000100001100011 e
b10011100101000100001100011 n
b10011100101000100001100011 x
b10011100101000100001100011 0"
b11000 !
b11000 -
b11000 :
b11000 |
b11000 #"
b11000 1"
b11000 5"
b11000 B"
b10100 h
b10100 ~
b10100 C"
b10000101000001010110011 i
b10000101000001010110011 z
b11000 l
b11000 ,"
b11000 6"
b11111 k
b11111 )"
b11111 *"
b11111 8"
b11000 d
b11000 ""
b11000 3"
b11000 :"
b11000 ?"
b111 b
b111 &"
b111 L"
b100 j
b100 /"
b100 I"
b1000 P
00
b0 /
b0 M
b0 Y
b0 -"
b0 )
b0 N
b0 Z
b0 9"
b0 Q
b0 2
b0 L
b0 X
b0 K"
0,
b11 O
1"
#43
0"
#44
b11111 d
b11111 ""
b11111 3"
b11111 :"
b11111 ?"
b11111 l
b11111 ,"
b11111 6"
b100 m
b100 s
b100 D"
b10011100101000100001100011 _
b10011100101000100001100011 p
b10011100101000100001100011 7"
b1011 k
b1011 )"
b1011 *"
b1011 8"
b100 c
b100 '"
b100 F"
b1001 P
b10 3
b10 K
b10 W
b10 E"
b1000 O
1"
#45
0"
#46
b1011 d
b1011 ""
b1011 3"
b1011 :"
b1011 ?"
b1011 l
b1011 ,"
b1011 6"
b11111 k
b11111 )"
b11111 *"
b11111 8"
b11000 c
b11000 '"
b11000 F"
b1 P
1*
b0 3
b0 K
b0 W
b0 E"
b1001 O
1"
#47
0"
#48
b1011 g
b1011 q
b1011 A"
b11111 l
b11111 ,"
b11111 6"
b11100 k
b11100 )"
b11100 *"
b11100 8"
b11100 d
b11100 ""
b11100 3"
b11100 :"
b11100 ?"
b100 b
b100 &"
b100 L"
bx j
bx /"
bx I"
b11 P
b10 )
b10 N
b10 Z
b10 9"
b10 2
b10 L
b10 X
b10 K"
bx /
bx M
bx Y
bx -"
0*
10
1,
b1 O
1"
#49
0"
#50
b11100 c
b11100 '"
b11100 F"
b11 f
b11 t
b11 @"
b0 &
b0 7
b0 ]
b10000011010001000110011 %
b10000011010001000110011 6
b10000011010001000110011 \
b10 '
b10 8
b10 ^
b110011 $
b110011 5
b110011 [
b11100 `
b11100 !"
b1001110010100010000 ."
b10000 >"
b111 ="
b10000011010001000110011 +
b10000011010001000110011 9
b10000011010001000110011 e
b10000011010001000110011 n
b10000011010001000110011 x
b10000011010001000110011 0"
b11100 !
b11100 -
b11100 :
b11100 |
b11100 #"
b11100 1"
b11100 5"
b11100 B"
b11000 h
b11000 ~
b11000 C"
b10011100101000100001100011 i
b10011100101000100001100011 z
b1011 m
b1011 s
b1011 D"
b11100 l
b11100 ,"
b11100 6"
b11100 d
b11100 ""
b11100 3"
b11100 :"
b11100 ?"
b111 b
b111 &"
b111 L"
b100111 j
b100111 /"
b100111 I"
1(
b0 k
b0 )"
b0 *"
b0 8"
b1100 P
00
b0 /
b0 M
b0 Y
b0 -"
b0 )
b0 N
b0 Z
b0 9"
bx 4
bx J
bx V
bx %"
b1100011 S
b1 R
b0 2
b0 L
b0 X
b0 K"
0,
b11 O
1"
#51
0"
#52
b0 d
b0 ""
b0 3"
b0 :"
b0 ?"
b11 b
b11 &"
b11 L"
b0 l
b0 ,"
b0 6"
b11 a
b11 v
b11 H"
b10000011010001000110011 _
b10000011010001000110011 p
b10000011010001000110011 7"
b1011 c
b1011 '"
b1011 F"
0(
b1000 k
b1000 )"
b1000 *"
b1000 8"
b1101 P
b1 4
b1 J
b1 V
b1 %"
b10 3
b10 K
b10 W
b10 E"
b1100 O
1"
#53
0"
#54
b1000 d
b1000 ""
b1000 3"
b1000 :"
b1000 ?"
b1000 l
b1000 ,"
b1000 6"
b1 P
b1101 O
1"
#55
0"
#56
b100000 d
b100000 ""
b100000 3"
b100000 :"
b100000 ?"
b100 b
b100 &"
b100 L"
b11100 c
b11100 '"
b11100 F"
b100000 k
b100000 )"
b100000 *"
b100000 8"
bx j
bx /"
bx I"
b11 P
b10 )
b10 N
b10 Z
b10 9"
b0 4
b0 J
b0 V
b0 %"
b10 2
b10 L
b10 X
b10 K"
bx /
bx M
bx Y
bx -"
b0 3
b0 K
b0 W
b0 E"
10
1,
b1 O
1"
#57
0"
#58
b100000 c
b100000 '"
b100000 F"
b111 f
b111 t
b111 @"
b1100 g
b1100 q
b1100 A"
b100000010001100011 %
b100000010001100011 6
b100000010001100011 \
b0 '
b0 8
b0 ^
b1100011 $
b1100011 5
b1100011 [
b100000 `
b100000 !"
b1000001101000100 ."
b100 >"
b100 ="
b11 <"
b100000010001100011 +
b100000010001100011 9
b100000010001100011 e
b100000010001100011 n
b100000010001100011 x
b100000010001100011 0"
b100000 !
b100000 -
b100000 :
b100000 |
b100000 #"
b100000 1"
b100000 5"
b100000 B"
b11100 h
b11100 ~
b11100 C"
b10000011010001000110011 i
b10000011010001000110011 z
b100000 l
b100000 ,"
b100000 6"
b100000 d
b100000 ""
b100000 3"
b100000 :"
b100000 ?"
b11 b
b11 &"
b11 L"
b100 j
b100 /"
b100 I"
1(
b0 k
b0 )"
b0 *"
b0 8"
b1000 P
00
b0 /
b0 M
b0 Y
b0 -"
b0 )
b0 N
b0 Z
b0 9"
b101 4
b101 J
b101 V
b101 %"
b110011 S
b10 Q
b0 R
b0 2
b0 L
b0 X
b0 K"
0,
b11 O
1"
#59
0"
#60
b0 d
b0 ""
b0 3"
b0 :"
b0 ?"
b111 b
b111 &"
b111 L"
b0 l
b0 ,"
b0 6"
b111 a
b111 v
b111 H"
b1100 m
b1100 s
b1100 D"
b100000010001100011 _
b100000010001100011 p
b100000010001100011 7"
b1100 c
b1100 '"
b1100 F"
b1001 P
b10 3
b10 K
b10 W
b10 E"
b1000 O
1"
#61
0"
#62
b100000 c
b100000 '"
b100000 F"
0(
b100111 k
b100111 )"
b100111 *"
b100111 8"
b1 P
1*
b0 4
b0 J
b0 V
b0 %"
b0 3
b0 K
b0 W
b0 E"
b1001 O
1"
#63
0"
#64
b0 f
b0 t
b0 @"
b100111 l
b100111 ,"
b100111 6"
b100100 k
b100100 )"
b100100 *"
b100100 8"
b100100 d
b100100 ""
b100100 3"
b100100 :"
b100100 ?"
b100 b
b100 &"
b100 L"
bx j
bx /"
bx I"
b11 P
b10 )
b10 N
b10 Z
b10 9"
b10 2
b10 L
b10 X
b10 K"
bx /
bx M
bx Y
bx -"
0*
10
1,
b1 O
1"
#65
0"
#66
b100100 c
b100100 '"
b100100 F"
b0 g
b0 q
b0 A"
b1010010011 %
b1010010011 6
b1010010011 \
b10011 $
b10011 5
b10011 [
b100100 `
b100100 !"
b10000001000 ."
b1000 >"
b0 ="
b100 <"
b1010010011 +
b1010010011 9
b1010010011 e
b1010010011 n
b1010010011 x
b1010010011 0"
b100100 !
b100100 -
b100100 :
b100100 |
b100100 #"
b100100 1"
b100100 5"
b100100 B"
b100000 h
b100000 ~
b100000 C"
b100000010001100011 i
b100000010001100011 z
b0 a
b0 v
b0 H"
b100100 l
b100100 ,"
b100100 6"
b100100 d
b100100 ""
b100100 3"
b100100 :"
b100100 ?"
b0 b
b0 &"
b0 L"
b0 j
b0 /"
b0 I"
1(
b0 k
b0 )"
b0 *"
b0 8"
b1100 P
00
b0 /
b0 M
b0 Y
b0 -"
b0 )
b0 N
b0 Z
b0 9"
bx 4
bx J
bx V
bx %"
b1100011 S
b0 Q
b0 2
b0 L
b0 X
b0 K"
0,
b11 O
1"
#67
0"
#68
b0 d
b0 ""
b0 3"
b0 :"
b0 ?"
b0 l
b0 ,"
b0 6"
b0 m
b0 s
b0 D"
b1010010011 _
b1010010011 p
b1010010011 7"
b0 c
b0 '"
b0 F"
1(
b0 k
b0 )"
b0 *"
b0 8"
b1101 P
b1 4
b1 J
b1 V
b1 %"
b10 3
b10 K
b10 W
b10 E"
b1100 O
1"
#69
0"
#70
b101000 d
b101000 ""
b101000 3"
b101000 :"
b101000 ?"
b1000 b
b1000 &"
b1000 L"
0(
b101000 k
b101000 )"
b101000 *"
b101000 8"
b100000 c
b100000 '"
b100000 F"
b1000 j
b1000 /"
b1000 I"
b1 P
b10 /
b10 M
b10 Y
b10 -"
b10 )
b10 N
b10 Z
b10 9"
b0 4
b0 J
b0 V
b0 %"
b1 2
b1 L
b1 X
b1 K"
b1 3
b1 K
b1 W
b1 E"
1,
b1101 O
1"
#71
0"
#72
b101100 d
b101100 ""
b101100 3"
b101100 :"
b101100 ?"
b101100 k
b101100 )"
b101100 *"
b101100 8"
b1000111010001000110011 %
b1000111010001000110011 6
b1000111010001000110011 \
b10 '
b10 8
b10 ^
b110011 $
b110011 5
b110011 [
b101000 `
b101000 !"
b101000 l
b101000 ,"
b101000 6"
b1000111010001000110011 +
b1000111010001000110011 9
b1000111010001000110011 e
b1000111010001000110011 n
b1000111010001000110011 x
b1000111010001000110011 0"
b101000 !
b101000 -
b101000 :
b101000 |
b101000 #"
b101000 1"
b101000 5"
b101000 B"
b101000 c
b101000 '"
b101000 F"
b100 b
b100 &"
b100 L"
bx j
bx /"
bx I"
b11 P
b10 2
b10 L
b10 X
b10 K"
bx /
bx M
bx Y
bx -"
b0 3
b0 K
b0 W
b0 E"
10
b1 O
1"
#73
0"
