src/test/resources/verilog_samples/multi_cycle_riscv_cpu_rebuild/test.vcd
$date
	Sat Mar 22 17:25:23 2025
$end
$version
	Icarus Verilog
$end
$timescale
	1s
$end
$scope module top_testbench $end
$var reg 1 ! clk $end
$upscope $end
$scope module top_testbench $end
$var reg 1 " reset $end
$upscope $end
$scope module top_testbench $end
$scope module dut $end
$var wire 1 ! clk $end
$var wire 1 " reset $end
$scope module rvmulti $end
$var wire 1 ! clk $end
$var wire 1 " reset $end
$var wire 7 # op [6:0] $end
$var wire 7 $ oldOp [6:0] $end
$var wire 31 % funct7b5 [30:0] $end
$var wire 7 & funct7 [6:0] $end
$var wire 3 ' funct3 [2:0] $end
$var wire 1 ( Zero $end
$var wire 2 ) ResultSrc [1:0] $end
$var wire 1 * RegWrite $end
$var wire 32 + ReadData [31:0] $end
$var wire 1 , PCWrite $end
$var wire 32 - PC [31:0] $end
$var wire 1 . MemWrite $end
$var wire 3 / ImmSrc [2:0] $end
$var wire 1 0 IRWrite $end
$var wire 1 1 AdrSrc $end
$var wire 2 2 ALUSrcB [1:0] $end
$var wire 2 3 ALUSrcA [1:0] $end
$var wire 3 4 ALUControl [2:0] $end
$scope module ctr $end
$var wire 1 ! clk $end
$var wire 1 " reset $end
$var wire 7 5 op [6:0] $end
$var wire 7 6 oldOp [6:0] $end
$var wire 31 7 funct7b5 [30:0] $end
$var wire 7 8 funct7 [6:0] $end
$var wire 3 9 funct3 [2:0] $end
$var wire 1 ( Zero $end
$var wire 32 : ReadData [31:0] $end
$var wire 32 ; PC [31:0] $end
$var parameter 5 < ALUWriteBackState $end
$var parameter 5 = BEQState $end
$var parameter 5 > BRANCH_TAKEN_CHECK $end
$var parameter 5 ? DecodeState $end
$var parameter 5 @ ErrorState $end
$var parameter 5 A ExecuteIState $end
$var parameter 5 B ExecuteRState $end
$var parameter 5 C FetchState_1 $end
$var parameter 5 D FetchState_2 $end
$var parameter 5 E JALState $end
$var parameter 5 F LUI_STATE $end
$var parameter 5 G MemAddrState $end
$var parameter 5 H MemReadState $end
$var parameter 5 I MemWBState $end
$var parameter 5 J MemWriteState $end
$var parameter 5 K ResetState $end
$var reg 3 L ALUControl [2:0] $end
$var reg 2 M ALUSrcA [1:0] $end
$var reg 2 N ALUSrcB [1:0] $end
$var reg 1 1 AdrSrc $end
$var reg 1 0 IRWrite $end
$var reg 3 O ImmSrc [2:0] $end
$var reg 1 . MemWrite $end
$var reg 1 , PCWrite $end
$var reg 1 * RegWrite $end
$var reg 2 P ResultSrc [1:0] $end
$var reg 5 Q current_state [4:0] $end
$var reg 3 R newALUControl [2:0] $end
$var reg 5 S next_state [4:0] $end
$scope function decodeAluOp $end
$var reg 3 T funct3 [2:0] $end
$var reg 7 U funct7 [6:0] $end
$var reg 7 V opcode [6:0] $end
$upscope $end
$scope function decodeImmSrc $end
$var reg 3 W funct3 [2:0] $end
$var reg 7 X funct7 [6:0] $end
$var reg 7 Y opcode [6:0] $end
$upscope $end
$scope function sum $end
$var reg 8 Z a [7:0] $end
$var reg 8 [ b [7:0] $end
$upscope $end
$upscope $end
$scope module dp $end
$var wire 3 \ ALUControl [2:0] $end
$var wire 2 ] ALUSrcA [1:0] $end
$var wire 2 ^ ALUSrcB [1:0] $end
$var wire 1 1 AdrSrc $end
$var wire 1 0 IRWrite $end
$var wire 3 _ ImmSrc [2:0] $end
$var wire 1 . MemWrite $end
$var wire 1 , PCWrite $end
$var wire 1 * RegWrite $end
$var wire 2 ` ResultSrc [1:0] $end
$var wire 1 ! clk $end
$var wire 1 " reset $end
$var wire 32 a register_output_A [31:0] $end
$var wire 7 b op [6:0] $end
$var wire 7 c oldOp [6:0] $end
$var wire 31 d funct7b5 [30:0] $end
$var wire 7 e funct7 [6:0] $end
$var wire 3 f funct3 [2:0] $end
$var wire 32 g data [31:0] $end
$var wire 32 h adr [31:0] $end
$var wire 1 ( Zero $end
$var wire 32 i WriteData [31:0] $end
$var wire 32 j SrcB [31:0] $end
$var wire 32 k SrcA [31:0] $end
$var wire 32 l Result [31:0] $end
$var wire 32 m ReadData [31:0] $end
$var wire 32 n RD2 [31:0] $end
$var wire 32 o RD1 [31:0] $end
$var wire 32 p PC [31:0] $end
$var wire 32 q OldPC [31:0] $end
$var wire 32 r Instr [31:0] $end
$var wire 32 s ImmExt [31:0] $end
$var wire 32 t ALUResult [31:0] $end
$var wire 32 u ALUOut [31:0] $end
$scope module DataFF $end
$var wire 1 ! clk $end
$var wire 3 v id [2:0] $end
$var wire 1 " reset $end
$var wire 32 w d [31:0] $end
$var parameter 32 x WIDTH $end
$var reg 32 y q [31:0] $end
$upscope $end
$scope module Data_RD1 $end
$var wire 1 ! clk $end
$var wire 3 z id [2:0] $end
$var wire 1 " reset $end
$var wire 32 { d [31:0] $end
$var parameter 32 | WIDTH $end
$var reg 32 } q [31:0] $end
$upscope $end
$scope module Data_RD2 $end
$var wire 1 ! clk $end
$var wire 3 ~ id [2:0] $end
$var wire 1 " reset $end
$var wire 32 !" d [31:0] $end
$var parameter 32 "" WIDTH $end
$var reg 32 #" q [31:0] $end
$upscope $end
$scope module InstrFF $end
$var wire 1 ! clk $end
$var wire 1 0 en $end
$var wire 3 $" id [2:0] $end
$var wire 1 " reset $end
$var wire 32 %" d [31:0] $end
$var parameter 32 &" WIDTH $end
$var reg 32 '" q [31:0] $end
$upscope $end
$scope module OldPCFF $end
$var wire 1 ! clk $end
$var wire 1 0 en $end
$var wire 3 (" id [2:0] $end
$var wire 1 " reset $end
$var wire 32 )" d [31:0] $end
$var parameter 32 *" WIDTH $end
$var reg 32 +" q [31:0] $end
$upscope $end
$scope module addrmux $end
$var wire 1 1 s $end
$var wire 32 ," y [31:0] $end
$var wire 32 -" d1 [31:0] $end
$var wire 32 ." d0 [31:0] $end
$var parameter 32 /" WIDTH $end
$upscope $end
$scope module alu $end
$var wire 3 0" ALUControl [2:0] $end
$var wire 32 1" b_in [31:0] $end
$var wire 32 2" a_in [31:0] $end
$var parameter 32 3" WIDTH $end
$var reg 32 4" ALUResult [31:0] $end
$var reg 1 ( Z $end
$upscope $end
$scope module aluResult $end
$var wire 1 ! clk $end
$var wire 32 5" d [31:0] $end
$var wire 3 6" id [2:0] $end
$var wire 1 " reset $end
$var parameter 32 7" WIDTH $end
$var reg 32 8" q [31:0] $end
$upscope $end
$scope module ext $end
$var wire 3 9" immsrc [2:0] $end
$var wire 25 :" instr [31:7] $end
$var reg 32 ;" immext [31:0] $end
$upscope $end
$scope module pcreg $end
$var wire 1 ! clk $end
$var wire 1 , en $end
$var wire 3 <" id [2:0] $end
$var wire 1 " reset $end
$var wire 32 =" d [31:0] $end
$var parameter 32 >" WIDTH $end
$var reg 32 ?" q [31:0] $end
$upscope $end
$scope module ram $end
$var wire 32 @" a [31:0] $end
$var wire 1 ! clk $end
$var wire 32 A" wd [31:0] $end
$var wire 1 . we $end
$var reg 32 B" rd [31:0] $end
$upscope $end
$scope module resultmux $end
$var wire 32 C" d0 [31:0] $end
$var wire 32 D" d1 [31:0] $end
$var wire 32 E" d2 [31:0] $end
$var wire 2 F" s [1:0] $end
$var parameter 32 G" WIDTH $end
$var reg 32 H" y [31:0] $end
$upscope $end
$scope module rf $end
$var wire 5 I" a1 [4:0] $end
$var wire 5 J" a2 [4:0] $end
$var wire 5 K" a3 [4:0] $end
$var wire 1 ! clk $end
$var wire 32 L" wd3 [31:0] $end
$var wire 1 * we3 $end
$var wire 32 M" rd2 [31:0] $end
$var wire 32 N" rd1 [31:0] $end
$upscope $end
$scope module srcamux $end
$var wire 32 O" d0 [31:0] $end
$var wire 32 P" d1 [31:0] $end
$var wire 32 Q" d2 [31:0] $end
$var wire 32 R" d3 [31:0] $end
$var wire 2 S" s [1:0] $end
$var parameter 32 T" WIDTH $end
$var reg 32 U" y [31:0] $end
$upscope $end
$scope module srcbmux $end
$var wire 32 V" d0 [31:0] $end
$var wire 32 W" d1 [31:0] $end
$var wire 32 X" d2 [31:0] $end
$var wire 2 Y" s [1:0] $end
$var parameter 32 Z" WIDTH $end
$var reg 32 [" y [31:0] $end
$upscope $end
$upscope $end
$upscope $end
$upscope $end
$upscope $end
$enddefinitions $end
$comment Show the parameter values. $end
$dumpall
b100000 Z"
b100000 T"
b100000 G"
b100000 >"
b100000 7"
b100000 3"
b100000 /"
b100000 *"
b100000 &"
b100000 ""
b100000 |
b100000 x
b0 K
b111 J
b110 I
b101 H
b100 G
b1110 F
b1011 E
b10 D
b1 C
b1000 B
b1010 A
b1111 @
b11 ?
b1101 >
b1100 =
b1001 <
$end
#0
$dumpvars
b100 ["
b10 Y"
b100 X"
bx W"
b0 V"
b0 U"
b0 S"
b0 R"
b0 Q"
b0 P"
b0 O"
b0 N"
b0 M"
b100 L"
b0 K"
b0 J"
b0 I"
b100 H"
b10 F"
b100 E"
b0 D"
b0 C"
b1010010011 B"
b0 A"
b0 @"
b0 ?"
b100 ="
b0 <"
bx ;"
b0 :"
b0xx 9"
b0 8"
b11 6"
b100 5"
b100 4"
b0 2"
b100 1"
b0 0"
b0 ."
b100 -"
b0 ,"
b0 +"
b0 )"
b1 ("
b0 '"
b1010010011 %"
b10 $"
b0 #"
b0 !"
b10 ~
b0 }
b0 {
b1 z
b0 y
b1010010011 w
b0 v
b0 u
b100 t
bx s
b0 r
b0 q
b0 p
b0 o
b0 n
b1010010011 m
b100 l
b0 k
b100 j
b0 i
b0 h
b0 g
b0 f
b0 e
b1010010011 d
b0 c
b10011 b
b0 a
b10 `
b0xx _
b10 ^
b0 ]
b0 \
bx [
bx Z
bx Y
bx X
bx W
bx V
bx U
bx T
b11 S
bx R
b1 Q
b10 P
b0xx O
b10 N
b0 M
b0 L
b0 ;
b1010010011 :
b0 9
b0 8
b1010010011 7
b0 6
b10011 5
b0 4
b0 3
b10 2
01
10
b0xx /
0.
b0 -
1,
b1010010011 +
0*
b10 )
0(
b0 '
b0 &
b1010010011 %
b0 $
b10011 #
1"
1!
$end
#1
0!
#2
b101 :"
b101 K"
b10011 $
b10011 6
b10011 c
b100 -
b100 ;
b100 p
b100 )"
b100 ."
b100 ?"
b100 O"
b1010010011 r
b1010010011 '"
b1010010011 g
b1010010011 y
b1010010011 D"
b100 u
b100 8"
b100 C"
b0 l
b0 -"
b0 ="
b0 H"
b0 L"
1(
b0 t
b0 4"
b0 5"
b0 E"
b0 s
b0 ;"
b0 W"
b0x00 h
b0x00 ,"
b0x00 @"
b0 j
b0 1"
b0 ["
b1010 S
00
b0 /
b0 O
b0 _
b0 9"
b10011 Y
b0 W
b0 X
x1
bx )
bx P
bx `
bx F"
b0 R
b10011 V
b0 T
b0 U
b1 2
b1 N
b1 ^
b1 Y"
b1 3
b1 M
b1 ]
b1 S"
0,
b11 Q
1!
0"
#3
0!
#4
b10 3
b10 M
b10 ]
b10 S"
b0 u
b0 8"
b0 C"
bx g
bx y
bx D"
b0x00 h
b0x00 ,"
b0x00 @"
b0 l
b0 -"
b0 ="
b0 H"
b0 L"
b1001 S
b0 )
b0 P
b0 `
b0 F"
bx &
bx 8
bx e
bx %
bx 7
bx d
bx '
bx 9
bx f
bx #
bx 5
bx b
b1010 Q
bx +
bx :
bx m
bx w
bx %"
bx B"
1!
#5
0!
#6
0(
b100 t
b100 4"
b100 5"
b100 E"
b100 h
b100 ,"
b100 @"
b100 k
b100 2"
b100 U"
b1 S
1*
01
b0 2
b0 N
b0 ^
b0 Y"
b0 3
b0 M
b0 ]
b0 S"
b1001 Q
1!
#7
0!
#8
b100 u
b100 8"
b100 C"
b1100010011 g
b1100010011 y
b1100010011 D"
b1000 t
b1000 4"
b1000 5"
b1000 E"
b1000 l
b1000 -"
b1000 ="
b1000 H"
b1000 L"
bx s
bx ;"
bx W"
b100 j
b100 1"
b100 ["
b11 S
b10 )
b10 P
b10 `
b10 F"
bx /
bx O
bx _
bx 9"
b10 2
b10 N
b10 ^
b10 Y"
0*
10
1,
b0 &
b0 8
b0 e
b1100010011 %
b1100010011 7
b1100010011 d
b0 '
b0 9
b0 f
b10011 #
b10011 5
b10011 b
b1 Q
b1100010011 +
b1100010011 :
b1100010011 m
b1100010011 w
b1100010011 %"
b1100010011 B"
1!
#9
0!
#10
b110 :"
b110 K"
b100 q
b100 +"
b100 P"
b1000 -
b1000 ;
b1000 p
b1000 )"
b1000 ."
b1000 ?"
b1000 O"
b1100010011 r
b1100010011 '"
b1000 u
b1000 8"
b1000 C"
b100 l
b100 -"
b100 ="
b100 H"
b100 L"
0(
b100 t
b100 4"
b100 5"
b100 E"
b0 s
b0 ;"
b0 W"
b0xx00 h
b0xx00 ,"
b0xx00 @"
b0 j
b0 1"
b0 ["
b100 k
b100 2"
b100 U"
b1010 S
00
b0 /
b0 O
b0 _
b0 9"
x1
bx )
bx P
bx `
bx F"
b1 2
b1 N
b1 ^
b1 Y"
b1 3
b1 M
b1 ]
b1 S"
0,
b11 Q
1!
#11
0!
#12
1(
b0 t
b0 4"
b0 5"
b0 E"
b0 k
b0 2"
b0 U"
b10 3
b10 M
b10 ]
b10 S"
b100 u
b100 8"
b100 C"
bx g
bx y
bx D"
b0xx00 h
b0xx00 ,"
b0xx00 @"
b100 l
b100 -"
b100 ="
b100 H"
b100 L"
b1001 S
b0 )
b0 P
b0 `
b0 F"
bx &
bx 8
bx e
bx %
bx 7
bx d
bx '
bx 9
bx f
bx #
bx 5
bx b
b1010 Q
bx +
bx :
bx m
bx w
bx %"
bx B"
1!
#13
0!
#14
b0 l
b0 -"
b0 ="
b0 H"
b0 L"
b0 u
b0 8"
b0 C"
0(
b1000 t
b1000 4"
b1000 5"
b1000 E"
b1000 h
b1000 ,"
b1000 @"
b1000 k
b1000 2"
b1000 U"
b1 S
1*
01
b0 2
b0 N
b0 ^
b0 Y"
b0 3
b0 M
b0 ]
b0 S"
b1001 Q
1!
#15
0!
#16
b1000 u
b1000 8"
b1000 C"
b1110110111 g
b1110110111 y
b1110110111 D"
b1100 t
b1100 4"
b1100 5"
b1100 E"
b1100 l
b1100 -"
b1100 ="
b1100 H"
b1100 L"
bx s
bx ;"
bx W"
b100 j
b100 1"
b100 ["
b11 S
b10 )
b10 P
b10 `
b10 F"
bx /
bx O
bx _
bx 9"
b10 2
b10 N
b10 ^
b10 Y"
0*
10
1,
b0 &
b0 8
b0 e
b1110110111 %
b1110110111 7
b1110110111 d
b0 '
b0 9
b0 f
b110111 #
b110111 5
b110111 b
b1 Q
b1110110111 +
b1110110111 :
b1110110111 m
b1110110111 w
b1110110111 %"
b1110110111 B"
1!
#17
0!
#18
b111 :"
b111 K"
b110111 $
b110111 6
b110111 c
b1000 q
b1000 +"
b1000 P"
b1100 -
b1100 ;
b1100 p
b1100 )"
b1100 ."
b1100 ?"
b1100 O"
b1110110111 r
b1110110111 '"
b1100 u
b1100 8"
b1100 C"
b1000 l
b1000 -"
b1000 ="
b1000 H"
b1000 L"
0(
b1000 t
b1000 4"
b1000 5"
b1000 E"
b0 s
b0 ;"
b0 W"
b1x00 h
b1x00 ,"
b1x00 @"
b0 j
b0 1"
b0 ["
b1000 k
b1000 2"
b1000 U"
b1110 S
00
b100 /
b100 O
b100 _
b100 9"
b110111 Y
x1
bx )
bx P
bx `
bx F"
b110111 V
b1 2
b1 N
b1 ^
b1 Y"
b1 3
b1 M
b1 ]
b1 S"
0,
b11 Q
1!
#19
0!
#20
b1000 u
b1000 8"
b1000 C"
bx g
bx y
bx D"
b100 l
b100 -"
b100 ="
b100 H"
b100 L"
b100 t
b100 4"
b100 5"
b100 E"
b1100 h
b1100 ,"
b1100 @"
b100 j
b100 1"
b100 ["
b0 k
b0 2"
b0 U"
b1010 S
01
b10 )
b10 P
b10 `
b10 F"
b10 2
b10 N
b10 ^
b10 Y"
b11 3
b11 M
b11 ]
b11 S"
bx &
bx 8
bx e
bx %
bx 7
bx d
bx '
bx 9
bx f
bx #
bx 5
bx b
b1110 Q
bx +
bx :
bx m
bx w
bx %"
bx B"
1!
#21
0!
#22
1(
b0 t
b0 4"
b0 5"
b0 E"
b0 j
b0 1"
b0 ["
b1 2
b1 N
b1 ^
b1 Y"
b10 3
b10 M
b10 ]
b10 S"
b1100111000001110010011 g
b1100111000001110010011 y
b1100111000001110010011 D"
b100 u
b100 8"
b100 C"
b100 l
b100 -"
b100 ="
b100 H"
b100 L"
b1001 S
b0 )
b0 P
b0 `
b0 F"
b0 &
b0 8
b0 e
b1100111000001110010011 %
b1100111000001110010011 7
b1100111000001110010011 d
b0 '
b0 9
b0 f
b10011 #
b10011 5
b10011 b
b1010 Q
b1100111000001110010011 +
b1100111000001110010011 :
b1100111000001110010011 m
b1100111000001110010011 w
b1100111000001110010011 %"
b1100111000001110010011 B"
1!
#23
0!
#24
b0 l
b0 -"
b0 ="
b0 H"
b0 L"
b0 u
b0 8"
b0 C"
0(
b1100 t
b1100 4"
b1100 5"
b1100 E"
b1100 k
b1100 2"
b1100 U"
b1 S
b0 /
b0 O
b0 _
b0 9"
1*
b0 2
b0 N
b0 ^
b0 Y"
b0 3
b0 M
b0 ]
b0 S"
b1001 Q
1!
#25
0!
#26
b1100 u
b1100 8"
b1100 C"
b10000 t
b10000 4"
b10000 5"
b10000 E"
b10000 l
b10000 -"
b10000 ="
b10000 H"
b10000 L"
bx s
bx ;"
bx W"
b100 j
b100 1"
b100 ["
b11 S
b10 )
b10 P
b10 `
b10 F"
bx /
bx O
bx _
bx 9"
b10 2
b10 N
b10 ^
b10 Y"
0*
10
1,
b1 Q
1!
#27
0!
#28
b110011100000111 :"
b11 J"
b111 I"
b10011 $
b10011 6
b10011 c
b10000 u
b10000 8"
b10000 C"
b1100111000001110010011 r
b1100111000001110010011 '"
b10000 -
b10000 ;
b10000 p
b10000 )"
b10000 ."
b10000 ?"
b10000 O"
b1100 q
b1100 +"
b1100 P"
b1111 l
b1111 -"
b1111 ="
b1111 H"
b1111 L"
0(
b1111 t
b1111 4"
b1111 5"
b1111 E"
b11 s
b11 ;"
b11 W"
b0xxxxx h
b0xxxxx ,"
b0xxxxx @"
b11 j
b11 1"
b11 ["
b1100 k
b1100 2"
b1100 U"
b1010 S
00
b0 /
b0 O
b0 _
b0 9"
b10011 Y
x1
bx )
bx P
bx `
bx F"
b10011 V
b1 2
b1 N
b1 ^
b1 Y"
b1 3
b1 M
b1 ]
b1 S"
0,
b11 Q
1!
#29
0!
#30
b11 t
b11 4"
b11 5"
b11 E"
b0 k
b0 2"
b0 U"
b10 3
b10 M
b10 ]
b10 S"
bx g
bx y
bx D"
b1111 u
b1111 8"
b1111 C"
b0xxxxx h
b0xxxxx ,"
b0xxxxx @"
b1111 l
b1111 -"
b1111 ="
b1111 H"
b1111 L"
b1001 S
b0 )
b0 P
b0 `
b0 F"
bx &
bx 8
bx e
bx %
bx 7
bx d
bx '
bx 9
bx f
bx #
bx 5
bx b
b1010 Q
bx +
bx :
bx m
bx w
bx %"
bx B"
1!
#31
0!
#32
b11 l
b11 -"
b11 ="
b11 H"
b11 L"
b11 u
b11 8"
b11 C"
b10000 t
b10000 4"
b10000 5"
b10000 E"
b10000 h
b10000 ,"
b10000 @"
b0 j
b0 1"
b0 ["
b10000 k
b10000 2"
b10000 U"
b1 S
1*
01
b0 2
b0 N
b0 ^
b0 Y"
b0 3
b0 M
b0 ]
b0 S"
b1001 Q
1!
#33
0!
#34
b11100101000011001100011 g
b11100101000011001100011 y
b11100101000011001100011 D"
b10000 u
b10000 8"
b10000 C"
b10100 t
b10100 4"
b10100 5"
b10100 E"
b10100 l
b10100 -"
b10100 ="
b10100 H"
b10100 L"
bx s
bx ;"
bx W"
b100 j
b100 1"
b100 ["
b11 S
b10 )
b10 P
b10 `
b10 F"
bx /
bx O
bx _
bx 9"
b10 2
b10 N
b10 ^
b10 Y"
0*
10
1,
b11 o
b11 {
b11 N"
b0 &
b0 8
b0 e
b11100101000011001100011 %
b11100101000011001100011 7
b11100101000011001100011 d
b0 '
b0 9
b0 f
b1100011 #
b1100011 5
b1100011 b
b1 Q
b11100101000011001100011 +
b11100101000011001100011 :
b11100101000011001100011 m
b11100101000011001100011 w
b11100101000011001100011 %"
b11100101000011001100011 B"
1!
#35
0!
#36
b11 n
b11 !"
b11 M"
b0 o
b0 {
b0 N"
b1110010100001100 :"
b1100 K"
b111 J"
b101 I"
b1100011 $
b1100011 6
b1100011 c
b10100 u
b10100 8"
b10100 C"
b11 a
b11 }
b11 Q"
b11100101000011001100011 r
b11100101000011001100011 '"
b10100 -
b10100 ;
b10100 p
b10100 )"
b10100 ."
b10100 ?"
b10100 O"
b10000 q
b10000 +"
b10000 P"
b11100 l
b11100 -"
b11100 ="
b11100 H"
b11100 L"
0(
b11100 t
b11100 4"
b11100 5"
b11100 E"
b1100 s
b1100 ;"
b1100 W"
b1x100 h
b1x100 ,"
b1x100 @"
b1100 j
b1100 1"
b1100 ["
b10000 k
b10000 2"
b10000 U"
b1100 S
00
b10 /
b10 O
b10 _
b10 9"
b1100011 Y
x1
bx )
bx P
bx `
bx F"
b1100011 V
b1 2
b1 N
b1 ^
b1 Y"
b1 3
b1 M
b1 ]
b1 S"
0,
b11 Q
1!
#37
0!
#38
bx g
bx y
bx D"
b0 a
b0 }
b0 Q"
b11 i
b11 #"
b11 A"
b11 V"
b11100 u
b11100 8"
b11100 C"
b111 s
b111 ;"
b111 W"
b10100 h
b10100 ,"
b10100 @"
b11100 l
b11100 -"
b11100 ="
b11100 H"
b11100 L"
b11111111111111111111111111111101 t
b11111111111111111111111111111101 4"
b11111111111111111111111111111101 5"
b11111111111111111111111111111101 E"
b11 j
b11 1"
b11 ["
b0 k
b0 2"
b0 U"
b1101 S
b0 /
b0 O
b0 _
b0 9"
01
b0 )
b0 P
b0 `
b0 F"
b1 4
b1 L
b1 \
b1 0"
b0 2
b0 N
b0 ^
b0 Y"
b10 3
b10 M
b10 ]
b10 S"
bx &
bx 8
bx e
bx %
bx 7
bx d
bx '
bx 9
bx f
bx #
bx 5
bx b
b1100 Q
bx +
bx :
bx m
bx w
bx %"
bx B"
1!
#39
0!
#40
b11111111111111111111111111111101 l
b11111111111111111111111111111101 -"
b11111111111111111111111111111101 ="
b11111111111111111111111111111101 H"
b11111111111111111111111111111101 L"
b11111111111111111111111111111101 u
b11111111111111111111111111111101 8"
b11111111111111111111111111111101 C"
b100101000001010010011 g
b100101000001010010011 y
b100101000001010010011 D"
b1 S
b0 &
b0 8
b0 e
b100101000001010010011 %
b100101000001010010011 7
b100101000001010010011 d
b0 '
b0 9
b0 f
b10011 #
b10011 5
b10011 b
b1101 Q
b100101000001010010011 +
b100101000001010010011 :
b100101000001010010011 m
b100101000001010010011 w
b100101000001010010011 %"
b100101000001010010011 B"
1!
#41
0!
#42
b11000 l
b11000 -"
b11000 ="
b11000 H"
b11000 L"
b11000 t
b11000 4"
b11000 5"
b11000 E"
bx s
bx ;"
bx W"
b100 j
b100 1"
b100 ["
b10100 k
b10100 2"
b10100 U"
b11 S
b10 )
b10 P
b10 `
b10 F"
b0 4
b0 L
b0 \
b0 0"
bx /
bx O
bx _
bx 9"
b10 2
b10 N
b10 ^
b10 Y"
b0 3
b0 M
b0 ]
b0 S"
10
1,
b1 Q
1!
#43
0!
#44
b0 n
b0 !"
b0 M"
b10010100000101 :"
b101 K"
b1 J"
b10011 $
b10011 6
b10011 c
b11000 u
b11000 8"
b11000 C"
b100101000001010010011 r
b100101000001010010011 '"
b11000 -
b11000 ;
b11000 p
b11000 )"
b11000 ."
b11000 ?"
b11000 O"
b10100 q
b10100 +"
b10100 P"
b10101 l
b10101 -"
b10101 ="
b10101 H"
b10101 L"
0(
b10101 t
b10101 4"
b10101 5"
b10101 E"
b1 s
b1 ;"
b1 W"
b1xx0x h
b1xx0x ,"
b1xx0x @"
b1 j
b1 1"
b1 ["
b10100 k
b10100 2"
b10100 U"
b1010 S
00
b0 /
b0 O
b0 _
b0 9"
b10011 Y
x1
bx )
bx P
bx `
bx F"
b10011 V
b1 2
b1 N
b1 ^
b1 Y"
b1 3
b1 M
b1 ]
b1 S"
0,
b11 Q
1!
#45
0!
#46
b1 t
b1 4"
b1 5"
b1 E"
b0 k
b0 2"
b0 U"
b10 3
b10 M
b10 ]
b10 S"
bx g
bx y
bx D"
b0 i
b0 #"
b0 A"
b0 V"
b10101 u
b10101 8"
b10101 C"
b1xx0x h
b1xx0x ,"
b1xx0x @"
b10101 l
b10101 -"
b10101 ="
b10101 H"
b10101 L"
b1001 S
b0 )
b0 P
b0 `
b0 F"
bx &
bx 8
bx e
bx %
bx 7
bx d
bx '
bx 9
bx f
bx #
bx 5
bx b
b1010 Q
bx +
bx :
bx m
bx w
bx %"
bx B"
1!
#47
0!
#48
b1 l
b1 -"
b1 ="
b1 H"
b1 L"
b1 u
b1 8"
b1 C"
b11000 t
b11000 4"
b11000 5"
b11000 E"
b11000 h
b11000 ,"
b11000 @"
b0 j
b0 1"
b0 ["
b11000 k
b11000 2"
b11000 U"
b1 S
1*
01
b0 2
b0 N
b0 ^
b0 Y"
b0 3
b0 M
b0 ]
b0 S"
b1001 Q
1!
#49
0!
#50
b11111111100111111111000001101111 g
b11111111100111111111000001101111 y
b11111111100111111111000001101111 D"
b11000 u
b11000 8"
b11000 C"
b11100 t
b11100 4"
b11100 5"
b11100 E"
b11100 l
b11100 -"
b11100 ="
b11100 H"
b11100 L"
bx s
bx ;"
bx W"
b100 j
b100 1"
b100 ["
b11 S
b10 )
b10 P
b10 `
b10 F"
bx /
bx O
bx _
bx 9"
b10 2
b10 N
b10 ^
b10 Y"
0*
10
1,
b1 o
b1 {
b1 N"
b1111111 &
b1111111 8
b1111111 e
b1111111100111111111000001101111 %
b1111111100111111111000001101111 7
b1111111100111111111000001101111 d
b111 '
b111 9
b111 f
b1101111 #
b1101111 5
b1101111 b
b1 Q
b11111111100111111111000001101111 +
b11111111100111111111000001101111 :
b11111111100111111111000001101111 m
b11111111100111111111000001101111 w
b11111111100111111111000001101111 %"
b11111111100111111111000001101111 B"
1!
#51
0!
#52
b0 o
b0 {
b0 N"
b1111111110011111111100000 :"
b0 K"
b11001 J"
b11111 I"
b1101111 $
b1101111 6
b1101111 c
b11100 u
b11100 8"
b11100 C"
b1 a
b1 }
b1 Q"
b11111111100111111111000001101111 r
b11111111100111111111000001101111 '"
b11100 -
b11100 ;
b11100 p
b11100 )"
b11100 ."
b11100 ?"
b11100 O"
b11000 q
b11000 +"
b11000 P"
b10000 l
b10000 -"
b10000 ="
b10000 H"
b10000 L"
0(
b10000 t
b10000 4"
b10000 5"
b10000 E"
b11111111111111111111111111111000 s
b11111111111111111111111111111000 ;"
b11111111111111111111111111111000 W"
b1xx00 h
b1xx00 ,"
b1xx00 @"
b11111111111111111111111111111000 j
b11111111111111111111111111111000 1"
b11111111111111111111111111111000 ["
b11000 k
b11000 2"
b11000 U"
b1011 S
00
b11 /
b11 O
b11 _
b11 9"
b1101111 Y
b111 W
b1111111 X
x1
bx )
bx P
bx `
bx F"
b1101111 V
b111 T
b1111111 U
b1 2
b1 N
b1 ^
b1 Y"
b1 3
b1 M
b1 ]
b1 S"
0,
b11 Q
1!
#53
0!
#54
bx g
bx y
bx D"
b0 a
b0 }
b0 Q"
b10000 u
b10000 8"
b10000 C"
b1xx00 h
b1xx00 ,"
b1xx00 @"
b11100 t
b11100 4"
b11100 5"
b11100 E"
b10000 l
b10000 -"
b10000 ="
b10000 H"
b10000 L"
b100 j
b100 1"
b100 ["
b1001 S
b0 )
b0 P
b0 `
b0 F"
b10 2
b10 N
b10 ^
b10 Y"
1,
bx &
bx 8
bx e
bx %
bx 7
bx d
bx '
bx 9
bx f
bx #
bx 5
bx b
b1011 Q
bx +
bx :
bx m
bx w
bx %"
bx B"
1!
#55
0!
#56
b10000 t
b10000 4"
b10000 5"
b10000 E"
b11100 l
b11100 -"
b11100 ="
b11100 H"
b11100 L"
b11100 u
b11100 8"
b11100 C"
b10000 -
b10000 ;
b10000 p
b10000 )"
b10000 ."
b10000 ?"
b10000 O"
b11111111111111111111111111111001 s
b11111111111111111111111111111001 ;"
b11111111111111111111111111111001 W"
b10000 h
b10000 ,"
b10000 @"
b0 j
b0 1"
b0 ["
b10000 k
b10000 2"
b10000 U"
b1 S
b0 /
b0 O
b0 _
b0 9"
1*
01
b0 2
b0 N
b0 ^
b0 Y"
b0 3
b0 M
b0 ]
b0 S"
0,
b1001 Q
1!
#57
0!
#58
b11100101000011001100011 g
b11100101000011001100011 y
b11100101000011001100011 D"
b10000 u
b10000 8"
b10000 C"
b10100 t
b10100 4"
b10100 5"
b10100 E"
b10100 l
b10100 -"
b10100 ="
b10100 H"
b10100 L"
bx s
bx ;"
bx W"
b100 j
b100 1"
b100 ["
b11 S
b10 )
b10 P
b10 `
b10 F"
bx /
bx O
bx _
bx 9"
b10 2
b10 N
b10 ^
b10 Y"
0*
10
1,
b0 &
b0 8
b0 e
b11100101000011001100011 %
b11100101000011001100011 7
b11100101000011001100011 d
b0 '
b0 9
b0 f
b1100011 #
b1100011 5
b1100011 b
b1 Q
b11100101000011001100011 +
b11100101000011001100011 :
b11100101000011001100011 m
b11100101000011001100011 w
b11100101000011001100011 %"
b11100101000011001100011 B"
1!
#59
0!
