src/test/resources/verilog_samples/multi_cycle_riscv_cpu_rebuild/test2.vcd
$date
	Sat Mar 08 17:17:40 2025
$end
$version
	Icarus Verilog
$end
$timescale
	1s
$end
$scope module top_testbench $end
$scope module dut $end
$scope module rvmulti $end
$scope module dp $end
$var wire 32 ! PC [31:0] $end
$upscope $end
$upscope $end
$upscope $end
$upscope $end
$scope module top_testbench $end
$var reg 1 " clk $end
$upscope $end
$scope module top_testbench $end
$var reg 1 # reset $end
$upscope $end
$scope module top_testbench $end
$scope module dut $end
$var wire 1 " clk $end
$var wire 1 # reset $end
$scope module rvmulti $end
$var wire 1 " clk $end
$var wire 1 # reset $end
$var wire 7 $ op [6:0] $end
$var wire 7 % oldOp [6:0] $end
$var wire 31 & funct7b5 [30:0] $end
$var wire 7 ' funct7 [6:0] $end
$var wire 3 ( funct3 [2:0] $end
$var wire 1 ) Zero $end
$var wire 2 * ResultSrc [1:0] $end
$var wire 1 + RegWrite $end
$var wire 32 , ReadData [31:0] $end
$var wire 1 - PCWrite $end
$var wire 32 . PC [31:0] $end
$var wire 1 / MemWrite $end
$var wire 2 0 ImmSrc [1:0] $end
$var wire 1 1 IRWrite $end
$var wire 1 2 AdrSrc $end
$var wire 2 3 ALUSrcB [1:0] $end
$var wire 2 4 ALUSrcA [1:0] $end
$var wire 3 5 ALUControl [2:0] $end
$scope module ctr $end
$var wire 1 " clk $end
$var wire 1 # reset $end
$var wire 7 6 op [6:0] $end
$var wire 7 7 oldOp [6:0] $end
$var wire 31 8 funct7b5 [30:0] $end
$var wire 7 9 funct7 [6:0] $end
$var wire 3 : funct3 [2:0] $end
$var wire 1 ) Zero $end
$var wire 32 ; ReadData [31:0] $end
$var wire 32 < PC [31:0] $end
$var parameter 4 = ALUWriteBackState $end
$var parameter 4 > BEQState $end
$var parameter 4 ? BRANCH_TAKEN_CHECK $end
$var parameter 4 @ DecodeState $end
$var parameter 4 A ErrorState $end
$var parameter 4 B ExecuteIState $end
$var parameter 4 C ExecuteRState $end
$var parameter 4 D FetchState_1 $end
$var parameter 4 E FetchState_2 $end
$var parameter 4 F JALState $end
$var parameter 4 G MemAddrState $end
$var parameter 4 H MemReadState $end
$var parameter 4 I MemWBState $end
$var parameter 4 J MemWriteState $end
$var parameter 4 K ResetState $end
$var reg 3 L ALUControl [2:0] $end
$var reg 2 M ALUSrcA [1:0] $end
$var reg 2 N ALUSrcB [1:0] $end
$var reg 1 2 AdrSrc $end
$var reg 1 1 IRWrite $end
$var reg 2 O ImmSrc [1:0] $end
$var reg 1 / MemWrite $end
$var reg 1 - PCWrite $end
$var reg 1 + RegWrite $end
$var reg 2 P ResultSrc [1:0] $end
$var reg 4 Q current_state [3:0] $end
$var reg 4 R next_state [3:0] $end
$scope function decode $end
$var reg 3 S funct3 [2:0] $end
$var reg 7 T funct7 [6:0] $end
$var reg 7 U opcode [6:0] $end
$upscope $end
$scope function sum $end
$var reg 8 V a [7:0] $end
$var reg 8 W b [7:0] $end
$upscope $end
$upscope $end
$scope module dp $end
$var wire 3 X ALUControl [2:0] $end
$var wire 2 Y ALUSrcA [1:0] $end
$var wire 2 Z ALUSrcB [1:0] $end
$var wire 1 2 AdrSrc $end
$var wire 1 1 IRWrite $end
$var wire 2 [ ImmSrc [1:0] $end
$var wire 1 / MemWrite $end
$var wire 1 - PCWrite $end
$var wire 1 + RegWrite $end
$var wire 2 \ ResultSrc [1:0] $end
$var wire 1 " clk $end
$var wire 1 # reset $end
$var wire 7 ] op [6:0] $end
$var wire 7 ^ oldOp [6:0] $end
$var wire 31 _ funct7b5 [30:0] $end
$var wire 7 ` funct7 [6:0] $end
$var wire 3 a funct3 [2:0] $end
$var wire 32 b data [31:0] $end
$var wire 32 c adr [31:0] $end
$var wire 1 ) Zero $end
$var wire 32 d WriteData [31:0] $end
$var wire 32 e SrcB [31:0] $end
$var wire 32 f SrcA [31:0] $end
$var wire 32 g Result [31:0] $end
$var wire 32 h ReadData [31:0] $end
$var wire 32 i RD2 [31:0] $end
$var wire 32 j RD1 [31:0] $end
$var wire 32 k OldPC [31:0] $end
$var wire 32 l Instr [31:0] $end
$var wire 32 m ImmExt [31:0] $end
$var wire 32 n ALUResult [31:0] $end
$var wire 32 o ALUOut [31:0] $end
$var wire 32 p A [31:0] $end
$scope module DataFF $end
$var wire 1 " clk $end
$var wire 1 # reset $end
$var wire 32 q d [31:0] $end
$var parameter 32 r WIDTH $end
$var reg 32 s q [31:0] $end
$upscope $end
$scope module Data_RD1 $end
$var wire 1 " clk $end
$var wire 1 # reset $end
$var wire 32 t d [31:0] $end
$var parameter 32 u WIDTH $end
$var reg 32 v q [31:0] $end
$upscope $end
$scope module Data_RD2 $end
$var wire 1 " clk $end
$var wire 1 # reset $end
$var wire 32 w d [31:0] $end
$var parameter 32 x WIDTH $end
$var reg 32 y q [31:0] $end
$upscope $end
$scope module InstrFF $end
$var wire 1 " clk $end
$var wire 1 1 en $end
$var wire 3 z id [2:0] $end
$var wire 1 # reset $end
$var wire 32 { d [31:0] $end
$var parameter 32 | WIDTH $end
$var reg 32 } q [31:0] $end
$upscope $end
$scope module OldPCFF $end
$var wire 1 " clk $end
$var wire 1 1 en $end
$var wire 3 ~ id [2:0] $end
$var wire 1 # reset $end
$var wire 32 !" d [31:0] $end
$var parameter 32 "" WIDTH $end
$var reg 32 #" q [31:0] $end
$upscope $end
$scope module addrmux $end
$var wire 1 2 s $end
$var wire 32 $" y [31:0] $end
$var wire 32 %" d1 [31:0] $end
$var wire 32 &" d0 [31:0] $end
$var parameter 32 '" WIDTH $end
$upscope $end
$scope module alu $end
$var wire 3 (" ALUControl [2:0] $end
$var wire 32 )" b_in [31:0] $end
$var wire 32 *" a_in [31:0] $end
$var parameter 32 +" WIDTH $end
$var reg 32 ," ALUResult [31:0] $end
$var reg 1 ) Z $end
$upscope $end
$scope module aluResult $end
$var wire 1 " clk $end
$var wire 32 -" d [31:0] $end
$var wire 1 # reset $end
$var parameter 32 ." WIDTH $end
$var reg 32 /" q [31:0] $end
$upscope $end
$scope module ext $end
$var wire 2 0" immsrc [1:0] $end
$var wire 25 1" instr [31:7] $end
$var reg 32 2" immext [31:0] $end
$upscope $end
$scope module pcreg $end
$var wire 1 " clk $end
$var wire 1 - en $end
$var wire 3 3" id [2:0] $end
$var wire 1 # reset $end
$var wire 32 4" d [31:0] $end
$var parameter 32 5" WIDTH $end
$var reg 32 6" q [31:0] $end
$upscope $end
$scope module ram $end
$var wire 32 7" a [31:0] $end
$var wire 1 " clk $end
$var wire 32 8" rd [31:0] $end
$var wire 32 9" wd [31:0] $end
$var wire 1 / we $end
$upscope $end
$scope module resultmux $end
$var wire 32 :" d0 [31:0] $end
$var wire 32 ;" d1 [31:0] $end
$var wire 32 <" d2 [31:0] $end
$var wire 2 =" s [1:0] $end
$var parameter 32 >" WIDTH $end
$var reg 32 ?" y [31:0] $end
$upscope $end
$scope module rf $end
$var wire 5 @" a1 [4:0] $end
$var wire 5 A" a2 [4:0] $end
$var wire 5 B" a3 [4:0] $end
$var wire 1 " clk $end
$var wire 32 C" wd3 [31:0] $end
$var wire 1 + we3 $end
$var wire 32 D" rd2 [31:0] $end
$var wire 32 E" rd1 [31:0] $end
$upscope $end
$scope module srcamux $end
$var wire 32 F" d0 [31:0] $end
$var wire 32 G" d1 [31:0] $end
$var wire 32 H" d2 [31:0] $end
$var wire 2 I" s [1:0] $end
$var parameter 32 J" WIDTH $end
$var reg 32 K" y [31:0] $end
$upscope $end
$scope module srcbmux $end
$var wire 32 L" d0 [31:0] $end
$var wire 32 M" d1 [31:0] $end
$var wire 32 N" d2 [31:0] $end
$var wire 2 O" s [1:0] $end
$var parameter 32 P" WIDTH $end
$var reg 32 Q" y [31:0] $end
$upscope $end
$upscope $end
$upscope $end
$upscope $end
$upscope $end
$enddefinitions $end
$comment Show the parameter values. $end
$dumpall
b100000 P"
b100000 J"
b100000 >"
b100000 5"
b100000 ."
b100000 +"
b100000 '"
b100000 ""
b100000 |
b100000 x
b100000 u
b100000 r
b0 K
b111 J
b110 I
b101 H
b100 G
b1011 F
b10 E
b1 D
b1000 C
b1010 B
b1111 A
b11 @
b1101 ?
b1100 >
b1001 =
$end
#0
$dumpvars
b100 Q"
b10 O"
b100 N"
bx M"
b0 L"
b0 K"
b0 I"
b0 H"
b0 G"
b0 F"
b0 E"
b0 D"
b100 C"
b0 B"
b0 A"
b0 @"
b100 ?"
b10 ="
b100 <"
b0 ;"
b0 :"
b0 9"
b10100000000000100010011 8"
b0 7"
b0 6"
b100 4"
b0 3"
bx 2"
b0 1"
bx 0"
b0 /"
b100 -"
b100 ,"
b0 *"
b100 )"
b0 ("
b0 &"
b100 %"
b0 $"
b0 #"
b0 !"
b1 ~
b0 }
b10100000000000100010011 {
b10 z
b0 y
b0 w
b0 v
b0 t
b0 s
b10100000000000100010011 q
b0 p
b0 o
b100 n
bx m
b0 l
b0 k
b0 j
b0 i
b10100000000000100010011 h
b100 g
b0 f
b100 e
b0 d
b0 c
b0 b
b0 a
b0 `
b10100000000000100010011 _
b0 ^
b10011 ]
b10 \
bx [
b10 Z
b0 Y
b0 X
bx W
bx V
bx U
bx T
bx S
b11 R
b1 Q
b10 P
bx O
b10 N
b0 M
b0 L
b0 <
b10100000000000100010011 ;
b0 :
b0 9
b10100000000000100010011 8
b0 7
b10011 6
b0 5
b0 4
b10 3
02
11
bx 0
0/
b0 .
1-
b10100000000000100010011 ,
0+
b10 *
0)
b0 (
b0 '
b10100000000000100010011 &
b0 %
b10011 $
1#
1"
b0 !
$end
#1
0"
#2
b110000000000000110010011 &
b110000000000000110010011 8
b110000000000000110010011 _
b110000000000000110010011 ,
b110000000000000110010011 ;
b110000000000000110010011 h
b110000000000000110010011 q
b110000000000000110010011 {
b110000000000000110010011 8"
b100 c
b100 $"
b100 7"
b100 f
b100 *"
b100 K"
b1010000000000010 1"
b10 B"
b101 A"
b10011 %
b10011 7
b10011 ^
b100 !
b100 .
b100 <
b100 !"
b100 &"
b100 6"
b100 F"
b10100000000000100010011 l
b10100000000000100010011 }
b10100000000000100010011 b
b10100000000000100010011 s
b10100000000000100010011 ;"
b100 o
b100 /"
b100 :"
0)
b100 n
b100 ,"
b100 -"
b100 <"
b101 m
b101 2"
b101 M"
b100 g
b100 %"
b100 4"
b100 ?"
b100 C"
b0 e
b0 )"
b0 Q"
b1010 R
01
b0 0
b0 O
b0 [
b0 0"
b0 *
b0 P
b0 \
b0 ="
b10011 U
b0 S
b0 T
b0 3
b0 N
b0 Z
b0 O"
0-
b11 Q
1"
0#
#3
0"
#4
b110000000000000110010011 b
b110000000000000110010011 s
b110000000000000110010011 ;"
b101 n
b101 ,"
b101 -"
b101 <"
b101 e
b101 )"
b101 Q"
b0 f
b0 *"
b0 K"
b1001 R
b1 3
b1 N
b1 Z
b1 O"
b10 4
b10 M
b10 Y
b10 I"
b1010 Q
1"
#5
0"
#6
b101 g
b101 %"
b101 4"
b101 ?"
b101 C"
b101 o
b101 /"
b101 :"
b100 n
b100 ,"
b100 -"
b100 <"
b0 e
b0 )"
b0 Q"
b100 f
b100 *"
b100 K"
b1 R
1+
b0 3
b0 N
b0 Z
b0 O"
b0 4
b0 M
b0 Y
b0 I"
b1001 Q
1"
#7
0"
#8
b100 o
b100 /"
b100 :"
b1000 n
b1000 ,"
b1000 -"
b1000 <"
b1000 g
b1000 %"
b1000 4"
b1000 ?"
b1000 C"
b100 e
b100 )"
b100 Q"
bx m
bx 2"
bx M"
b11 R
b10 *
b10 P
b10 \
b10 ="
b10 3
b10 N
b10 Z
b10 O"
bx 0
bx O
bx [
bx 0"
0+
11
1-
b1 Q
1"
#9
0"
#10
b1111111 '
b1111111 9
b1111111 `
b1111111011100011000001110010011 &
b1111111011100011000001110010011 8
b1111111011100011000001110010011 _
b11111111011100011000001110010011 ,
b11111111011100011000001110010011 ;
b11111111011100011000001110010011 h
b11111111011100011000001110010011 q
b11111111011100011000001110010011 {
b11111111011100011000001110010011 8"
b1000 c
b1000 $"
b1000 7"
b1000 f
b1000 *"
b1000 K"
b11000000000000011 1"
b11 B"
b1100 A"
b1000 !
b1000 .
b1000 <
b1000 !"
b1000 &"
b1000 6"
b1000 F"
b100 k
b100 #"
b100 G"
b110000000000000110010011 l
b110000000000000110010011 }
b1000 o
b1000 /"
b1000 :"
b1000 n
b1000 ,"
b1000 -"
b1000 <"
b1100 m
b1100 2"
b1100 M"
b1000 g
b1000 %"
b1000 4"
b1000 ?"
b1000 C"
b0 e
b0 )"
b0 Q"
b1010 R
01
b0 0
b0 O
b0 [
b0 0"
b0 *
b0 P
b0 \
b0 ="
b0 3
b0 N
b0 Z
b0 O"
0-
b11 Q
1"
#11
0"
#12
b11111111011100011000001110010011 b
b11111111011100011000001110010011 s
b11111111011100011000001110010011 ;"
b1100 n
b1100 ,"
b1100 -"
b1100 <"
b1100 e
b1100 )"
b1100 Q"
b0 f
b0 *"
b0 K"
b1001 R
b1 3
b1 N
b1 Z
b1 O"
b10 4
b10 M
b10 Y
b10 I"
b1010 Q
1"
#13
0"
#14
b1100 g
b1100 %"
b1100 4"
b1100 ?"
b1100 C"
b1100 o
b1100 /"
b1100 :"
b1000 n
b1000 ,"
b1000 -"
b1000 <"
b0 e
b0 )"
b0 Q"
b1000 f
b1000 *"
b1000 K"
b1 R
1+
b0 3
b0 N
b0 Z
b0 O"
b0 4
b0 M
b0 Y
b0 I"
b1001 Q
1"
#15
0"
#16
b1000 o
b1000 /"
b1000 :"
b1100 n
b1100 ,"
b1100 -"
b1100 <"
b1100 g
b1100 %"
b1100 4"
b1100 ?"
b1100 C"
b100 e
b100 )"
b100 Q"
bx m
bx 2"
bx M"
b11 R
b10 *
b10 P
b10 \
b10 ="
b10 3
b10 N
b10 Z
b10 O"
bx 0
bx O
bx [
bx 0"
0+
11
1-
b1 Q
1"
#17
0"
#18
b0 '
b0 9
b0 `
b1000111110001000110011 &
b1000111110001000110011 8
b1000111110001000110011 _
b110 (
b110 :
b110 a
b110011 $
b110011 6
b110011 ]
b1100 j
b1100 t
b1100 E"
b1000111110001000110011 ,
b1000111110001000110011 ;
b1000111110001000110011 h
b1000111110001000110011 q
b1000111110001000110011 {
b1000111110001000110011 8"
b1100 c
b1100 $"
b1100 7"
b1100 f
b1100 *"
b1100 K"
b1111111101110001100000111 1"
b111 B"
b10111 A"
b11 @"
b1100 !
b1100 .
b1100 <
b1100 !"
b1100 &"
b1100 6"
b1100 F"
b1000 k
b1000 #"
b1000 G"
b11111111011100011000001110010011 l
b11111111011100011000001110010011 }
b1100 o
b1100 /"
b1100 :"
b1100 n
b1100 ,"
b1100 -"
b1100 <"
b11111111111111111111111111110111 m
b11111111111111111111111111110111 2"
b11111111111111111111111111110111 M"
b1100 g
b1100 %"
b1100 4"
b1100 ?"
b1100 C"
b0 e
b0 )"
b0 Q"
b1010 R
01
b0 0
b0 O
b0 [
b0 0"
b0 *
b0 P
b0 \
b0 ="
b1111111 T
b0 3
b0 N
b0 Z
b0 O"
0-
b11 Q
1"
#19
0"
#20
b1100 p
b1100 v
b1100 H"
b1000111110001000110011 b
b1000111110001000110011 s
b1000111110001000110011 ;"
b11 n
b11 ,"
b11 -"
b11 <"
b11111111111111111111111111110111 e
b11111111111111111111111111110111 )"
b11111111111111111111111111110111 Q"
b1100 f
b1100 *"
b1100 K"
b1001 R
b1 3
b1 N
b1 Z
b1 O"
b10 4
b10 M
b10 Y
b10 I"
b1010 Q
1"
#21
0"
#22
b11 g
b11 %"
b11 4"
b11 ?"
b11 C"
b11 o
b11 /"
b11 :"
b1100 n
b1100 ,"
b1100 -"
b1100 <"
b0 e
b0 )"
b0 Q"
b1 R
1+
b0 3
b0 N
b0 Z
b0 O"
b0 4
b0 M
b0 Y
b0 I"
b1001 Q
1"
#23
0"
#24
b1100 o
b1100 /"
b1100 :"
b10000 n
b10000 ,"
b10000 -"
b10000 <"
b10000 g
b10000 %"
b10000 4"
b10000 ?"
b10000 C"
b100 e
b100 )"
b100 Q"
bx m
bx 2"
bx M"
b11 R
b10 *
b10 P
b10 \
b10 ="
b10 3
b10 N
b10 Z
b10 O"
bx 0
bx O
bx [
bx 0"
0+
11
1-
b1 Q
1"
#25
0"
#26
b10000011111001010110011 &
b10000011111001010110011 8
b10000011111001010110011 _
b111 (
b111 :
b111 a
b101 i
b101 w
b101 D"
b11 j
b11 t
b11 E"
b10000011111001010110011 ,
b10000011111001010110011 ;
b10000011111001010110011 h
b10000011111001010110011 q
b10000011111001010110011 {
b10000011111001010110011 8"
b10000 c
b10000 $"
b10000 7"
b10000 f
b10000 *"
b10000 K"
b100011111000100 1"
b100 B"
b10 A"
b111 @"
b110011 %
b110011 7
b110011 ^
b10000 !
b10000 .
b10000 <
b10000 !"
b10000 &"
b10000 6"
b10000 F"
b1100 k
b1100 #"
b1100 G"
b1000111110001000110011 l
b1000111110001000110011 }
b10000 o
b10000 /"
b10000 :"
b10 m
b10 2"
b10 M"
b10000 g
b10000 %"
b10000 4"
b10000 ?"
b10000 C"
b10000 n
b10000 ,"
b10000 -"
b10000 <"
b0 e
b0 )"
b0 Q"
b1000 R
01
b0 0
b0 O
b0 [
b0 0"
b0 *
b0 P
b0 \
b0 ="
b110 5
b110 L
b110 X
b110 ("
b110011 U
b110 S
b0 T
b0 3
b0 N
b0 Z
b0 O"
0-
b11 Q
1"
#27
0"
#28
b101 e
b101 )"
b101 Q"
b101 d
b101 y
b101 9"
b101 L"
b11 p
b11 v
b11 H"
b10000011111001010110011 b
b10000011111001010110011 s
b10000011111001010110011 ;"
b111 n
b111 ,"
b111 -"
b111 <"
b11 f
b11 *"
b11 K"
b1001 R
b10 4
b10 M
b10 Y
b10 I"
b1000 Q
1"
#29
0"
#30
b111 g
b111 %"
b111 4"
b111 ?"
b111 C"
b111 o
b111 /"
b111 :"
b10101 n
b10101 ,"
b10101 -"
b10101 <"
b10000 f
b10000 *"
b10000 K"
b1 R
1+
b0 5
b0 L
b0 X
b0 ("
b0 4
b0 M
b0 Y
b0 I"
b1001 Q
1"
#31
0"
#32
b10101 o
b10101 /"
b10101 :"
b10100 n
b10100 ,"
b10100 -"
b10100 <"
b10100 g
b10100 %"
b10100 4"
b10100 ?"
b10100 C"
b100 e
b100 )"
b100 Q"
bx m
bx 2"
bx M"
b11 R
b10 *
b10 P
b10 \
b10 ="
b10 3
b10 N
b10 Z
b10 O"
bx 0
bx O
bx [
bx 0"
0+
11
1-
b1 Q
1"
#33
0"
#34
b10000101000001010110011 &
b10000101000001010110011 8
b10000101000001010110011 _
b0 (
b0 :
b0 a
b111 i
b111 w
b111 D"
b1100 j
b1100 t
b1100 E"
b10000101000001010110011 ,
b10000101000001010110011 ;
b10000101000001010110011 h
b10000101000001010110011 q
b10000101000001010110011 {
b10000101000001010110011 8"
b10100 c
b10100 $"
b10100 7"
b10100 f
b10100 *"
b10100 K"
b1000001111100101 1"
b101 B"
b100 A"
b11 @"
b10100 !
b10100 .
b10100 <
b10100 !"
b10100 &"
b10100 6"
b10100 F"
b10000 k
b10000 #"
b10000 G"
b10000011111001010110011 l
b10000011111001010110011 }
b10100 o
b10100 /"
b10100 :"
b100 m
b100 2"
b100 M"
b10100 g
b10100 %"
b10100 4"
b10100 ?"
b10100 C"
0)
b100 n
b100 ,"
b100 -"
b100 <"
b101 e
b101 )"
b101 Q"
b1000 R
01
b0 0
b0 O
b0 [
b0 0"
b0 *
b0 P
b0 \
b0 ="
b10 5
b10 L
b10 X
b10 ("
b111 S
b0 3
b0 N
b0 Z
b0 O"
0-
b11 Q
1"
#35
0"
#36
b111 e
b111 )"
b111 Q"
b100 g
b100 %"
b100 4"
b100 ?"
b100 C"
b100 o
b100 /"
b100 :"
b111 d
b111 y
b111 9"
b111 L"
b1100 p
b1100 v
b1100 H"
b10000101000001010110011 b
b10000101000001010110011 s
b10000101000001010110011 ;"
b100 n
b100 ,"
b100 -"
b100 <"
b1100 f
b1100 *"
b1100 K"
b1001 R
b10 4
b10 M
b10 Y
b10 I"
b1000 Q
1"
#37
0"
#38
b11011 n
b11011 ,"
b11011 -"
b11011 <"
b10100 f
b10100 *"
b10100 K"
b1 R
1+
b0 5
b0 L
b0 X
b0 ("
b0 4
b0 M
b0 Y
b0 I"
b1001 Q
1"
#39
0"
#40
b11011 o
b11011 /"
b11011 :"
b11000 n
b11000 ,"
b11000 -"
b11000 <"
b11000 g
b11000 %"
b11000 4"
b11000 ?"
b11000 C"
b100 e
b100 )"
b100 Q"
bx m
bx 2"
bx M"
b11 R
b10 *
b10 P
b10 \
b10 ="
b10 3
b10 N
b10 Z
b10 O"
bx 0
bx O
bx [
bx 0"
0+
11
1-
b1 Q
1"
#41
0"
#42
b1 '
b1 9
b1 `
b10011100101000100001100011 &
b10011100101000100001100011 8
b10011100101000100001100011 _
b1100011 $
b1100011 6
b1100011 ]
b100 j
b100 t
b100 E"
b10011100101000100001100011 ,
b10011100101000100001100011 ;
b10011100101000100001100011 h
b10011100101000100001100011 q
b10011100101000100001100011 {
b10011100101000100001100011 8"
b11000 c
b11000 $"
b11000 7"
b11000 f
b11000 *"
b11000 K"
b1000010100000101 1"
b101 @"
b11000 !
b11000 .
b11000 <
b11000 !"
b11000 &"
b11000 6"
b11000 F"
b10100 k
b10100 #"
b10100 G"
b10000101000001010110011 l
b10000101000001010110011 }
b11000 o
b11000 /"
b11000 :"
b11111 n
b11111 ,"
b11111 -"
b11111 <"
b100 m
b100 2"
b100 M"
b11000 g
b11000 %"
b11000 4"
b11000 ?"
b11000 C"
b111 e
b111 )"
b111 Q"
b1000 R
01
b0 0
b0 O
b0 [
b0 0"
b0 *
b0 P
b0 \
b0 ="
b0 S
b0 3
b0 N
b0 Z
b0 O"
0-
b11 Q
1"
#43
0"
#44
b11111 g
b11111 %"
b11111 4"
b11111 ?"
b11111 C"
b11111 o
b11111 /"
b11111 :"
b100 p
b100 v
b100 H"
b10011100101000100001100011 b
b10011100101000100001100011 s
b10011100101000100001100011 ;"
b1011 n
b1011 ,"
b1011 -"
b1011 <"
b100 f
b100 *"
b100 K"
b1001 R
b10 4
b10 M
b10 Y
b10 I"
b1000 Q
1"
#45
0"
#46
b1011 g
b1011 %"
b1011 4"
b1011 ?"
b1011 C"
b1011 o
b1011 /"
b1011 :"
b11111 n
b11111 ,"
b11111 -"
b11111 <"
b11000 f
b11000 *"
b11000 K"
b1 R
1+
b0 4
b0 M
b0 Y
b0 I"
b1001 Q
1"
#47
0"
#48
b1011 j
b1011 t
b1011 E"
b11111 o
b11111 /"
b11111 :"
b11100 n
b11100 ,"
b11100 -"
b11100 <"
b11100 g
b11100 %"
b11100 4"
b11100 ?"
b11100 C"
b100 e
b100 )"
b100 Q"
bx m
bx 2"
bx M"
b11 R
b10 *
b10 P
b10 \
b10 ="
b10 3
b10 N
b10 Z
b10 O"
bx 0
bx O
bx [
bx 0"
0+
11
1-
b1 Q
1"
#49
0"
#50
b0 '
b0 9
b0 `
b10000011010001000110011 &
b10000011010001000110011 8
b10000011010001000110011 _
b10 (
b10 :
b10 a
b110011 $
b110011 6
b110011 ]
b11 i
b11 w
b11 D"
b10000011010001000110011 ,
b10000011010001000110011 ;
b10000011010001000110011 h
b10000011010001000110011 q
b10000011010001000110011 {
b10000011010001000110011 8"
b11100 c
b11100 $"
b11100 7"
b1001110010100010000 1"
b10000 B"
b111 A"
b1100011 %
b1100011 7
b1100011 ^
b11100 f
b11100 *"
b11100 K"
b11100 !
b11100 .
b11100 <
b11100 !"
b11100 &"
b11100 6"
b11100 F"
b11000 k
b11000 #"
b11000 G"
b10011100101000100001100011 l
b10011100101000100001100011 }
b1011 p
b1011 v
b1011 H"
b11100 o
b11100 /"
b11100 :"
b100111 m
b100111 2"
b100111 M"
b11100 g
b11100 %"
b11100 4"
b11100 ?"
b11100 C"
b111 e
b111 )"
b111 Q"
b1100 R
01
b0 0
b0 O
b0 [
b0 0"
b0 *
b0 P
b0 \
b0 ="
bx 5
bx L
bx X
bx ("
b1100011 U
b1 T
b0 3
b0 N
b0 Z
b0 O"
0-
b11 Q
1"
#51
0"
#52
b11 e
b11 )"
b11 Q"
b11 d
b11 y
b11 9"
b11 L"
b10000011010001000110011 b
b10000011010001000110011 s
b10000011010001000110011 ;"
b1000 n
b1000 ,"
b1000 -"
b1000 <"
b1011 f
b1011 *"
b1011 K"
b1101 R
b1 5
b1 L
b1 X
b1 ("
b10 4
b10 M
b10 Y
b10 I"
b1100 Q
1"
#53
0"
#54
b1000 g
b1000 %"
b1000 4"
b1000 ?"
b1000 C"
b1000 o
b1000 /"
b1000 :"
b1 R
b1101 Q
1"
#55
0"
#56
b100000 g
b100000 %"
b100000 4"
b100000 ?"
b100000 C"
b100000 n
b100000 ,"
b100000 -"
b100000 <"
b100 e
b100 )"
b100 Q"
bx m
bx 2"
bx M"
b11100 f
b11100 *"
b11100 K"
b11 R
b10 *
b10 P
b10 \
b10 ="
b0 5
b0 L
b0 X
b0 ("
b10 3
b10 N
b10 Z
b10 O"
bx 0
bx O
bx [
bx 0"
b0 4
b0 M
b0 Y
b0 I"
11
1-
b1 Q
1"
#57
0"
#58
b100000010001100011 &
b100000010001100011 8
b100000010001100011 _
b0 (
b0 :
b0 a
b1100011 $
b1100011 6
b1100011 ]
b111 i
b111 w
b111 D"
b1100 j
b1100 t
b1100 E"
b100000010001100011 ,
b100000010001100011 ;
b100000010001100011 h
b100000010001100011 q
b100000010001100011 {
b100000010001100011 8"
b100000 c
b100000 $"
b100000 7"
b100000 f
b100000 *"
b100000 K"
b1000001101000100 1"
b100 B"
b100 A"
b11 @"
b110011 %
b110011 7
b110011 ^
b100000 !
b100000 .
b100000 <
b100000 !"
b100000 &"
b100000 6"
b100000 F"
b11100 k
b11100 #"
b11100 G"
b10000011010001000110011 l
b10000011010001000110011 }
b100000 o
b100000 /"
b100000 :"
b100 m
b100 2"
b100 M"
b100000 g
b100000 %"
b100000 4"
b100000 ?"
b100000 C"
1)
b0 n
b0 ,"
b0 -"
b0 <"
b11 e
b11 )"
b11 Q"
b1000 R
01
b0 0
b0 O
b0 [
b0 0"
b0 *
b0 P
b0 \
b0 ="
b101 5
b101 L
b101 X
b101 ("
b110011 U
b10 S
b0 T
b0 3
b0 N
b0 Z
b0 O"
0-
b11 Q
1"
#59
0"
#60
b111 e
b111 )"
b111 Q"
b0 g
b0 %"
b0 4"
b0 ?"
b0 C"
b0 o
b0 /"
b0 :"
b111 d
b111 y
b111 9"
b111 L"
b1100 p
b1100 v
b1100 H"
b100000010001100011 b
b100000010001100011 s
b100000010001100011 ;"
b1100 f
b1100 *"
b1100 K"
b1001 R
b10 4
b10 M
b10 Y
b10 I"
b1000 Q
1"
#61
0"
#62
0)
b100111 n
b100111 ,"
b100111 -"
b100111 <"
b100000 f
b100000 *"
b100000 K"
b1 R
1+
b0 5
b0 L
b0 X
b0 ("
b0 4
b0 M
b0 Y
b0 I"
b1001 Q
1"
#63
0"
#64
b0 i
b0 w
b0 D"
b100111 o
b100111 /"
b100111 :"
b100100 n
b100100 ,"
b100100 -"
b100100 <"
b100100 g
b100100 %"
b100100 4"
b100100 ?"
b100100 C"
b100 e
b100 )"
b100 Q"
bx m
bx 2"
bx M"
b11 R
b10 *
b10 P
b10 \
b10 ="
b10 3
b10 N
b10 Z
b10 O"
bx 0
bx O
bx [
bx 0"
0+
11
1-
b1 Q
1"
#65
0"
#66
b1010010011 &
b1010010011 8
b1010010011 _
b10011 $
b10011 6
b10011 ]
b0 j
b0 t
b0 E"
b1010010011 ,
b1010010011 ;
b1010010011 h
b1010010011 q
b1010010011 {
b1010010011 8"
b100100 c
b100100 $"
b100100 7"
b100100 f
b100100 *"
b100100 K"
b10000001000 1"
b1000 B"
b0 A"
b100 @"
b1100011 %
b1100011 7
b1100011 ^
b100100 !
b100100 .
b100100 <
b100100 !"
b100100 &"
b100100 6"
b100100 F"
b100000 k
b100000 #"
b100000 G"
b100000010001100011 l
b100000010001100011 }
b0 d
b0 y
b0 9"
b0 L"
b100100 o
b100100 /"
b100100 :"
b0 m
b0 2"
b0 M"
b100100 g
b100100 %"
b100100 4"
b100100 ?"
b100100 C"
b0 e
b0 )"
b0 Q"
b1100 R
01
b0 0
b0 O
b0 [
b0 0"
b0 *
b0 P
b0 \
b0 ="
bx 5
bx L
bx X
bx ("
b1100011 U
b0 S
b0 3
b0 N
b0 Z
b0 O"
0-
b11 Q
1"
#67
0"
#68
1)
b0 p
b0 v
b0 H"
b1010010011 b
b1010010011 s
b1010010011 ;"
b0 n
b0 ,"
b0 -"
b0 <"
b0 f
b0 *"
b0 K"
b1101 R
b1 5
b1 L
b1 X
b1 ("
b10 4
b10 M
b10 Y
b10 I"
b1100 Q
1"
#69
0"
#70
b0 o
b0 /"
b0 :"
b1000 e
b1000 )"
b1000 Q"
b1000 m
b1000 2"
b1000 M"
b101000 g
b101000 %"
b101000 4"
b101000 ?"
b101000 C"
0)
b101000 n
b101000 ,"
b101000 -"
b101000 <"
b100000 f
b100000 *"
b100000 K"
b1 R
b10 0
b10 O
b10 [
b10 0"
b10 *
b10 P
b10 \
b10 ="
b0 5
b0 L
b0 X
b0 ("
b1 3
b1 N
b1 Z
b1 O"
b1 4
b1 M
b1 Y
b1 I"
1-
b1101 Q
1"
#71
0"
